2
3763
0, 0; 1
2.5, 0; -1
5, 0; -1
7.5, 0; -1
10, 0; 2
0, 2.5; -4
2.5, 2.5; 0
5, 2.5; 0
7.5, 2.5; 0
10, 2.5; -2
0, 5; -4
2.5, 5; 0
5, 5; 0
7.5, 5; 0
10, 5; -2
0, 7.5; -4
2.5, 7.5; 0
5, 7.5; 0
7.5, 7.5; 0
10, 7.5; -2
0, 10; 4
2.5, 10; -3
5, 10; -3
7.5, 10; -3
10, 10; 3
3.75, 3.75; 0
1.25, 6.25; 0
0, 6.25; -4
5, 3.75; 0
10, 6.25; -2
1.25, 3.75; 0
3.75, 6.25; 0
2.5, 3.75; 0
7.5, 6.25; 0
7.5, 3.75; 0
2.5, 6.25; 0
8.75, 6.25; 0
6.25, 3.75; 0
8.75, 3.75; 0
6.25, 6.25; 0
3.75, 1.25; 0
1.25, 8.75; 0
1.25, 1.25; 0
3.75, 8.75; 0
8.75, 8.75; 0
6.25, 1.25; 0
8.75, 1.25; 0
6.25, 8.75; 0
10, 3.75; -2
0, 3.75; -4
5, 6.25; 0
3.75, 5; 0
1.25, 5; 0
6.25, 5; 0
8.75, 5; 0
5, 1.25; 0
10, 8.75; -2
0, 8.75; -4
3.75, 2.5; 0
8.75, 7.5; 0
6.25, 2.5; 0
1.25, 7.5; 0
7.5, 8.75; 0
2.5, 8.75; 0
2.5, 1.25; 0
7.5, 1.25; 0
3.75, 7.5; 0
1.25, 2.5; 0
6.25, 7.5; 0
8.75, 2.5; 0
10, 1.25; -2
5, 8.75; 0
0, 1.25; -4
6.25, 0; -1
8.75, 10; -3
1.25, 10; -3
3.75, 0; -1
6.25, 10; -3
8.75, 0; -1
1.25, 0; -1
3.75, 10; -3
2.49989, 0; -1
5, 0; -1
7.50011, 0; -1
0, 2.48611; -4
2.48929, 2.48516; 0
5, 2.4999; 0
7.51071, 2.48516; 0
10, 2.48611; -2
0, 5; -4
2.5, 5; 0
5, 5; 0
7.5, 5; 0
10, 5; -2
0, 7.5001; -4
2.51071, 7.51484; 0
5, 7.51401; 0
7.48929, 7.51484; 0
10, 7.5001; -2
2.50011, 10; -3
5, 10; -3
7.49989, 10; -3
3.75819, 3.75; 0
1.24181, 6.25; 0
0, 6.25; -4
4.99922, 3.75; 0
10, 6.25; -2
1.22908, 3.74619; 0
3.77092, 6.25381; 0
2.49905, 3.75; 0
7.49866, 6.25; 0
7.50134, 3.75; 0
2.50095, 6.25; 0
8.75819, 6.25; 0
6.24186, 3.75; 0
8.77088, 3.74619; 0
6.22912, 6.25381; 0
3.751, 1.23006; 0
1.249, 8.76994; 0
1.24953, 1.24755; 0
3.75047, 8.75245; 0
8.751, 8.76994; 0
6.249, 1.23006; 0
8.75047, 1.24755; 0
6.24953, 8.75245; 0
10, 3.74125; -2
0, 3.74125; -4
5, 6.25889; 0
3.76156, 5; 0
1.23844, 5; 0
6.23844, 5; 0
8.76156, 5; 0
5, 1.23071; 0
10, 8.76852; -2
0, 8.76852; -4
3.76112, 2.49872; 0
8.76112, 7.50128; 0
6.23888, 2.49872; 0
1.23888, 7.50128; 0
7.49864, 8.7581; 0
2.50136, 8.7581; 0
2.49864, 1.2419; 0
7.50136, 1.2419; 0
3.75344, 7.51856; 0
1.24656, 2.48145; 0
6.24656, 7.51856; 0
8.75344, 2.48145; 0
10, 1.24962; -2
5, 8.75047; 0
0, 1.24962; -4
6.24991, 0; -1
8.75009, 10; -3
1.24991, 10; -3
3.75009, 0; -1
6.24997, 10; -3
8.75003, 0; -1
1.24997, 0; -1
3.75003, 10; -3
4.99961, 4.375; 0
0, 5.625; -4
10, 5.625; -2
7.49933, 5.625; 0
7.50067, 4.375; 0
2.50048, 5.625; 0
2.49952, 4.375; 0
5.61883, 4.375; 0
9.38078, 5.625; 0
0.619218, 5.625; 0
4.38039, 4.375; 0
6.24961, 4.375; 0
1.25, 5.625; 0
8.75, 5.625; 0
3.74961, 4.375; 0
0, 6.87505; -4
10, 6.87505; -2
4.99961, 3.12495; 0
8.75965, 6.87564; 0
1.24035, 6.87564; 0
3.75965, 3.12436; 0
6.24037, 3.12436; 0
9.37909, 6.87505; 0
4.37909, 3.12495; 0
0.620906, 6.87505; 0
5.62093, 3.12495; 0
1.23376, 4.37309; 0
3.76624, 5.62691; 0
8.76622, 4.37309; 0
6.23378, 5.62691; 0
9.38544, 4.37309; 0
5.61456, 5.62691; 0
0.614541, 4.37309; 0
4.38546, 5.62691; 0
6.87093, 4.375; 0
3.12909, 4.375; 0
1.87091, 5.625; 0
8.12909, 5.625; 0
5, 5.62945; 0
10, 4.37062; -2
0, 4.37062; -4
8.13078, 5; 0
6.86922, 5; 0
1.86922, 5; 0
3.13078, 5; 0
1.86874, 4.375; 0
3.13126, 5.625; 0
8.13145, 4.375; 0
6.86855, 5.625; 0
5.61456, 6.88391; 0
4.38546, 6.88391; 0
9.38544, 3.11615; 0
0.614541, 3.11615; 0
4.38056, 1.86471; 0
5.61944, 1.86471; 0
0.619442, 8.1349; 0
9.38056, 8.1349; 0
2.49417, 3.11758; 0
2.50583, 6.88242; 0
7.50603, 3.11758; 0
7.49397, 6.88242; 0
8.12989, 6.87564; 0
6.87011, 3.12436; 0
1.86992, 6.87564; 0
3.13008, 3.12436; 0
8.12842, 6.25; 0
6.8716, 3.75; 0
1.87138, 6.25; 0
3.12862, 3.75; 0
3.13059, 8.13364; 0
6.86941, 8.13364; 0
8.13059, 1.86635; 0
1.86941, 1.86635; 0
3.14081, 6.88433; 0
1.85919, 3.11567; 0
6.8592, 6.88433; 0
8.1408, 3.11567; 0
6.87986, 1.85761; 0
3.12014, 1.85761; 0
1.87986, 8.14239; 0
8.12014, 8.14239; 0
1.87456, 9.38497; 0
6.87456, 0.615032; 0
8.12544, 9.38497; 0
3.12544, 0.615032; 0
9.3755, 9.38497; 0
0.624501, 9.38497; 0
4.3755, 0.615032; 0
5.6245, 0.615032; 0
5, 1.8653; 0
10, 8.13431; -2
0, 8.13431; -4
0.624767, 1.86683; 0
9.37523, 1.86683; 0
0.624767, 0.623773; 0
9.37523, 0.623773; 0
5.62477, 9.37623; 0
4.37523, 9.37623; 0
5.62477, 8.13323; 0
4.37523, 8.13323; 0
3.12529, 9.37623; 0
6.87471, 9.37623; 0
8.12529, 0.623773; 0
1.87471, 0.623773; 0
1.86407, 3.74809; 0
3.13593, 6.25191; 0
8.13611, 3.74809; 0
6.86389, 6.25191; 0
3.75606, 1.86439; 0
6.24394, 1.86439; 0
1.24394, 8.13561; 0
8.75606, 8.13561; 0
6.23784, 6.88619; 0
8.76216, 3.11382; 0
3.76218, 6.88619; 0
1.23782, 3.11382; 0
8.1252, 7.50806; 0
1.8748, 7.50806; 0
6.8748, 2.49194; 0
3.1252, 2.49194; 0
5.62054, 3.75; 0
0.620906, 6.25; 0
9.37909, 6.25; 0
4.3787, 3.75; 0
10, 3.11368; -2
0, 3.11368; -4
5, 6.88645; 0
2.49976, 0; -1
5, 0; -1
7.50024, 0; -1
0, 2.34007; -4
2.36589, 2.4322; 0
4.99999, 2.50871; 0
7.6341, 2.43216; 0
10, 2.34007; -2
0, 4.98819; -4
2.50003, 4.99998; 0
5, 5.03715; 0
7.50003, 5.00002; 0
10, 4.98819; -2
0, 7.48787; -4
2.63411, 7.5678; 0
5, 7.63951; 0
7.3659, 7.56784; 0
10, 7.48787; -2
2.50024, 10; -3
5, 10; -3
7.49976, 10; -3
3.69667, 3.7527; 0
1.30319, 6.2473; 0
0, 6.25076; -4
4.99938, 3.75009; 0
10, 6.25076; -2
1.09097, 3.81097; 0
3.90903, 6.18904; 0
2.52117, 3.74713; 0
7.52097, 6.25287; 0
7.47904, 3.74713; 0
2.47883, 6.25287; 0
8.69676, 6.2473; 0
6.30313, 3.7527; 0
8.90909, 3.81097; 0
6.09091, 6.18904; 0
3.77404, 1.14481; 0
1.22591, 8.85511; 0
1.2525, 1.24836; 0
3.74749, 8.75165; 0
8.77409, 8.85511; 0
6.22596, 1.14481; 0
8.7475, 1.24836; 0
6.25251, 8.75165; 0
10, 3.80844; -2
0, 3.80844; -4
5, 6.14054; 0
3.76541, 5.01213; 0
1.23262, 4.98805; 0
6.23461, 5.01215; 0
8.76737, 4.98804; 0
5, 1.16376; 0
10, 8.8562; -2
0, 8.8562; -4
3.87645, 2.54047; 0
8.8762, 7.45938; 0
6.12357, 2.54048; 0
1.12379, 7.4594; 0
7.50962, 8.74536; 0
2.49038, 8.74536; 0
2.50963, 1.25464; 0
7.49037, 1.25464; 0
3.73024, 7.61076; 0
1.26999, 2.38889; 0
6.26977, 7.61076; 0
8.73001, 2.38889; 0
10, 1.24622; -2
5, 8.75259; 0
0, 1.24622; -4
6.2498, 0; -1
8.7502, 10; -3
1.2498, 10; -3
3.7502, 0; -1
6.24995, 10; -3
8.75005, 0; -1
1.24995, 0; -1
3.75005, 10; -3
4.99953, 4.37654; 0
0, 5.6239; -4
10, 5.6239; -2
7.50946, 5.63079; 0
7.49041, 4.36914; 0
2.49034, 5.63081; 0
2.50982, 4.36911; 0
5.71996, 4.38777; 0
9.27945, 5.61212; 0
0.720549, 5.61212; 0
4.27914, 4.3878; 0
6.34483, 4.38428; 0
1.34508, 5.61573; 0
8.65492, 5.61573; 0
3.65462, 4.3843; 0
0, 6.886; -4
10, 6.886; -2
4.99985, 3.11719; 0
8.71983, 6.86721; 0
1.28008, 6.86722; 0
3.71975, 3.13284; 0
6.28034, 3.13283; 0
9.30798, 6.87012; 0
4.30837, 3.12936; 0
0.691977, 6.87012; 0
5.69158, 3.12935; 0
1.29807, 4.38092; 0
3.70339, 5.61852; 0
8.70203, 4.38092; 0
6.29651, 5.61852; 0
9.35891, 4.39528; 0
5.64315, 5.59893; 0
0.641126, 4.39528; 0
4.35681, 5.59893; 0
6.89423, 4.36524; 0
3.10566, 4.3652; 0
1.89428, 5.63478; 0
8.1057, 5.63478; 0
4.99999, 5.57076; 0
10, 4.42292; -2
0, 4.42292; -4
8.13873, 5.0142; 0
6.86172, 4.9858; 0
1.86128, 5.0142; 0
3.13832, 4.98577; 0
1.92903, 4.36971; 0
3.07122, 5.63039; 0
8.07111, 4.36971; 0
6.92864, 5.6304; 0
5.61691, 6.86404; 0
4.38309, 6.86403; 0
9.37887, 3.12457; 0
0.621129, 3.12457; 0
4.37273, 1.8604; 0
5.62728, 1.8604; 0
0.625062, 8.1423; 0
9.37493, 8.1423; 0
2.52594, 3.14536; 0
2.47406, 6.85464; 0
7.47414, 3.14535; 0
7.52586, 6.85465; 0
8.14786, 6.87448; 0
6.85213, 3.12546; 0
1.85206, 6.87449; 0
3.14796, 3.12545; 0
8.11447, 6.26511; 0
6.88548, 3.73489; 0
1.88539, 6.26511; 0
3.11456, 3.73488; 0
3.10946, 8.17106; 0
6.89053, 8.17107; 0
8.10932, 1.82883; 0
1.89068, 1.82883; 0
3.12924, 6.87402; 0
1.87075, 3.12596; 0
6.87074, 6.87406; 0
8.12927, 3.12592; 0
6.97811, 1.79935; 0
3.02188, 1.79936; 0
1.97813, 8.20063; 0
8.02188, 8.20064; 0
1.88485, 9.38233; 0
6.88488, 0.617646; 0
8.11515, 9.38233; 0
3.11512, 0.617645; 0
9.38749, 9.41274; 0
0.612514, 9.41274; 0
4.39297, 0.590768; 0
5.60703, 0.590768; 0
5, 1.91081; 0
10, 8.09776; -2
0, 8.09776; -4
0.647221, 1.8411; 0
9.35278, 1.8411; 0
0.626363, 0.625116; 0
9.37364, 0.625116; 0
5.62609, 9.37466; 0
4.37391, 9.37466; 0
5.64211, 8.15659; 0
4.35789, 8.15659; 0
3.11828, 9.36976; 0
6.88172, 9.36976; 0
8.11828, 0.630244; 0
1.88172, 0.630243; 0
1.86822, 3.78884; 0
3.13197, 6.21092; 0
8.13191, 3.78883; 0
6.8679, 6.21092; 0
3.71414, 1.91625; 0
6.28586, 1.91625; 0
1.28549, 8.08312; 0
8.71452, 8.08311; 0
6.26481, 6.85283; 0
8.73436, 3.14959; 0
3.73519, 6.85283; 0
1.26564, 3.14959; 0
8.11796, 7.44783; 0
1.88204, 7.44783; 0
6.88185, 2.5521; 0
3.11815, 2.5521; 0
5.73993, 3.76096; 0
0.740668, 6.23876; 0
9.2593, 6.23876; 0
4.25937, 3.76098; 0
10, 3.12915; -2
0, 3.12915; -4
5, 6.84912; 0
5.72995, 4.07437; 0
4.26926, 4.07439; 0
9.26938, 5.92544; 0
0.730609, 5.92544; 0
1.18048, 3.09993; 0
8.81955, 3.09993; 0
3.81964, 6.8999; 0
10, 5.93733; -2
0, 5.93733; -4
4.99946, 4.06332; 0
0.360275, 5.93144; 0
9.63973, 5.93144; 0
5.35967, 4.06893; 0
4.63926, 4.06894; 0
7.50474, 5.3154; 0
7.49522, 4.68458; 0
2.49519, 5.31539; 0
2.50492, 4.68455; 0
5.61707, 4.69434; 0
9.38369, 5.30597; 0
0.616308, 5.30598; 0
4.38247, 4.69434; 0
4.38702, 1.52781; 0
5.61298, 1.52781; 0
4.99977, 4.70685; 0
9.38704, 8.47644; 0
0.612956, 8.47644; 0
0, 6.56838; -4
10, 6.56838; -2
4.99961, 3.43364; 0
0.370334, 6.56238; 0
9.62965, 6.56238; 0
5.36989, 3.43907; 0
4.62961, 3.43909; 0
0, 5.30605; -4
10, 5.30605; -2
0.649033, 4.68455; 0
9.35101, 4.68456; 0
5.71576, 3.44515; 0
4.28387, 3.44517; 0
0.716323, 6.55444; 0
9.28364, 6.55444; 0
5.64017, 2.82077; 0
4.35987, 2.82077; 0
9.35992, 7.17754; 0
0.640041, 7.17754; 0
4.3517, 5.32784; 0
5.64826, 5.32784; 0
5.63488, 7.22994; 0
4.36512, 7.22994; 0
9.365, 2.75902; 0
0.634994, 2.75902; 0
0.545483, 3.47006; 0
9.45455, 3.47006; 0
4.45452, 6.51908; 0
5.54545, 6.51908; 0
1.87122, 4.67858; 0
8.12889, 4.67859; 0
3.12787, 5.32147; 0
6.87203, 5.32147; 0
6.89533, 6.85374; 0
2.49961, 0; -1
5, 0; -1
7.50039, 0; -1
0, 2.26027; -4
2.3422, 2.43675; 0
5, 2.47396; 0
7.65779, 2.43672; 0
10, 2.26027; -2
0, 4.93148; -4
2.50001, 4.99997; 0
4.99999, 5.01489; 0
7.50009, 5.00004; 0
10, 4.93148; -2
0, 7.4684; -4
2.65787, 7.56325; 0
5, 7.73435; 0
7.33826, 7.5597; 0
10, 7.4684; -2
2.50039, 10; -3
5, 10; -3
7.49961, 10; -3
3.51561, 3.82182; 0
1.48441, 6.17813; 0
0, 6.24716; -4
4.99972, 3.72441; 0
10, 6.24716; -2
1.09147, 3.88609; 0
3.9046, 6.11089; 0
2.53023, 3.74696; 0
7.53013, 6.25307; 0
7.46987, 3.74696; 0
2.46974, 6.25307; 0
8.51554, 6.17815; 0
6.48406, 3.82177; 0
8.90861, 3.88609; 0
6.08737, 6.09201; 0
3.67649, 1.11026; 0
1.32502, 8.88902; 0
1.25931, 1.23943; 0
3.74222, 8.7589; 0
8.67498, 8.88902; 0
6.32351, 1.11026; 0
8.74069, 1.23943; 0
6.25778, 8.75891; 0
10, 3.84988; -2
0, 3.84988; -4
4.99965, 6.00815; 0
3.77602, 5.03522; 0
1.22219, 4.96458; 0
6.22387, 5.03513; 0
8.77785, 4.9646; 0
5, 1.07429; 0
10, 8.89922; -2
0, 8.89922; -4
3.93922, 2.51556; 0
8.93933, 7.48196; 0
6.06081, 2.51557; 0
1.06064, 7.48196; 0
7.49848, 8.78446; 0
2.5015, 8.78419; 0
2.49847, 1.21572; 0
7.50153, 1.21572; 0
3.60211, 7.67441; 0
1.40125, 2.32615; 0
6.3896, 7.64837; 0
8.59875, 2.32615; 0
10, 1.22774; -2
5, 8.76985; 0
0, 1.22774; -4
6.24967, 0; -1
8.75033, 10; -3
1.24967, 10; -3
3.75033, 0; -1
6.24993, 10; -3
8.75007, 0; -1
1.24993, 0; -1
3.75007, 10; -3
4.99954, 4.35824; 0
0, 5.63014; -4
10, 5.63014; -2
7.63692, 5.72106; 0
7.36329, 4.27915; 0
2.36299, 5.72106; 0
2.63675, 4.27915; 0
5.84878, 4.44059; 0
9.15437, 5.56109; 0
0.845635, 5.56108; 0
4.15033, 4.44077; 0
6.50982, 4.45114; 0
1.51023, 5.54854; 0
8.48974, 5.54854; 0
3.48968, 4.45125; 0
0, 6.93772; -4
10, 6.93772; -2
5.00005, 2.98797; 0
8.60857, 6.81119; 0
1.39138, 6.81118; 0
3.60928, 3.18835; 0
6.39075, 3.18832; 0
9.24646, 6.84043; 0
4.25562, 3.16976; 0
0.7535, 6.84043; 0
5.74446, 3.1698; 0
1.34586, 4.36531; 0
3.65026, 5.6333; 0
8.65425, 4.36531; 0
6.35151, 5.62939; 0
6.79205, 4.29782; 0
3.20802, 4.29766; 0
1.79189, 5.70226; 0
8.20808, 5.70226; 0
5.00152, 5.53194; 0
10, 4.4491; -2
0, 4.4491; -4
8.24958, 5.09137; 0
6.75084, 4.90843; 0
1.75048, 5.09135; 0
3.24917, 4.9084; 0
1.98342, 4.30149; 0
3.01475, 5.6984; 0
8.01668, 4.3015; 0
6.98757, 5.69872; 0
2.50597, 3.17891; 0
2.49414, 6.82097; 0
7.49409, 3.17891; 0
7.51986, 6.82283; 0
8.15515, 6.87883; 0
6.85012, 3.12134; 0
1.85041, 6.87846; 0
3.14994, 3.12131; 0
8.10199, 6.29014; 0
6.89792, 3.70988; 0
1.89801, 6.29004; 0
3.10205, 3.70986; 0
3.06186, 8.23257; 0
6.93042, 8.22687; 0
8.06172, 1.76665; 0
1.93829, 1.76666; 0
3.15434, 6.84399; 0
1.8458, 3.15607; 0
8.15423, 3.15603; 0
7.02029, 1.81159; 0
2.9797, 1.8116; 0
2.02035, 8.18799; 0
7.97817, 8.18673; 0
1.91032, 9.41605; 0
6.91024, 0.584234; 0
8.08974, 9.41609; 0
3.08976, 0.584232; 0
9.36445, 9.40386; 0
0.635555, 9.40386; 0
4.35809, 0.593365; 0
5.64191, 0.593364; 0
5, 1.96686; 0
10, 8.0936; -2
0, 8.0936; -4
0.687888, 1.823; 0
9.31211, 1.823; 0
0.630366, 0.622113; 0
9.36964, 0.622111; 0
5.62981, 9.37746; 0
4.37019, 9.37746; 0
5.68817, 8.1711; 0
4.31511, 8.17231; 0
3.12509, 9.38019; 0
6.87484, 9.38024; 0
8.12443, 0.619127; 0
1.87557, 0.619126; 0
1.8838, 3.79858; 0
3.11452, 6.20142; 0
8.11628, 3.79857; 0
6.88484, 6.20157; 0
3.72753, 1.96163; 0
6.27247, 1.96163; 0
1.2707, 8.0374; 0
8.7289, 8.0376; 0
6.27646, 6.81161; 0
8.11276, 7.44073; 0
1.88822, 7.43932; 0
6.88875, 2.5607; 0
3.11126, 2.5607; 0
5.88987, 3.82829; 0
0.880247, 6.17565; 0
9.11971, 6.17564; 0
4.10956, 3.82836; 0
10, 3.11958; -2
0, 3.11958; -4
4.99999, 6.84214; 0
5.85802, 4.07414; 0
4.14122, 4.07423; 0
9.12838, 5.92039; 0
0.871609, 5.92039; 0
1.25105, 3.15031; 0
8.74899, 3.15032; 0
3.74904, 6.84827; 0
10, 5.93977; -2
0, 5.93977; -4
4.99941, 4.03758; 0
0.418614, 5.93696; 0
9.58138, 5.93696; 0
5.41063, 4.06397; 0
4.58833, 4.06403; 0
7.47692, 5.30516; 0
7.52328, 4.695; 0
2.52305, 5.30515; 0
2.47683, 4.69497; 0
5.67468, 4.69045; 0
9.31711, 5.30034; 0
0.682897, 5.30033; 0
4.32482, 4.69047; 0
4.37819, 1.53062; 0
5.62181, 1.53062; 0
4.99968, 4.67943; 0
9.34903, 8.47823; 0
0.650943, 8.47829; 0
0, 6.57521; -4
10, 6.57521; -2
4.99961, 3.38429; 0
0.381315, 6.56994; 0
9.61867, 6.56993; 0
5.37346, 3.42657; 0
4.62605, 3.4266; 0
0, 5.3014; -4
10, 5.3014; -2
0.712503, 4.7035; 0
9.28753, 4.70351; 0
5.83793, 3.45556; 0
4.16166, 3.45558; 0
0.849614, 6.54254; 0
9.15036, 6.54254; 0
5.65003, 2.76773; 0
4.35, 2.76773; 0
9.36835, 7.22116; 0
0.631629, 7.22116; 0
4.31018, 5.30122; 0
5.69067, 5.30237; 0
5.68279, 7.30325; 0
4.32744, 7.31682; 0
9.31723, 2.67444; 0
0.682769, 2.67445; 0
0.612343, 3.51603; 0
9.38769, 3.51602; 0
4.42726, 6.4495; 0
5.57682, 6.44768; 0
1.9245, 4.68685; 0
8.07556, 4.68684; 0
3.07476, 5.31298; 0
6.92472, 5.31257; 0
6.8944, 6.83934; 0
0.440124, 5.90289; 0
4.55455, 4.0933; 0
10, 6.59244; -2
0.862941, 5.86836; 0
4.12995, 4.13457; 0
10, 5.93865; -2
0, 5.93865; -4
6.10134, 4.18089; 0
4.7601, 3.94616; 0
8.89473, 5.81961; 0
0.816874, 6.50804; 0
4.18259, 3.49906; 0
8.36066, 7.12596; 0
3.36027, 2.87453; 0
6.63975, 2.87451; 0
1.6398, 7.12525; 0
6.94242, 3.18362; 0
3.05762, 3.18363; 0
1.94276, 6.81608; 0
8.06422, 6.81701; 0
5.74398, 3.11165; 0
1.87851, 3.16461; 0
2.49943, 0; -1
5, 0; -1
7.50057, 0; -1
0, 2.21919; -4
2.33085, 2.48442; 0
5.00001, 2.4626; 0
7.66866, 2.48527; 0
10, 2.21919; -2
0, 4.91684; -4
2.50001, 5; 0
5.0007, 4.95889; 0
7.50005, 5.00004; 0
10, 4.91684; -2
0, 7.45839; -4
2.66942, 7.5145; 0
5.007, 7.76207; 0
7.29827, 7.47959; 0
10, 7.45839; -2
2.50057, 10; -3
5, 10; -3
7.49943, 10; -3
3.42345, 3.85995; 0
1.57223, 6.14023; 0
0, 6.25013; -4
5.0469, 3.67201; 0
10, 6.25714; -2
1.07714, 3.94353; 0
3.9142, 6.06453; 0
2.52662, 3.75373; 0
7.52737, 6.24631; 0
7.4734, 3.75373; 0
2.47285, 6.2462; 0
8.43684, 6.1386; 0
6.56156, 3.85899; 0
8.92204, 3.93392; 0
6.05122, 6.01668; 0
3.62846, 1.14122; 0
1.38135, 8.86584; 0
1.2738, 1.22049; 0
3.72858, 8.77726; 0
8.61826, 8.86553; 0
6.37154, 1.14122; 0
8.72621, 1.22048; 0
6.27115, 8.77686; 0
10, 3.86549; -2
0, 3.86549; -4
4.99545, 5.99206; 0
3.77698, 5.08425; 0
1.23975, 4.91189; 0
6.22272, 5.08427; 0
8.7603, 4.91191; 0
5, 1.05653; 0
10, 8.92671; -2
0, 8.92671; -4
4.04983, 2.44237; 0
9.05663, 7.54907; 0
5.95019, 2.44237; 0
0.943822, 7.54887; 0
7.51405, 8.84884; 0
2.48326, 8.85165; 0
2.51733, 1.14822; 0
7.48267, 1.14823; 0
3.55608, 7.62949; 0
1.4553, 2.34368; 0
6.43477, 7.65287; 0
8.55075, 2.36902; 0
10, 1.20193; -2
5.001, 8.76697; 0
0, 1.20193; -4
6.24951, 0; -1
8.75049, 10; -3
1.24951, 10; -3
3.75049, 0; -1
6.24992, 10; -3
8.75008, 0; -1
1.24992, 0; -1
3.75008, 10; -3
5.00831, 4.34986; 0
0, 5.62957; -4
10, 5.62957; -2
7.66811, 5.76362; 0
7.33209, 4.23624; 0
2.3353, 5.76176; 0
2.66251, 4.23935; 0
5.93021, 4.44357; 0
9.07991, 5.55776; 0
0.942458, 5.52388; 0
4.05697, 4.47456; 0
6.6789, 4.55669; 0
1.62908, 5.48398; 0
8.32475, 5.44256; 0
3.36718, 4.51724; 0
0, 6.96609; -4
10, 6.97395; -2
4.98662, 2.95875; 0
8.72509, 6.80289; 0
1.36809, 6.80549; 0
3.63987, 3.19413; 0
6.37321, 3.20959; 0
4.25262, 3.19208; 0
0.765502, 6.80954; 0
1.36415, 4.37106; 0
3.63807, 5.62559; 0
8.63758, 4.36878; 0
6.37185, 5.61781; 0
6.80391, 4.28659; 0
3.24102, 4.27341; 0
1.75655, 5.72691; 0
8.19628, 5.71229; 0
5.00483, 5.49348; 0
10, 4.45433; -2
0, 4.45433; -4
8.32232, 5.12145; 0
6.67913, 4.87826; 0
1.69183, 5.12352; 0
3.30906, 4.87582; 0
2.01247, 4.29627; 0
2.98801, 5.70288; 0
7.98846, 4.29662; 0
7.02057, 5.70522; 0
2.48054, 3.19562; 0
2.53386, 6.80391; 0
7.53399, 3.19632; 0
7.39222, 6.80001; 0
8.13627, 6.32391; 0
6.87353, 3.6878; 0
1.84854, 6.32816; 0
3.14898, 3.67182; 0
3.00895, 8.25015; 0
6.99786, 8.24638; 0
8.00793, 1.74822; 0
1.99944, 1.74079; 0
3.31117, 6.80748; 0
8.3153, 3.19279; 0
7.0567, 1.83133; 0
2.94508, 1.83131; 0
2.05627, 8.16794; 0
7.93442, 8.15622; 0
1.89863, 9.45409; 0
6.89497, 0.549774; 0
8.1002, 9.45297; 0
3.10503, 0.549772; 0
9.33389, 9.39226; 0
0.665954, 9.39239; 0
4.32962, 0.607401; 0
5.67037, 0.6074; 0
5, 1.96136; 0
10, 8.09576; -2
0, 8.09576; -4
0.719523, 1.78917; 0
9.27711, 1.79106; 0
0.635953, 0.616992; 0
9.36405, 0.616989; 0
5.62861, 9.37798; 0
4.37181, 9.37751; 0
5.71885, 8.1987; 0
4.27875, 8.19784; 0
3.13289, 9.39599; 0
6.86704, 9.39615; 0
8.13165, 0.602921; 0
1.86835, 0.602919; 0
1.87935, 3.81196; 0
3.12138, 6.19531; 0
8.1231, 3.80276; 0
6.85267, 6.19124; 0
3.73299, 1.96729; 0
6.2677, 1.96716; 0
1.26716, 8.02629; 0
8.73132, 8.02773; 0
6.4345, 6.79111; 0
8.0712, 7.46349; 0
1.9131, 7.47378; 0
6.91374, 2.52495; 0
3.08772, 2.52306; 0
5.88352, 3.80851; 0
0.883512, 6.17657; 0
9.14075, 6.20089; 0
4.10565, 3.82415; 0
10, 3.10967; -2
0, 3.10967; -4
5.00042, 6.85504; 0
1.26235, 3.17802; 0
9.4989, 5.96105; 0
5.46034, 4.03214; 0
7.44373, 5.29756; 0
7.55697, 4.70274; 0
2.53331, 5.31119; 0
2.46586, 4.68926; 0
5.61407, 4.68368; 0
9.25329, 5.30432; 0
0.73593, 5.29793; 0
4.40523, 4.68874; 0
4.37896, 1.51242; 0
5.62115, 1.51256; 0
9.34666, 8.49975; 0
0.653463, 8.49991; 0
0, 6.58825; -4
5.02014, 3.34352; 0
0, 5.29479; -4
10, 5.29479; -2
0.723341, 4.71212; 0
9.27651, 4.71291; 0
5.90215, 3.46388; 0
9.15037, 6.59788; 0
5.67534, 2.74579; 0
4.31525, 2.77639; 0
9.32695, 7.17452; 0
0.665658, 7.20835; 0
4.32251, 5.27653; 0
5.68081, 5.27972; 0
5.73041, 7.25478; 0
4.26155, 7.25448; 0
9.2517, 2.72554; 0
0.696154, 2.67961; 0
0.631664, 3.5409; 0
9.25978, 3.49842; 0
4.32459, 6.45783; 0
5.63731, 6.43437; 0
1.95569, 4.69649; 0
8.04151, 4.69079; 0
3.05033, 5.30112; 0
6.95015, 5.305; 0
0.450019, 5.9229; 0
4.60393, 4.12079; 0
10, 6.59716; -2
0.990373, 5.86985; 0
3.89262, 4.15487; 0
10, 5.94396; -2
0, 5.94097; -4
6.15061, 4.16493; 0
4.73215, 3.88987; 0
8.83592, 5.83349; 0
0.855637, 6.49986; 0
4.15581, 3.50601; 0
8.43769, 7.16058; 0
3.44815, 2.81845; 0
6.55277, 2.82232; 0
1.55775, 7.18102; 0
7.005, 3.26059; 0
3.00008, 3.26055; 0
2.00814, 6.73827; 0
7.99522, 6.73462; 0
5.69945, 3.12024; 0
1.86328, 3.19207; 0
10, 5.94335; -2
0, 5.93985; -4
4.04966, 4.20356; 0
5.46841, 2.70056; 0
4.23553, 3.1412; 0
1.10329, 5.8249; 0
8.84759, 5.83667; 0
0.760648, 6.8541; 0
2.98738, 3.28609; 0
2.0153, 6.71361; 0
7.01309, 3.28802; 0
5.82482, 2.7813; 0
1.27972, 2.93584; 0
4.87614, 3.6167; 0
2.49923, 0; -1
5, 0; -1
7.50077, 0; -1
0, 2.19311; -4
2.28618, 2.5235; 0
4.93732, 2.42553; 0
7.7043, 2.5353; 0
10, 2.19311; -2
0, 4.91312; -4
2.49898, 5.00053; 0
5.00787, 4.93783; 0
7.50117, 5.00069; 0
10, 4.91312; -2
0, 7.46145; -4
2.7048, 7.4652; 0
4.99686, 7.75165; 0
7.24962, 7.4385; 0
10, 7.46412; -2
2.50077, 10; -3
5, 10; -3
7.49923, 10; -3
3.42087, 3.8646; 0
1.57626, 6.13341; 0
0, 6.2564; -4
10, 6.2625; -2
1.04762, 3.96891; 0
3.94589, 6.00464; 0
2.49298, 3.79758; 0
7.4838, 6.21432; 0
7.51558, 3.7976; 0
2.50889, 6.20228; 0
8.46746, 6.15555; 0
6.57201, 3.86538; 0
8.96636, 3.99844; 0
5.9969, 5.95774; 0
3.59163, 1.16282; 0
1.42127, 8.84321; 0
1.30355, 1.21043; 0
3.70134, 8.78715; 0
8.57521, 8.8403; 0
6.40863, 1.16297; 0
8.69684, 1.20959; 0
6.30081, 8.78501; 0
10, 3.86755; -2
0, 3.86755; -4
4.97422, 6.0023; 0
3.77405, 5.1052; 0
1.27422, 4.87457; 0
6.22184, 5.10415; 0
8.73141, 4.87592; 0
5.00006, 1.03481; 0
10, 8.94573; -2
0, 8.94573; -4
4.11115, 2.34693; 0
9.04762, 7.53857; 0
5.8924, 2.29583; 0
0.853277, 7.62471; 0
7.53248, 8.89529; 0
2.46755, 8.89661; 0
2.53763, 1.09949; 0
7.46546, 1.1025; 0
3.54068, 7.635; 0
1.48473, 2.22707; 0
6.43937, 7.66457; 0
8.53446, 2.36059; 0
10, 1.17513; -2
4.99957, 8.75732; 0
0, 1.17513; -4
6.24932, 0; -1
8.75068, 10; -3
1.24932, 10; -3
3.75068, 0; -1
6.24993, 10; -3
8.75007, 0; -1
1.24993, 0; -1
3.75007, 10; -3
4.97796, 4.31553; 0
0, 5.6273; -4
10, 5.62884; -2
7.68651, 5.79014; 0
7.33289, 4.21967; 0
2.32695, 5.78429; 0
2.67427, 4.21448; 0
5.91659, 4.4234; 0
9.09876, 5.59694; 0
0.939072, 5.56021; 0
4.06827, 4.47925; 0
6.74891, 4.59683; 0
1.74441, 5.41123; 0
8.25251, 5.40288; 0
3.28682, 4.56156; 0
0, 6.98228; -4
10, 6.98915; -2
4.95311, 2.93763; 0
8.70616, 6.82048; 0
1.39126, 6.80318; 0
3.60878, 3.19977; 0
6.39304, 3.23724; 0
1.38146, 4.37142; 0
3.6256, 5.61261; 0
8.61134, 4.3728; 0
6.38836, 5.60846; 0
6.83894, 4.29762; 0
3.24801, 4.27088; 0
1.80377, 5.71801; 0
8.16633, 5.70798; 0
5.00581, 5.48329; 0
10, 4.45433; -2
0, 4.45433; -4
8.38835, 5.14924; 0
6.61464, 4.85461; 0
1.64947, 5.13514; 0
3.33563, 4.86628; 0
2.01115, 4.31544; 0
2.9941, 5.68114; 0
7.98653, 4.31243; 0
7.02418, 5.69118; 0
2.53152, 3.18009; 0
2.53399, 6.81776; 0
7.53242, 3.18122; 0
7.36171, 6.7966; 0
8.15655, 6.33576; 0
6.87127, 3.69766; 0
1.80943, 6.33646; 0
3.18767, 3.6644; 0
2.98005, 8.25128; 0
7.02713, 8.24813; 0
7.97737, 1.74621; 0
2.06268, 1.71119; 0
3.41157, 6.77342; 0
8.39591, 3.21925; 0
7.08005, 1.83564; 0
2.93245, 1.83588; 0
2.07986, 8.16294; 0
7.91088, 8.14738; 0
1.87889, 9.4835; 0
6.87412, 0.521823; 0
8.12081, 9.48311; 0
3.12721, 0.520557; 0
9.30825, 9.38653; 0
0.690344, 9.3876; 0
4.30557, 0.61434; 0
5.69455, 0.614421; 0
5.00067, 1.91439; 0
10, 8.10287; -2
0, 8.10201; -4
0.711499, 1.76971; 0
9.2667, 1.7992; 0
0.647465, 0.616475; 0
9.35281, 0.616252; 0
5.63003, 9.37064; 0
4.37084, 9.37152; 0
5.72097, 8.18639; 0
4.26587, 8.17918; 0
3.13505, 9.41168; 0
6.86506, 9.4117; 0
8.13295, 0.586581; 0
1.86693, 0.587052; 0
1.88411, 3.80841; 0
3.12836, 6.19849; 0
8.13363, 3.79593; 0
6.82167, 6.18736; 0
3.69708, 1.94841; 0
6.32833, 1.93724; 0
1.27525, 8.03419; 0
8.73593, 8.02236; 0
6.51199, 6.7732; 0
8.0913, 7.39473; 0
1.91891, 7.47454; 0
6.92199, 2.5298; 0
3.07809, 2.52285; 0
5.79905, 3.77509; 0
0.860869, 6.18539; 0
9.15371, 6.24417; 0
3.99912, 3.86425; 0
10, 3.09903; -2
0, 3.09903; -4
4.99442, 6.83294; 0
9.44951, 5.99866; 0
5.4094, 4.01569; 0
7.4226, 5.28406; 0
7.58018, 4.71888; 0
2.54429, 5.30373; 0
2.47255, 4.68684; 0
5.57356, 4.66936; 0
9.21699, 5.30242; 0
0.78054, 5.28985; 0
4.45602, 4.68383; 0
4.35301, 1.51775; 0
5.64807, 1.51272; 0
9.33964, 8.51277; 0
0.657844, 8.51188; 0
0, 6.59915; -4
5.05509, 3.30091; 0
0, 5.29142; -4
10, 5.29211; -2
0.722331, 4.72218; 0
9.27759, 4.71905; 0
5.95631, 3.47846; 0
9.15845, 6.64419; 0
4.26817, 2.74096; 0
9.32487, 7.16324; 0
0.704936, 7.23335; 0
4.34044, 5.26254; 0
5.66679, 5.2674; 0
5.74967, 7.22874; 0
4.23418, 7.23266; 0
9.23252, 2.73245; 0
0.654056, 2.65488; 0
0.70869, 3.50551; 0
9.23889, 3.49963; 0
4.27581, 6.4552; 0
5.68624, 6.42936; 0
1.97703, 4.69909; 0
8.03261, 4.70077; 0
3.04549, 5.29439; 0
6.95735, 5.3004; 0
0.503488, 5.95231; 0
10, 6.60592; -2
6.1797, 4.15985; 0
4.72418, 3.90211; 0
0.873468, 6.5144; 0
4.16091, 3.48236; 0
3.47916, 2.79645; 0
6.53716, 2.80772; 0
1.52126, 7.2021; 0
8.04689, 6.79036; 0
5.68855, 3.13948; 0
1.82168, 3.27776; 0
10, 5.94653; -2
0, 5.94283; -4
4.05033, 4.17702; 0
5.4158, 2.66; 0
4.23004, 3.16282; 0
1.19287, 5.81783; 0
8.77427, 5.83473; 0
0.757146, 6.83094; 0
2.97277, 3.32039; 0
2.04805, 6.68441; 0
7.03458, 3.31497; 0
5.90684, 2.79482; 0
1.35268, 2.98647; 0
4.89678, 3.59761; 0
10, 5.94567; -2
5.42276, 2.61673; 0
6.14272, 2.76654; 0
0.789202, 6.87387; 0
1.23787, 2.96632; 0
5.67308, 3.08744; 0
2.49898, 0; -1
5, 0; -1
7.50102, 0; -1
0, 2.172; -4
2.24901, 2.56321; 0
4.90474, 2.39521; 0
7.72238, 2.55965; 0
10, 2.172; -2
0, 4.91101; -4
2.51379, 4.99379; 0
5.02028, 4.93362; 0
7.48609, 4.99844; 0
10, 4.91133; -2
0, 7.46981; -4
2.72653, 7.43669; 0
4.99482, 7.72735; 0
7.26526, 7.43116; 0
10, 7.47364; -2
2.50102, 10; -3
5, 10; -3
7.49898, 10; -3
3.4175, 3.86649; 0
1.56095, 6.1306; 0
0, 6.26297; -4
10, 6.2678; -2
1.01155, 4.02264; 0
3.99219, 5.94596; 0
2.48835, 3.82314; 0
7.49234, 6.22836; 0
7.53659, 3.81973; 0
2.51732, 6.17744; 0
8.48373, 6.17202; 0
6.5644, 3.8784; 0
9.02477, 4.05018; 0
5.94308, 5.90392; 0
3.56782, 1.15991; 0
1.44408, 8.83376; 0
1.32927, 1.20358; 0
3.6849, 8.78445; 0
8.55068, 8.82325; 0
6.436, 1.15407; 0
8.67618, 1.21129; 0
6.31814, 8.7801; 0
10, 3.86439; -2
0, 3.86439; -4
4.96853, 6.00875; 0
3.78175, 5.09823; 0
1.29328, 4.86404; 0
6.21096, 5.09619; 0
8.72172, 4.87045; 0
4.99877, 1.02358; 0
10, 8.96018; -2
0, 8.95994; -4
4.12279, 2.27283; 0
9.03875, 7.51928; 0
5.81201, 2.21658; 0
0.799512, 7.70456; 0
7.53947, 8.91951; 0
2.46194, 8.92224; 0
2.55572, 1.05995; 0
7.46016, 1.076; 0
3.53169, 7.64459; 0
1.45502, 2.20423; 0
6.45312, 7.66396; 0
8.52611, 2.34858; 0
10, 1.14985; -2
4.9951, 8.74072; 0
0, 1.14985; -4
6.24909, 0; -1
8.75091, 10; -3
1.24909, 10; -3
3.75091, 0; -1
6.24994, 10; -3
8.75006, 0; -1
1.24994, 0; -1
3.75006, 10; -3
4.95938, 4.2927; 0
0, 5.62693; -4
10, 5.62866; -2
7.68675, 5.79522; 0
7.33963, 4.22227; 0
2.33009, 5.78888; 0
2.67342, 4.21151; 0
5.90502, 4.40196; 0
9.11249, 5.62776; 0
0.891581, 5.61128; 0
4.06117, 4.4709; 0
6.75649, 4.60227; 0
1.78134, 5.38465; 0
8.21297, 5.37216; 0
3.27925, 4.57223; 0
0, 6.99392; -4
10, 6.99977; -2
4.92095, 2.89271; 0
8.68478, 6.84012; 0
1.41829, 6.8007; 0
3.62278, 3.18698; 0
6.37974, 3.25041; 0
1.40049, 4.37409; 0
3.61356, 5.60261; 0
8.589, 4.37099; 0
6.39911, 5.60041; 0
6.86428, 4.3144; 0
3.2113, 4.29207; 0
1.84328, 5.70265; 0
8.13143, 5.69974; 0
4.99933, 5.48112; 0
10, 4.45241; -2
0, 4.45227; -4
8.44062, 5.16929; 0
6.56255, 4.83759; 0
1.60587, 5.15485; 0
3.3547, 4.86197; 0
2.01016, 4.32727; 0
3.00461, 5.66451; 0
7.9871, 4.32581; 0
7.03131, 5.69198; 0
2.54448, 3.17099; 0
2.55322, 6.81642; 0
7.5474, 3.18503; 0
7.36353, 6.77568; 0
8.16581, 6.35249; 0
6.87975, 3.70824; 0
1.78266, 6.34456; 0
3.22245, 3.64994; 0
2.96565, 8.25032; 0
7.03783, 8.24752; 0
7.96174, 1.74663; 0
2.08272, 1.71781; 0
3.42173, 6.76499; 0
8.4046, 3.2219; 0
7.11629, 1.83994; 0
2.90279, 1.84237; 0
2.09571, 8.15353; 0
7.91492, 8.11378; 0
1.86496, 9.50161; 0
6.86507, 0.49806; 0
8.13673, 9.49963; 0
3.14425, 0.493604; 0
9.29102, 9.38303; 0
0.705385, 9.3851; 0
4.29363, 0.621658; 0
5.70545, 0.620542; 0
4.98377, 1.86756; 0
10, 8.11248; -2
0, 8.11073; -4
0.703692, 1.73563; 0
9.26176, 1.7954; 0
0.659929, 0.61783; 0
9.3396, 0.617728; 0
5.6306, 9.35986; 0
4.36943, 9.36367; 0
5.72358, 8.17223; 0
4.26143, 8.16598; 0
3.13877, 9.4221; 0
6.86163, 9.42129; 0
8.13599, 0.574451; 0
1.86703, 0.573746; 0
1.88948, 3.8292; 0
3.14299, 6.19134; 0
8.15707, 3.79854; 0
6.79188, 6.171; 0
3.64509, 1.93509; 0
6.37768, 1.93641; 0
1.32424, 8.04059; 0
8.73583, 8.0029; 0
6.53563, 6.76891; 0
8.1058, 7.38303; 0
1.93358, 7.46068; 0
6.93191, 2.53588; 0
3.06395, 2.5251; 0
5.75369, 3.75637; 0
0.828384, 6.19919; 0
9.16483, 6.27755; 0
4.01267, 3.85583; 0
10, 3.08762; -2
0, 3.08762; -4
4.99121, 6.80867; 0
9.40176, 6.03173; 0
5.42369, 4.00386; 0
7.39554, 5.26795; 0
7.61743, 4.75506; 0
2.5611, 5.29261; 0
2.45323, 4.70152; 0
5.54869, 4.65117; 0
9.21693, 5.31878; 0
0.78956, 5.29876; 0
4.48219, 4.66864; 0
4.32443, 1.49785; 0
5.67143, 1.48555; 0
9.32863, 8.51766; 0
0.673164, 8.49768; 0
0, 6.60819; -4
5.07341, 3.27978; 0
0, 5.28997; -4
10, 5.29096; -2
0.726397, 4.72603; 0
9.28368, 4.72808; 0
5.96863, 3.47153; 0
9.15857, 6.66798; 0
4.23848, 2.72875; 0
9.33665, 7.16359; 0
0.717767, 7.26022; 0
4.34403, 5.25407; 0
5.66402, 5.26095; 0
5.7596, 7.2152; 0
4.225, 7.22071; 0
9.22731, 2.73038; 0
0.647166, 2.62077; 0
0.75137, 3.51218; 0
9.23139, 3.50717; 0
4.24776, 6.4421; 0
5.71917, 6.4194; 0
1.9836, 4.70511; 0
8.02809, 4.70973; 0
3.04482, 5.29159; 0
6.95531, 5.29864; 0
10, 6.61365; -2
6.19831, 4.15007; 0
4.73853, 3.89472; 0
0.858742, 6.53958; 0
4.15881, 3.48901; 0
3.47543, 2.78725; 0
6.61492, 2.81014; 0
1.50269, 7.21998; 0
8.06942, 6.8149; 0
1.75496, 3.34152; 0
0, 5.94585; -4
4.03237, 4.17169; 0
4.23548, 3.16603; 0
1.12013, 5.8424; 0
8.72105, 5.83127; 0
2.96292, 3.34189; 0
2.07225, 6.67264; 0
7.03755, 3.33601; 0
4.89283, 3.58056; 0
10, 5.949; -2
5.46572, 2.62359; 0
6.11435, 2.77724; 0
0.78937, 6.86153; 0
1.33547, 2.96393; 0
5.65927, 3.05249; 0
6.29559, 2.79418; 0
6.65582, 2.89314; 0
5.73564, 2.63453; 0
2.49869, 0; -1
5, 0; -1
7.50131, 0; -1
0, 2.15284; -4
2.22846, 2.58413; 0
4.96398, 2.40191; 0
7.73225, 2.57083; 0
10, 2.15284; -2
0, 4.90928; -4
2.54671, 4.98291; 0
5.02772, 4.92831; 0
7.48214, 4.99795; 0
10, 4.90983; -2
0, 7.47947; -4
2.73726, 7.42777; 0
4.99466, 7.70625; 0
7.27527, 7.41759; 0
10, 7.48359; -2
2.50131, 10; -3
5, 10; -3
7.49869, 10; -3
3.41206, 3.87647; 0
1.54053, 6.13147; 0
0, 6.26885; -4
10, 6.27309; -2
0.971966, 4.07017; 0
4.03517, 5.89784; 0
2.49838, 3.83664; 0
7.49248, 6.23737; 0
7.56132, 3.83556; 0
2.51906, 6.16295; 0
8.48073, 6.17975; 0
6.54479, 3.89232; 0
9.07042, 4.08771; 0
5.89973, 5.85969; 0
3.54233, 1.15187; 0
1.45786, 8.83384; 0
1.37283, 1.19919; 0
3.67463, 8.77791; 0
8.5332, 8.80508; 0
6.46249, 1.15193; 0
8.63887, 1.21606; 0
6.32832, 8.77287; 0
10, 3.859; -2
0, 3.85893; -4
4.97179, 6.0102; 0
3.79593, 5.08306; 0
1.29298, 4.87084; 0
6.19543, 5.08459; 0
8.7271, 4.87902; 0
4.99557, 1.01; 0
10, 8.97194; -2
0, 8.97131; -4
4.15294, 2.24736; 0
9.02446, 7.50175; 0
5.80954, 2.1854; 0
0.781306, 7.74212; 0
7.54604, 8.91873; 0
2.46012, 8.93372; 0
2.55503, 1.04399; 0
7.46346, 1.05868; 0
3.53006, 7.64882; 0
1.44193, 2.18068; 0
6.46383, 7.65921; 0
8.52415, 2.33956; 0
10, 1.12703; -2
4.99256, 8.72462; 0
0, 1.12703; -4
6.24881, 0; -1
8.75119, 10; -3
1.24881, 10; -3
3.75119, 0; -1
6.24998, 10; -3
8.75002, 0; -1
1.24998, 0; -1
3.75002, 10; -3
4.94709, 4.27357; 0
0, 5.62761; -4
10, 5.62961; -2
7.685, 5.80017; 0
7.33438, 4.22802; 0
2.32268, 5.79469; 0
2.67649, 4.21032; 0
5.8961, 4.38426; 0
9.11765, 5.65208; 0
0.867622, 5.62739; 0
4.06499, 4.46091; 0
6.76427, 4.61948; 0
1.79531, 5.37352; 0
8.20988, 5.36951; 0
3.28856, 4.57081; 0
0, 7.00372; -4
10, 7.00879; -2
4.94817, 2.84895; 0
8.68036, 6.86121; 0
1.41821, 6.81171; 0
3.6308, 3.17365; 0
6.3655, 3.25246; 0
1.40957, 4.38528; 0
3.60756, 5.59251; 0
8.57995, 4.37419; 0
6.40289, 5.58905; 0
6.93214, 4.36046; 0
3.1995, 4.30096; 0
1.8313, 5.69609; 0
8.09581, 5.68944; 0
4.98843, 5.47244; 0
10, 4.44953; -2
0, 4.44923; -4
8.46831, 5.18769; 0
6.50323, 4.8238; 0
1.56795, 5.17102; 0
3.37725, 4.8546; 0
2.00967, 4.33897; 0
3.01115, 5.65234; 0
7.98635, 4.33986; 0
7.03608, 5.69522; 0
2.5226, 3.17954; 0
2.56632, 6.80849; 0
7.57056, 3.2036; 0
7.36689, 6.76209; 0
8.17173, 6.36611; 0
6.88473, 3.72273; 0
1.76352, 6.35465; 0
3.25544, 3.63976; 0
2.96034, 8.24945; 0
7.05069, 8.24051; 0
7.95674, 1.75186; 0
2.09134, 1.73089; 0
3.4176, 6.7639; 0
8.41201, 3.219; 0
7.13977, 1.84373; 0
2.8759, 1.84653; 0
2.11924, 8.14902; 0
7.91526, 8.09639; 0
1.85876, 9.51295; 0
6.86116, 0.481127; 0
8.14538, 9.50425; 0
3.14916, 0.473979; 0
9.27763, 9.3784; 0
0.713578, 9.37685; 0
4.2824, 0.618542; 0
5.71615, 0.61654; 0
4.98069, 1.84432; 0
10, 8.12293; -2
0, 8.12055; -4
0.70191, 1.67026; 0
9.25852, 1.75483; 0
0.677047, 0.639087; 0
9.32067, 0.650443; 0
5.63057, 9.34993; 0
4.36852, 9.35574; 0
5.72632, 8.16; 0
4.26143, 8.15657; 0
3.14221, 9.42754; 0
6.86225, 9.42374; 0
8.13848, 0.55935; 0
1.86911, 0.555195; 0
1.89068, 3.84957; 0
3.16037, 6.17963; 0
8.18932, 3.80798; 0
6.76601, 6.15646; 0
3.62204, 1.93401; 0
6.39943, 1.93381; 0
1.36032, 8.03758; 0
8.74333, 7.99395; 0
6.55162, 6.77085; 0
8.10924, 7.38286; 0
1.95285, 7.44862; 0
6.9285, 2.53407; 0
3.04798, 2.52904; 0
5.6969, 3.72164; 0
0.81342, 6.21636; 0
9.16614, 6.30376; 0
4.0146, 3.8544; 0
10, 3.0757; -2
0, 3.07567; -4
4.99172, 6.78784; 0
9.36741, 6.05565; 0
5.44298, 3.99139; 0
7.34743, 5.23425; 0
7.65807, 4.78654; 0
2.5632, 5.29432; 0
2.42296, 4.73339; 0
5.52917, 4.63355; 0
9.22539, 5.33615; 0
0.785982, 5.31392; 0
4.49667, 4.65423; 0
4.3058, 1.48258; 0
5.68591, 1.46677; 0
9.32376, 8.5225; 0
0.683157, 8.50242; 0
0, 6.61594; -4
5.07907, 3.25765; 0
0, 5.2894; -4
10, 5.29065; -2
0.713909, 4.73874; 0
9.2833, 4.73482; 0
5.97335, 3.46086; 0
9.15367, 6.68049; 0
4.23653, 2.71696; 0
9.35115, 7.16778; 0
0.720628, 7.26626; 0
4.34368, 5.24337; 0
5.65892, 5.25247; 0
5.76489, 7.20249; 0
4.22225, 7.20641; 0
9.22725, 2.71857; 0
0.678294, 2.61826; 0
0.772077, 3.50562; 0
9.22753, 3.51136; 0
4.22843, 6.42512; 0
5.74486, 6.40599; 0
1.99049, 4.71016; 0
8.03181, 4.7195; 0
3.04395, 5.2896; 0
6.95391, 5.29967; 0
10, 6.62062; -2
6.23476, 4.13536; 0
4.7444, 3.88499; 0
0.87746, 6.53318; 0
4.15656, 3.48866; 0
3.46682, 2.78237; 0
1.49488, 7.23325; 0
8.07858, 6.82791; 0
1.73288, 3.40901; 0
0, 5.94902; -4
4.02687, 4.16495; 0
4.25968, 3.1514; 0
1.07887, 5.85516; 0
8.69196, 5.83684; 0
2.95418, 3.35177; 0
2.08116, 6.66789; 0
7.06698, 3.37706; 0
4.86915, 3.56208; 0
10, 5.95208; -2
0.770204, 6.85224; 0
1.39718, 2.95806; 0
5.66236, 3.02166; 0
6.26825, 2.77125; 0
6.74376, 2.92117; 0
5.64513, 2.62862; 0
0.799044, 6.89972; 0
9.25434, 5.03548; 0
2.49835, 0; -1
5, 0; -1
7.50165, 0; -1
0, 2.13489; -4
2.22341, 2.59641; 0
5.06305, 2.40956; 0
7.73389, 2.58143; 0
10, 2.1349; -2
0, 4.90764; -4
2.56631, 4.97955; 0
5.03063, 4.91954; 0
7.48624, 5.00071; 0
10, 4.9084; -2
0, 7.48922; -4
2.74664, 7.4216; 0
4.99513, 7.688; 0
7.28072, 7.40719; 0
10, 7.49328; -2
2.50165, 10; -3
5, 10; -3
7.49835, 10; -3
3.40785, 3.88602; 0
1.55206, 6.11971; 0
0, 6.27417; -4
10, 6.27799; -2
0.94069, 4.10015; 0
4.0687, 5.85849; 0
2.51193, 3.86082; 0
7.48951, 6.24125; 0
7.59428, 3.85829; 0
2.51917, 6.14016; 0
8.47521, 6.17348; 0
6.53156, 3.90031; 0
9.10283, 4.11418; 0
5.86961, 5.82385; 0
3.51835, 1.17702; 0
1.47611, 8.80514; 0
1.41391, 1.19229; 0
3.66916, 8.77134; 0
8.51873, 8.76621; 0
6.48137, 1.15066; 0
8.60224, 1.22; 0
6.33727, 8.76375; 0
10, 3.85249; -2
0, 3.85233; -4
4.97694, 6.00524; 0
3.80665, 5.06929; 0
1.28654, 4.8824; 0
6.1776, 5.07436; 0
8.58117, 4.84525; 0
4.9942, 0.997834; 0
10, 8.98195; -2
0, 8.98092; -4
4.18567, 2.23779; 0
9.00792, 7.48991; 0
5.81292, 2.21943; 0
0.776934, 7.75433; 0
7.54956, 8.91707; 0
2.46225, 8.94184; 0
2.54819, 1.03687; 0
7.46955, 1.05048; 0
3.53296, 7.65023; 0
1.43099, 2.1624; 0
6.47, 7.65454; 0
8.52766, 2.33035; 0
10, 1.10703; -2
4.99191, 8.71059; 0
0, 1.10703; -4
6.24848, 0; -1
8.75152, 10; -3
1.24848, 10; -3
3.75152, 0; -1
6.25004, 10; -3
8.74996, 0; -1
1.25004, 0; -1
3.74996, 10; -3
4.94255, 4.25546; 0
0, 5.62885; -4
10, 5.63095; -2
7.6796, 5.80243; 0
7.33722, 4.23922; 0
2.31838, 5.79355; 0
2.68039, 4.21841; 0
5.89509, 4.366; 0
9.1222, 5.6712; 0
0.857836, 5.63755; 0
4.074, 4.44898; 0
6.74936, 4.61916; 0
1.79214, 5.37032; 0
8.21993, 5.38197; 0
3.29719, 4.56839; 0
0, 7.01248; -4
10, 7.017; -2
4.94618, 2.83452; 0
8.68126, 6.87765; 0
1.43904, 6.81302; 0
3.63508, 3.16413; 0
6.38675, 3.24316; 0
1.40497, 4.40014; 0
3.60524, 5.58198; 0
8.57269, 4.38106; 0
6.40222, 5.57738; 0
6.98535, 4.39751; 0
3.18324, 4.31344; 0
1.82107, 5.6915; 0
8.02728, 5.65548; 0
4.97935, 5.45862; 0
10, 4.44613; -2
0, 4.44567; -4
8.48525, 5.21116; 0
6.45584, 4.80861; 0
1.54945, 5.18189; 0
3.39539, 4.84906; 0
2.00132, 4.35478; 0
3.02053, 5.63864; 0
7.95744, 4.32959; 0
7.03721, 5.69838; 0
2.51416, 3.17227; 0
2.57815, 6.812; 0
7.57141, 3.21329; 0
7.36564, 6.75164; 0
8.17913, 6.37388; 0
6.88558, 3.73444; 0
1.75066, 6.35984; 0
3.28331, 3.62972; 0
2.9641, 8.24848; 0
7.05997, 8.23208; 0
7.9517, 1.76238; 0
2.09405, 1.74615; 0
3.4173, 6.76477; 0
8.41232, 3.21197; 0
7.15014, 1.8469; 0
2.85935, 1.85577; 0
2.14373, 8.13916; 0
7.9118, 8.08097; 0
1.82373, 9.50917; 0
6.8607, 0.470599; 0
8.18141, 9.49315; 0
3.18083, 0.473755; 0
9.23976, 9.37376; 0
0.751767, 9.37358; 0
4.24395, 0.616445; 0
5.72398, 0.6123; 0
4.99356, 1.83598; 0
10, 8.13335; -2
0, 8.13059; -4
0.702951, 1.65018; 0
9.25726, 1.73168; 0
0.693889, 0.644379; 0
9.30188, 0.664845; 0
5.63139, 9.34114; 0
4.3686, 9.34881; 0
5.72798, 8.14892; 0
4.26374, 8.14744; 0
3.14646, 9.4305; 0
6.86248, 9.42347; 0
8.14031, 0.543895; 0
1.87106, 0.534264; 0
1.92877, 3.86136; 0
3.14448, 6.18253; 0
8.21516, 3.8122; 0
6.74527, 6.1452; 0
3.61817, 1.94987; 0
6.3882, 1.9314; 0
1.37719, 8.02487; 0
8.75371, 7.98426; 0
6.56284, 6.77487; 0
8.10655, 7.38084; 0
1.96939, 7.4398; 0
6.89399, 2.59462; 0
3.03784, 2.53063; 0
5.66132, 3.69585; 0
0.823281, 6.22683; 0
9.19572, 6.33794; 0
4.00748, 3.85405; 0
10, 3.06353; -2
0, 3.06345; -4
4.99349, 6.76763; 0
9.34691, 6.07233; 0
5.46821, 3.97986; 0
7.29631, 5.20273; 0
7.69267, 4.81363; 0
2.5629, 5.29717; 0
2.40536, 4.75531; 0
5.51392, 4.6156; 0
9.20698, 5.37951; 0
0.776641, 5.32581; 0
4.50344, 4.64087; 0
4.30202, 1.47739; 0
5.6943, 1.46954; 0
9.32326, 8.52726; 0
0.690793, 8.50581; 0
0, 6.62283; -4
5.09275, 3.24187; 0
0, 5.28923; -4
10, 5.29064; -2
0.708362, 4.751; 0
9.24969, 4.67793; 0
5.98722, 3.44766; 0
9.14429, 6.68941; 0
4.25229, 2.69881; 0
9.36276, 7.17438; 0
0.718671, 7.2871; 0
4.3434, 5.22912; 0
5.6512, 5.2409; 0
5.76766, 7.18923; 0
4.22301, 7.19116; 0
9.22971, 2.71077; 0
0.693578, 2.61973; 0
0.783259, 3.50116; 0
9.22298, 3.51438; 0
4.21683, 6.40555; 0
5.76453, 6.39021; 0
1.99298, 4.71708; 0
7.99189, 4.72018; 0
3.04438, 5.28608; 0
6.94458, 5.29752; 0
10, 6.62699; -2
6.25303, 4.12634; 0
4.75253, 3.8725; 0
0.862255, 6.56196; 0
4.14661, 3.48189; 0
3.46927, 2.77685; 0
1.49588, 7.24244; 0
8.08043, 6.832; 0
1.70614, 3.46208; 0
0, 5.95221; -4
4.02821, 4.15684; 0
4.27398, 3.13656; 0
1.03091, 5.87548; 0
8.66534, 5.85905; 0
2.91421, 3.375; 0
2.12815, 6.64599; 0
7.02182, 3.30949; 0
4.84168, 3.54576; 0
10, 5.95512; -2
1.43147, 2.95645; 0
5.66232, 2.96333; 0
6.24105, 2.75584; 0
0.796352, 6.8876; 0
9.27995, 5.07604; 0
2.49794, 0; -1
5, 0; -1
7.50206, 0; -1
0, 2.118; -4
2.21672, 2.6018; 0
5.11282, 2.42062; 0
7.7118, 2.58648; 0
10, 2.11804; -2
0, 4.90601; -4
2.57434, 4.98143; 0
5.03165, 4.90734; 0
7.48739, 5.00544; 0
10, 4.90693; -2
0, 7.49863; -4
2.75889, 7.41994; 0
4.99628, 7.67101; 0
7.28247, 7.39841; 0
10, 7.50254; -2
2.50206, 10; -3
5, 10; -3
7.49794, 10; -3
3.40193, 3.89402; 0
1.54692, 6.1207; 0
0, 6.27908; -4
10, 6.28255; -2
0.931253, 4.11642; 0
4.08185, 5.82995; 0
2.53651, 3.88186; 0
7.48748, 6.24205; 0
7.59195, 3.84189; 0
2.51497, 6.12264; 0
8.46617, 6.16655; 0
6.5273, 3.90431; 0
9.11664, 4.11761; 0
5.84039, 5.78398; 0
3.49934, 1.20258; 0
1.49588, 8.77959; 0
1.43795, 1.18689; 0
3.66877, 8.76624; 0
8.50623, 8.73714; 0
6.49613, 1.17808; 0
8.57561, 1.22429; 0
6.34456, 8.75404; 0
10, 3.8454; -2
0, 3.84513; -4
4.9791, 5.99416; 0
3.81508, 5.05643; 0
1.27999, 4.89522; 0
6.15902, 5.06264; 0
8.61113, 4.85812; 0
4.98857, 0.985566; 0
10, 8.9907; -2
0, 8.98933; -4
4.21393, 2.22701; 0
8.99473, 7.48122; 0
5.82042, 2.21498; 0
0.750733, 7.775; 0
7.55348, 8.91963; 0
2.46266, 8.95089; 0
2.54428, 1.03097; 0
7.47471, 1.0477; 0
3.54077, 7.64951; 0
1.42304, 2.15587; 0
6.47233, 7.65032; 0
8.5241, 2.32619; 0
10, 1.08985; -2
4.99211, 8.69844; 0
0, 1.08984; -4
6.24808, 0; -1
8.75192, 10; -3
1.24808, 10; -3
3.75192, 0; -1
6.25014, 10; -3
8.74986, 0; -1
1.25014, 0; -1
3.74986, 10; -3
4.94442, 4.2381; 0
0, 5.63033; -4
10, 5.63245; -2
7.66983, 5.80339; 0
7.32583, 4.2405; 0
2.3108, 5.79258; 0
2.68289, 4.22977; 0
5.89116, 4.35076; 0
9.1218, 5.70483; 0
0.853507, 5.64381; 0
4.08252, 4.43714; 0
6.7354, 4.61267; 0
1.77918, 5.37678; 0
8.22984, 5.40201; 0
3.30383, 4.56709; 0
0, 7.0205; -4
10, 7.02461; -2
4.93394, 2.83029; 0
8.68056, 6.88834; 0
1.44665, 6.82333; 0
3.62701, 3.15689; 0
6.3958, 3.24782; 0
1.39973, 4.41018; 0
3.60217, 5.57571; 0
8.51569, 4.36297; 0
6.39944, 5.56504; 0
7.01117, 4.41836; 0
3.17224, 4.32381; 0
1.8088, 5.69308; 0
7.96926, 5.62561; 0
4.96634, 5.44167; 0
10, 4.44243; -2
0, 4.44183; -4
8.48675, 5.22336; 0
6.42207, 4.79319; 0
1.53872, 5.19018; 0
3.41143, 4.84284; 0
1.99292, 4.37015; 0
3.02705, 5.62668; 0
7.92774, 4.346; 0
7.03517, 5.70067; 0
2.50193, 3.1704; 0
2.58735, 6.81592; 0
7.59981, 3.23164; 0
7.36218, 6.74229; 0
8.18401, 6.37915; 0
6.9011, 3.73027; 0
1.74156, 6.36803; 0
3.30528, 3.61898; 0
2.97165, 8.25115; 0
7.06737, 8.22579; 0
7.94479, 1.77406; 0
2.09448, 1.75541; 0
3.41883, 6.76455; 0
8.41685, 3.20129; 0
7.13971, 1.87783; 0
2.85185, 1.86337; 0
2.1601, 8.13034; 0
7.9107, 8.06899; 0
1.81179, 9.50294; 0
6.82975, 0.476541; 0
8.19276, 9.48159; 0
3.18936, 0.480134; 0
9.22885, 9.36268; 0
0.76357, 9.36252; 0
4.23061, 0.625103; 0
5.75767, 0.617028; 0
5.00206, 1.83265; 0
10, 8.14334; -2
0, 8.14038; -4
0.707063, 1.63987; 0
9.25304, 1.71941; 0
0.70553, 0.646422; 0
9.28694, 0.672579; 0
5.63275, 9.33354; 0
4.37007, 9.34368; 0
5.72831, 8.13857; 0
4.26805, 8.13838; 0
3.15092, 9.43127; 0
6.86138, 9.42206; 0
8.14194, 0.53218; 0
1.8717, 0.518033; 0
1.96066, 3.87102; 0
3.1405, 6.17747; 0
8.24388, 3.80346; 0
6.70604, 6.13909; 0
3.62062, 1.96585; 0
6.40068, 1.95309; 0
1.38824, 7.99351; 0
8.76431, 7.97753; 0
6.57434, 6.78918; 0
8.10371, 7.3777; 0
2.01469, 7.42253; 0
6.89068, 2.62675; 0
3.02663, 2.53639; 0
5.64623, 3.67515; 0
0.8233, 6.24178; 0
9.21013, 6.36304; 0
4.0014, 3.85081; 0
10, 3.05137; -2
0, 3.05122; -4
4.99603, 6.74702; 0
9.3382, 6.09058; 0
5.48481, 3.9665; 0
7.25054, 5.1757; 0
7.70288, 4.83685; 0
2.56078, 5.29986; 0
2.39377, 4.77192; 0
5.50066, 4.59855; 0
9.2087, 5.40314; 0
0.768831, 5.33532; 0
4.50545, 4.62783; 0
4.29986, 1.47711; 0
5.69987, 1.46722; 0
9.32176, 8.52891; 0
0.703775, 8.50704; 0
0, 6.62913; -4
5.11891, 3.22707; 0
0, 5.28923; -4
10, 5.29073; -2
0.705172, 4.76295; 0
9.23446, 4.6739; 0
5.99667, 3.43139; 0
9.1366, 6.69667; 0
4.25748, 2.68694; 0
9.37041, 7.18083; 0
0.726055, 7.28596; 0
4.33988, 5.21363; 0
5.64064, 5.22508; 0
5.7681, 7.17562; 0
4.22627, 7.17444; 0
9.2313, 2.70344; 0
0.701174, 2.62066; 0
0.785658, 3.49941; 0
9.22198, 3.51103; 0
4.21004, 6.38567; 0
5.80339, 6.36528; 0
1.99346, 4.72471; 0
7.98902, 4.73426; 0
3.0439, 5.2823; 0
6.93121, 5.2932; 0
10, 6.63289; -2
6.25909, 4.11975; 0
4.75903, 3.85877; 0
0.88404, 6.5534; 0
4.13753, 3.47329; 0
3.46413, 2.77593; 0
1.50215, 7.26399; 0
8.07739, 6.83161; 0
1.68233, 3.50174; 0
0, 5.95533; -4
4.03175, 4.14812; 0
4.27771, 3.1273; 0
0.996805, 5.89385; 0
8.64351, 5.87984; 0
2.89093, 3.39067; 0
2.14728, 6.6353; 0
7.00356, 3.27568; 0
4.82346, 3.52948; 0
10, 5.95808; -2
1.4477, 2.96283; 0
5.66342, 2.92915; 0
6.22231, 2.74349; 0
0.778963, 6.87464; 0
9.29938, 5.09786; 0
0.805048, 6.91968; 0
2.49744, 0; -1
5, 0; -1
7.50256, 0; -1
0, 2.10225; -4
2.21053, 2.60336; 0
5.1373, 2.4188; 0
7.70563, 2.59482; 0
10, 2.10232; -2
0, 4.90435; -4
2.57532, 4.98566; 0
5.02868, 4.89312; 0
7.48462, 5.01308; 0
10, 4.90539; -2
0, 7.50756; -4
2.78287, 7.42107; 0
4.99752, 7.65451; 0
7.28643, 7.39448; 0
10, 7.5113; -2
2.50256, 10; -3
5, 10; -3
7.49744, 10; -3
3.39577, 3.89914; 0
1.56035, 6.11436; 0
0, 6.28366; -4
10, 6.28686; -2
0.924694, 4.12668; 0
4.09979, 5.79589; 0
2.5601, 3.89816; 0
7.47603, 6.2393; 0
7.60676, 3.83724; 0
2.51149, 6.11197; 0
8.45186, 6.163; 0
6.52616, 3.89786; 0
9.12144, 4.12578; 0
5.81541, 5.75273; 0
3.48914, 1.21967; 0
1.50964, 8.75639; 0
1.45271, 1.18335; 0
3.67363, 8.76271; 0
8.49988, 8.7202; 0
6.51339, 1.20515; 0
8.55273, 1.25407; 0
6.3496, 8.74438; 0
10, 3.83803; -2
0, 3.83765; -4
4.98525, 5.9826; 0
3.81973, 5.04577; 0
1.27515, 4.90545; 0
6.14188, 5.04851; 0
8.6153, 4.86462; 0
4.99686, 0.975335; 0
10, 8.99845; -2
0, 8.99684; -4
4.25671, 2.21521; 0
8.984, 7.47537; 0
5.82298, 2.20665; 0
0.735527, 7.78078; 0
7.55336, 8.91714; 0
2.46474, 8.95243; 0
2.53906, 1.0322; 0
7.47182, 1.05318; 0
3.55454, 7.64945; 0
1.41884, 2.15575; 0
6.47328, 7.64933; 0
8.52298, 2.32586; 0
10, 1.07527; -2
4.99259, 8.68797; 0
0, 1.07525; -4
6.2476, 0; -1
8.7524, 10; -3
1.2476, 10; -3
3.7524, 0; -1
6.25027, 10; -3
8.74973, 0; -1
1.25027, 0; -1
3.74973, 10; -3
4.94527, 4.22166; 0
0, 5.63188; -4
10, 5.63397; -2
7.65866, 5.80305; 0
7.30864, 4.24337; 0
2.31136, 5.79022; 0
2.684, 4.24163; 0
5.88414, 4.33634; 0
9.11344, 5.71862; 0
0.850684, 5.65049; 0
4.08938, 4.42547; 0
6.72356, 4.60437; 0
1.76683, 5.38547; 0
8.23638, 5.42005; 0
3.30748, 4.56697; 0
0, 7.02794; -4
10, 7.03171; -2
4.92519, 2.82428; 0
8.6786, 6.89536; 0
1.47203, 6.82828; 0
3.62008, 3.15092; 0
6.39906, 3.24303; 0
1.39542, 4.41678; 0
3.59814, 5.56854; 0
8.48096, 4.35177; 0
6.39288, 5.55402; 0
7.01511, 4.42499; 0
3.16693, 4.33026; 0
1.79902, 5.6961; 0
7.92661, 5.60516; 0
4.95798, 5.42325; 0
10, 4.43854; -2
0, 4.43782; -4
8.48954, 5.23531; 0
6.39708, 4.77813; 0
1.53062, 5.19806; 0
3.42472, 4.83669; 0
1.98738, 4.38227; 0
3.03162, 5.6172; 0
7.9026, 4.34577; 0
7.02979, 5.70107; 0
2.48662, 3.17528; 0
2.60181, 6.8088; 0
7.61835, 3.24438; 0
7.3552, 6.73361; 0
8.181, 6.38282; 0
6.92153, 3.73224; 0
1.73534, 6.37487; 0
3.3199, 3.61068; 0
2.98116, 8.25439; 0
7.0729, 8.21973; 0
7.9227, 1.78927; 0
2.09354, 1.76198; 0
3.41695, 6.77221; 0
8.42255, 3.18881; 0
7.13945, 1.9013; 0
2.85053, 1.86991; 0
2.16975, 8.12246; 0
7.91376, 8.06139; 0
1.80675, 9.49436; 0
6.82108, 0.485788; 0
8.19617, 9.47252; 0
3.19081, 0.488158; 0
9.22118, 9.35713; 0
0.773337, 9.3551; 0
4.22449, 0.633558; 0
5.77211, 0.626119; 0
5.0147, 1.82055; 0
10, 8.1527; -2
0, 8.14968; -4
0.711187, 1.6331; 0
9.25383, 1.71283; 0
0.713649, 0.647289; 0
9.24346, 0.678762; 0
5.63416, 9.32716; 0
4.37308, 9.34069; 0
5.72695, 8.12864; 0
4.27513, 8.12973; 0
3.15431, 9.42997; 0
6.85986, 9.42001; 0
8.16852, 0.536777; 0
1.87233, 0.506767; 0
1.98362, 3.87854; 0
3.16012, 6.17103; 0
8.27042, 3.8028; 0
6.67686, 6.13426; 0
3.62325, 2.00115; 0
6.40996, 1.97371; 0
1.398, 7.97574; 0
8.77291, 7.97293; 0
6.58076, 6.79766; 0
8.10153, 7.37396; 0
2.04812, 7.41067; 0
6.8942, 2.63686; 0
2.98449, 2.5542; 0
5.64338, 3.65873; 0
0.821347, 6.24863; 0
9.21378, 6.381; 0
3.99847, 3.84493; 0
10, 3.03944; -2
0, 3.03921; -4
5.00758, 6.72294; 0
9.32866, 6.10068; 0
5.49222, 3.95197; 0
7.21261, 5.15509; 0
7.70697, 4.85371; 0
2.55812, 5.30224; 0
2.38593, 4.78478; 0
5.48827, 4.58188; 0
9.21032, 5.41607; 0
0.763376, 5.34324; 0
4.50326, 4.61549; 0
4.29447, 1.47864; 0
5.71405, 1.46652; 0
9.32062, 8.53105; 0
0.711551, 8.50538; 0
0, 6.63496; -4
5.13205, 3.21475; 0
0, 5.28927; -4
10, 5.29081; -2
0.703066, 4.77413; 0
9.22099, 4.67837; 0
6.00461, 3.41933; 0
9.13025, 6.70317; 0
4.25517, 2.67944; 0
9.37516, 7.18703; 0
0.732044, 7.30044; 0
4.33731, 5.19687; 0
5.63153, 5.20791; 0
5.77039, 7.15894; 0
4.23456, 7.15541; 0
9.23456, 2.69527; 0
0.705565, 2.62004; 0
0.783423, 3.49882; 0
9.22175, 3.51033; 0
4.18827, 6.36151; 0
5.8256, 6.34516; 0
1.9921, 4.73262; 0
7.9868, 4.7425; 0
3.04447, 5.2774; 0
6.91688, 5.28815; 0
10, 6.6384; -2
6.26001, 4.11055; 0
4.76285, 3.84403; 0
0.869206, 6.57698; 0
4.12762, 3.46695; 0
3.46126, 2.75411; 0
1.51127, 7.26835; 0
8.07009, 6.8285; 0
1.6637, 3.53208; 0
0, 5.95833; -4
4.03476, 4.13937; 0
4.27831, 3.12019; 0
0.974704, 5.90672; 0
8.62789, 5.89347; 0
2.88298, 3.39564; 0
2.17092, 6.62339; 0
7.00007, 3.26514; 0
4.81459, 3.51472; 0
10, 5.96093; -2
1.45541, 2.97261; 0
5.66288, 2.91361; 0
6.21779, 2.73397; 0
9.30494, 5.11039; 0
0.810006, 6.90262; 0
2.49685, 0; -1
5, 0; -1
7.50315, 0; -1
0, 2.08768; -4
2.19358, 2.60453; 0
5.15029, 2.41378; 0
7.70588, 2.60678; 0
10, 2.08779; -2
0, 4.90265; -4
2.57412, 4.99015; 0
5.0242, 4.87795; 0
7.48068, 5.01876; 0
10, 4.90377; -2
0, 7.51596; -4
2.79885, 7.4224; 0
5.00092, 7.63647; 0
7.28944, 7.39155; 0
10, 7.51951; -2
2.50315, 10; -3
5, 10; -3
7.49685, 10; -3
3.38905, 3.90246; 0
1.55143, 6.12151; 0
0, 6.28795; -4
10, 6.29092; -2
0.91708, 4.13512; 0
4.11612, 5.77049; 0
2.57892, 3.90761; 0
7.46281, 6.23502; 0
7.62442, 3.82624; 0
2.51571, 6.10419; 0
8.43789, 6.16227; 0
6.52286, 3.88888; 0
9.13893, 4.14786; 0
5.79836, 5.72873; 0
3.48407, 1.2405; 0
1.51868, 8.74144; 0
1.46195, 1.18184; 0
3.68248, 8.76012; 0
8.49636, 8.71031; 0
6.52684, 1.2245; 0
8.53019, 1.28518; 0
6.35286, 8.73511; 0
10, 3.83058; -2
0, 3.83008; -4
4.98665, 5.96931; 0
3.82216, 5.03601; 0
1.27216, 4.91343; 0
6.12604, 5.03355; 0
8.60901, 4.86607; 0
4.99972, 0.970921; 0
10, 9.00536; -2
0, 9.00361; -4
4.28858, 2.2045; 0
8.97514, 7.47128; 0
5.82196, 2.20018; 0
0.732957, 7.79113; 0
7.55191, 8.91359; 0
2.46705, 8.95091; 0
2.53571, 1.03539; 0
7.47639, 1.05362; 0
3.56807, 7.64953; 0
1.41388, 2.15694; 0
6.47242, 7.64827; 0
8.52137, 2.32352; 0
10, 1.06298; -2
4.99335, 8.67899; 0
0, 1.06293; -4
6.24702, 0; -1
8.75298, 10; -3
1.24702, 10; -3
3.75298, 0; -1
6.25046, 10; -3
8.74954, 0; -1
1.25046, 0; -1
3.74954, 10; -3
4.94378, 4.2058; 0
0, 5.6334; -4
10, 5.63544; -2
7.64764, 5.80248; 0
7.29412, 4.25572; 0
2.30411, 5.79289; 0
2.6821, 4.25277; 0
5.87627, 4.32159; 0
9.11067, 5.72954; 0
0.84721, 5.65678; 0
4.09377, 4.41424; 0
6.71344, 4.59587; 0
1.75768, 5.39316; 0
8.23911, 5.43327; 0
3.30887, 4.56719; 0
0, 7.03486; -4
10, 7.03836; -2
4.91935, 2.81593; 0
8.67551, 6.90042; 0
1.47496, 6.8391; 0
3.6128, 3.14065; 0
6.40388, 3.23785; 0
1.39225, 4.42138; 0
3.59787, 5.56129; 0
8.46428, 4.34839; 0
6.38373, 5.54291; 0
7.01297, 4.43006; 0
3.16494, 4.3334; 0
1.79036, 5.70229; 0
7.89866, 5.59389; 0
4.95356, 5.40518; 0
10, 4.43456; -2
0, 4.43374; -4
8.48967, 5.24396; 0
6.37666, 4.76358; 0
1.52452, 5.20534; 0
3.43543, 4.83016; 0
1.98482, 4.39073; 0
3.03365, 5.60876; 0
7.85144, 4.32081; 0
7.02271, 5.70012; 0
2.46676, 3.18759; 0
2.61667, 6.80086; 0
7.63025, 3.25113; 0
7.34728, 6.72666; 0
8.17455, 6.38496; 0
6.96499, 3.75346; 0
1.73477, 6.38003; 0
3.33026, 3.60145; 0
2.98978, 8.25663; 0
7.07792, 8.21333; 0
7.90227, 1.80557; 0
2.09327, 1.76642; 0
3.42241, 6.77518; 0
8.41978, 3.16839; 0
7.13836, 1.91522; 0
2.85344, 1.87691; 0
2.1783, 8.11721; 0
7.9175, 8.05576; 0
1.80521, 9.48726; 0
6.81855, 0.49437; 0
8.19652, 9.46651; 0
3.19289, 0.498524; 0
9.21603, 9.35417; 0
0.780216, 9.34882; 0
4.21885, 0.640275; 0
5.78129, 0.632949; 0
5.02532, 1.80739; 0
10, 8.16138; -2
0, 8.15837; -4
0.713741, 1.62736; 0
9.25366, 1.70593; 0
0.719649, 0.647341; 0
9.22835, 0.691988; 0
5.63548, 9.3219; 0
4.37734, 9.33954; 0
5.72482, 8.11835; 0
4.28422, 8.11957; 0
3.15709, 9.42694; 0
6.85802, 9.41753; 0
8.17776, 0.543221; 0
1.87315, 0.499947; 0
1.99874, 3.88582; 0
3.18055, 6.16391; 0
8.32149, 3.79719; 0
6.65813, 6.12759; 0
3.62136, 2.02396; 0
6.41559, 1.98896; 0
1.41128, 7.96434; 0
8.77978, 7.97039; 0
6.58302, 6.79979; 0
8.09988, 7.3706; 0
2.06907, 7.40088; 0
6.90053, 2.64363; 0
2.95054, 2.56777; 0
5.64118, 3.64402; 0
0.819018, 6.26104; 0
9.21339, 6.39138; 0
3.9965, 3.83819; 0
10, 3.02789; -2
0, 3.02758; -4
5.00914, 6.69739; 0
9.32168, 6.10726; 0
5.49458, 3.93753; 0
7.18415, 5.13976; 0
7.70968, 4.86698; 0
2.55464, 5.30515; 0
2.38093, 4.79439; 0
5.47626, 4.56528; 0
9.20988, 5.42485; 0
0.759652, 5.34957; 0
4.49862, 4.60365; 0
4.29062, 1.48119; 0
5.72581, 1.46447; 0
9.31964, 8.5336; 0
0.718107, 8.50621; 0
0, 6.64039; -4
5.13774, 3.20424; 0
0, 5.28929; -4
10, 5.29085; -2
0.701829, 4.78454; 0
9.21374, 4.68739; 0
6.01687, 3.41251; 0
9.12548, 6.70778; 0
4.24978, 2.67296; 0
9.37776, 7.19224; 0
0.738534, 7.29768; 0
4.33598, 5.18133; 0
5.62321, 5.1912; 0
5.77072, 7.14167; 0
4.24145, 7.13607; 0
9.23692, 2.68772; 0
0.707985, 2.61887; 0
0.780456, 3.49883; 0
9.1951, 3.51953; 0
4.17465, 6.34038; 0
5.83393, 6.32789; 0
1.98934, 4.74039; 0
7.98572, 4.74562; 0
3.04246, 5.2738; 0
6.90315, 5.28252; 0
10, 6.64358; -2
6.25828, 4.10009; 0
4.76415, 3.82964; 0
0.887869, 6.56727; 0
4.11906, 3.46187; 0
3.45817, 2.74751; 0
1.51815, 7.27006; 0
8.06082, 6.82413; 0
1.64664, 3.55757; 0
0, 5.96118; -4
4.03598, 4.13093; 0
4.27619, 3.1138; 0
0.959318, 5.91945; 0
8.61595, 5.90197; 0
2.87482, 3.40119; 0
2.18413, 6.61517; 0
7.00036, 3.26174; 0
4.80876, 3.50143; 0
10, 5.96364; -2
1.45577, 2.98434; 0
5.66536, 2.90533; 0
6.219, 2.72702; 0
9.30407, 5.11925; 0
0.795072, 6.88672; 0
0.813202, 6.93247; 0
2.49614, 0; -1
5, 0; -1
7.50386, 0; -1
0, 2.07431; -4
2.1803, 2.60657; 0
5.15811, 2.4085; 0
7.70281, 2.61248; 0
10, 2.07448; -2
0, 4.9009; -4
2.57298, 4.99409; 0
5.01918, 4.86283; 0
7.47608, 5.0228; 0
10, 4.90209; -2
0, 7.52382; -4
2.81133, 7.42238; 0
5.004, 7.61746; 0
7.29034, 7.38823; 0
10, 7.52719; -2
2.50386, 10; -3
5, 10; -3
7.49614, 10; -3
3.38117, 3.90394; 0
1.55988, 6.12028; 0
0, 6.29198; -4
10, 6.29476; -2
0.908128, 4.14313; 0
4.12891, 5.74899; 0
2.5918, 3.91475; 0
7.45108, 6.23044; 0
7.65043, 3.82003; 0
2.52435, 6.09727; 0
8.42731, 6.16315; 0
6.52224, 3.88142; 0
9.15604, 4.16675; 0
5.78626, 5.71025; 0
3.48087, 1.25473; 0
1.52598, 8.73186; 0
1.46798, 1.18155; 0
3.69387, 8.75697; 0
8.49384, 8.70449; 0
6.53826, 1.23715; 0
8.51373, 1.30529; 0
6.35483, 8.72599; 0
10, 3.82317; -2
0, 3.82258; -4
4.98579, 5.95297; 0
3.82273, 5.02762; 0
1.2711, 4.9195; 0
6.1109, 5.0182; 0
8.59292, 4.85965; 0
5.00107, 0.966927; 0
10, 9.01155; -2
0, 9.00974; -4
4.30767, 2.1961; 0
8.96769, 7.4685; 0
5.81973, 2.1945; 0
0.733829, 7.79259; 0
7.55015, 8.91007; 0
2.46936, 8.94929; 0
2.5336, 1.03911; 0
7.47957, 1.05724; 0
3.58007, 7.64869; 0
1.41054, 2.15915; 0
6.47022, 7.64517; 0
8.52062, 2.31809; 0
10, 1.0526; -2
4.99418, 8.67099; 0
0, 1.05253; -4
6.24633, 0; -1
8.75367, 10; -3
1.24633, 10; -3
3.75367, 0; -1
6.2507, 10; -3
8.7493, 0; -1
1.2507, 0; -1
3.7493, 10; -3
4.94044, 4.1906; 0
0, 5.63485; -4
10, 5.63683; -2
7.63771, 5.802; 0
7.28613, 4.26844; 0
2.30636, 5.79251; 0
2.67897, 4.26256; 0
5.86883, 4.30717; 0
9.10802, 5.73675; 0
0.844464, 5.66349; 0
4.0963, 4.40336; 0
6.70379, 4.58843; 0
1.75096, 5.40089; 0
8.23927, 5.4428; 0
3.30867, 4.56691; 0
0, 7.04132; -4
10, 7.04459; -2
4.91522, 2.80738; 0
8.67192, 6.90391; 0
1.49412, 6.83771; 0
3.60668, 3.13431; 0
6.41805, 3.24178; 0
1.38913, 4.42551; 0
3.59792, 5.55404; 0
8.45172, 4.34411; 0
6.37265, 5.53041; 0
7.01013, 4.43434; 0
3.16452, 4.33388; 0
1.78397, 5.70787; 0
7.87896, 5.58775; 0
4.95156, 5.3876; 0
10, 4.43054; -2
0, 4.42964; -4
8.48672, 5.24852; 0
6.35987, 4.75041; 0
1.51984, 5.21243; 0
3.44282, 4.82426; 0
1.98314, 4.39748; 0
3.03764, 5.59989; 0
7.82515, 4.30625; 0
7.015, 5.6985; 0
2.44875, 3.19895; 0
2.65491, 6.78219; 0
7.64239, 3.25774; 0
7.33949, 6.72059; 0
8.16797, 6.3861; 0
6.98587, 3.76097; 0
1.73758, 6.3822; 0
3.33614, 3.59425; 0
2.99846, 8.25817; 0
7.08174, 8.20652; 0
7.88748, 1.81807; 0
2.09464, 1.77036; 0
3.43698, 6.7763; 0
8.41898, 3.14839; 0
7.13568, 1.92401; 0
2.85421, 1.88267; 0
2.18802, 8.11251; 0
7.92053, 8.05107; 0
1.80491, 9.48258; 0
6.81834, 0.500437; 0
8.19575, 9.46287; 0
3.19413, 0.507088; 0
9.21227, 9.35278; 0
0.785687, 9.34509; 0
4.21462, 0.645772; 0
5.78815, 0.637242; 0
5.03245, 1.79681; 0
10, 8.16936; -2
0, 8.16642; -4
0.716001, 1.62287; 0
9.25328, 1.70117; 0
0.724259, 0.647111; 0
9.21819, 0.701234; 0
5.63669, 9.31746; 0
4.38215, 9.33953; 0
5.72201, 8.10759; 0
4.29381, 8.10809; 0
3.16024, 9.42253; 0
6.8559, 9.41465; 0
8.1813, 0.548775; 0
1.87401, 0.496282; 0
2.00804, 3.89261; 0
3.20427, 6.15243; 0
8.3599, 3.79422; 0
6.64607, 6.11895; 0
3.61723, 2.03912; 0
6.41871, 2.00026; 0
1.41989, 7.95766; 0
8.78512, 7.96927; 0
6.58148, 6.79659; 0
8.09809, 7.36756; 0
2.09182, 7.36873; 0
6.90715, 2.65027; 0
2.92955, 2.57944; 0
5.63961, 3.63059; 0
0.81569, 6.26627; 0
9.21174, 6.39789; 0
3.99331, 3.83156; 0
10, 3.01685; -2
0, 3.01645; -4
5.00931, 6.67402; 0
9.31633, 6.11158; 0
5.49401, 3.92353; 0
7.16265, 5.12829; 0
7.71201, 4.87659; 0
2.55008, 5.30833; 0
2.37759, 4.80192; 0
5.46451, 4.54894; 0
9.20796, 5.43066; 0
0.757412, 5.35492; 0
4.49246, 4.5926; 0
4.28739, 1.4831; 0
5.73498, 1.4621; 0
9.3186, 8.53639; 0
0.723002, 8.50543; 0
0, 6.64547; -4
5.14294, 3.19507; 0
0, 5.28925; -4
10, 5.29082; -2
0.700828, 4.79459; 0
9.20627, 4.69464; 0
6.02433, 3.40658; 0
9.12196, 6.71167; 0
4.24576, 2.66662; 0
9.37898, 7.1968; 0
0.741037, 7.31084; 0
4.33502, 5.16732; 0
5.61531, 5.17555; 0
5.77052, 7.12567; 0
4.24885, 7.11945; 0
9.23921, 2.68622; 0
0.709071, 2.61696; 0
0.775974, 3.49995; 0
9.18863, 3.52551; 0
4.16745, 6.32026; 0
5.83548, 6.31228; 0
1.98613, 4.74789; 0
7.98282, 4.74726; 0
3.04197, 5.26876; 0
6.89065, 5.27718; 0
10, 6.64845; -2
6.25695, 4.09033; 0
4.76313, 3.81617; 0
0.872883, 6.58972; 0
4.11208, 3.45692; 0
3.45318, 2.74609; 0
1.49769, 7.28173; 0
8.05159, 6.81956; 0
1.63159, 3.57944; 0
0, 5.96387; -4
4.03533, 4.12279; 0
4.27574, 3.10747; 0
0.949785, 5.92769; 0
8.60672, 5.90771; 0
2.86737, 3.40644; 0
2.19637, 6.63159; 0
7.00584, 3.2618; 0
4.80391, 3.4893; 0
10, 5.9662; -2
1.45418, 2.99538; 0
5.67322, 2.90071; 0
6.22368, 2.72446; 0
9.29764, 5.12445; 0
0.821237, 6.91337; 0
2.49527, 0; -1
5, 0; -1
7.50473, 0; -1
0, 2.06214; -4
2.17181, 2.60862; 0
5.16407, 2.40408; 0
7.69984, 2.61605; 0
10, 2.06236; -2
0, 4.89913; -4
2.57247, 4.99719; 0
5.01395, 4.84827; 0
7.47144, 5.02528; 0
10, 4.90035; -2
0, 7.53113; -4
2.82015, 7.42237; 0
5.0075, 7.59936; 0
7.28924, 7.3838; 0
10, 7.53432; -2
2.50473, 10; -3
5, 10; -3
7.49527, 10; -3
3.37315, 3.90412; 0
1.54936, 6.13018; 0
0, 6.29576; -4
10, 6.29837; -2
0.898996, 4.15074; 0
4.14015, 5.7289; 0
2.60007, 3.92074; 0
7.44203, 6.22615; 0
7.66859, 3.81854; 0
2.52759, 6.10165; 0
8.41938, 6.16456; 0
6.52492, 3.8761; 0
9.16674, 4.17949; 0
5.77782, 5.69455; 0
3.4783, 1.26494; 0
1.53204, 8.72483; 0
1.47262, 1.18251; 0
3.70702, 8.75303; 0
8.49157, 8.7009; 0
6.54603, 1.24573; 0
8.50267, 1.31727; 0
6.35559, 8.71681; 0
10, 3.81592; -2
0, 3.81523; -4
4.98489, 5.93595; 0
3.82354, 5.01955; 0
1.27118, 4.92478; 0
6.09579, 5.00244; 0
8.58154, 4.85453; 0
5.00222, 0.963452; 0
10, 9.01711; -2
0, 9.0153; -4
4.31872, 2.18958; 0
8.96112, 7.46653; 0
5.81798, 2.19067; 0
0.728561, 7.80578; 0
7.54826, 8.90661; 0
2.4711, 8.94777; 0
2.53221, 1.04195; 0
7.48105, 1.06092; 0
3.59031, 7.64695; 0
1.4091, 2.1619; 0
6.46777, 7.64012; 0
8.52176, 2.31134; 0
10, 1.04381; -2
4.99479, 8.66387; 0
0, 1.04371; -4
6.24549, 0; -1
8.75451, 10; -3
1.24549, 10; -3
3.75451, 0; -1
6.25103, 10; -3
8.74897, 0; -1
1.25103, 0; -1
3.74897, 10; -3
4.93618, 4.1762; 0
0, 5.6362; -4
10, 5.63811; -2
7.62884, 5.80173; 0
7.28272, 4.27539; 0
2.3025, 5.79639; 0
2.67444, 4.27168; 0
5.86177, 4.29339; 0
9.10485, 5.74122; 0
0.841539, 5.66893; 0
4.09695, 4.39315; 0
6.69521, 4.58196; 0
1.74686, 5.40709; 0
8.23791, 5.4494; 0
3.30751, 4.56587; 0
0, 7.04735; -4
10, 7.05041; -2
4.91475, 2.79968; 0
8.66809, 6.90632; 0
1.49783, 6.84106; 0
3.60264, 3.13; 0
6.43019, 3.24403; 0
1.38564, 4.42974; 0
3.59943, 5.54566; 0
8.44688, 4.34073; 0
6.36108, 5.51633; 0
7.00957, 4.43722; 0
3.16414, 4.33296; 0
1.77763, 5.71554; 0
7.86409, 5.58394; 0
4.95116, 5.37091; 0
10, 4.42655; -2
0, 4.42559; -4
8.48406, 5.25181; 0
6.346, 4.73851; 0
1.51661, 5.21882; 0
3.44768, 4.8182; 0
1.98125, 4.40346; 0
3.03521, 5.59571; 0
7.81636, 4.30146; 0
7.00757, 5.69714; 0
2.43246, 3.20896; 0
2.69631, 6.76369; 0
7.65605, 3.26421; 0
7.33197, 6.71466; 0
8.16262, 6.38688; 0
6.99884, 3.76492; 0
1.74479, 6.38484; 0
3.33932, 3.58824; 0
3.00772, 8.25996; 0
7.08428, 8.19954; 0
7.87695, 1.82705; 0
2.09564, 1.77375; 0
3.4537, 6.77701; 0
8.42363, 3.13555; 0
7.13293, 1.93033; 0
2.85374, 1.88863; 0
2.19438, 8.0994; 0
7.92239, 8.04671; 0
1.80515, 9.47962; 0
6.8188, 0.504292; 0
8.19443, 9.46072; 0
3.19497, 0.513231; 0
9.20933, 9.35222; 0
0.789884, 9.34161; 0
4.2114, 0.649997; 0
5.79304, 0.639775; 0
5.03735, 1.78886; 0
10, 8.17668; -2
0, 8.17384; -4
0.718288, 1.61934; 0
9.25298, 1.69822; 0
0.72818, 0.646969; 0
9.21106, 0.707269; 0
5.63776, 9.31361; 0
4.38706, 9.34029; 0
5.71932, 8.09703; 0
4.30339, 8.09612; 0
3.16387, 9.41689; 0
6.85351, 9.41131; 0
8.18249, 0.552729; 0
1.87447, 0.494574; 0
2.01354, 3.89909; 0
3.2276, 6.14095; 0
8.38181, 3.79315; 0
6.63726, 6.10896; 0
3.61345, 2.04925; 0
6.42089, 2.0093; 0
1.43504, 7.94763; 0
8.78903, 7.96889; 0
6.57823, 6.79017; 0
8.09584, 7.36463; 0
2.1064, 7.34261; 0
6.91369, 2.65637; 0
2.91605, 2.58926; 0
5.639, 3.61925; 0
0.813461, 6.2772; 0
9.21009, 6.40251; 0
3.98912, 3.8251; 0
10, 3.0064; -2
0, 3.00592; -4
5.00904, 6.65282; 0
9.31207, 6.11443; 0
5.49212, 3.91046; 0
7.14581, 5.11935; 0
7.71324, 4.88346; 0
2.54399, 5.3128; 0
2.37556, 4.8079; 0
5.45298, 4.53309; 0
9.20706, 5.4351; 0
0.755764, 5.35916; 0
4.48586, 4.58205; 0
4.28513, 1.48408; 0
5.74182, 1.46069; 0
9.31738, 8.53916; 0
0.730045, 8.50753; 0
0, 6.65023; -4
5.14726, 3.18656; 0
0, 5.28916; -4
10, 5.29071; -2
0.700046, 4.80473; 0
9.20186, 4.70025; 0
6.03051, 3.40165; 0
9.11948, 6.71506; 0
4.2425, 2.66112; 0
9.3793, 7.20086; 0
0.738061, 7.30709; 0
4.33523, 5.15413; 0
5.60763, 5.16064; 0
5.7701, 7.11064; 0
4.25678, 7.10471; 0
9.24056, 2.68444; 0
0.710045, 2.61496; 0
0.772016, 3.50114; 0
9.18895, 3.5286; 0
4.16372, 6.3016; 0
5.83471, 6.29757; 0
1.98294, 4.75494; 0
7.97985, 4.74889; 0
3.0408, 5.26493; 0
6.879, 5.27234; 0
10, 6.65301; -2
6.25732, 4.08228; 0
4.76074, 3.80372; 0
0.891496, 6.57942; 0
4.10552, 3.45201; 0
3.44813, 2.7469; 0
1.48309, 7.29322; 0
8.04314, 6.81534; 0
1.61828, 3.5985; 0
0, 5.96639; -4
4.03324, 4.11496; 0
4.27725, 3.10104; 0
0.942435, 5.93687; 0
8.59934, 5.91171; 0
2.86083, 3.41086; 0
2.19896, 6.64218; 0
7.01471, 3.26415; 0
4.7998, 3.47809; 0
10, 5.96861; -2
1.45331, 3.00484; 0
5.67965, 2.89679; 0
6.22961, 2.72281; 0
9.29179, 5.12792; 0
0.807446, 6.8964; 0
0.449498, 4.52494; 0
0.377882, 5.12915; 0
0.810454, 6.5868; 0
0.692819, 4.66443; 0
1.1784, 6.51329; 0
0.635589, 4.91195; 0
2.49423, 0; -1
5, 0; -1
7.50577, 0; -1
0, 2.05109; -4
2.17671, 2.59193; 0
5.16778, 2.39987; 0
7.70035, 2.61959; 0
10, 2.05137; -2
0, 4.89734; -4
2.57313, 4.99962; 0
5.00869, 4.83414; 0
7.46668, 5.02644; 0
10, 4.89858; -2
0, 7.53791; -4
2.8275, 7.42026; 0
5.01143, 7.58252; 0
7.28708, 7.37849; 0
10, 7.54094; -2
2.50577, 10; -3
5, 10; -3
7.49423, 10; -3
3.36453, 3.90376; 0
1.58614, 6.08983; 0
0, 6.2993; -4
10, 6.30176; -2
0.984622, 4.05158; 0
4.15039, 5.71012; 0
2.60539, 3.92596; 0
7.43566, 6.22256; 0
7.68082, 3.82018; 0
2.53584, 6.10358; 0
8.41322, 6.16583; 0
6.5284, 3.87211; 0
9.17238, 4.18662; 0
5.77191, 5.68016; 0
3.47573, 1.27254; 0
1.54012, 8.71737; 0
1.48123, 1.21039; 0
3.72163, 8.74854; 0
8.48922, 8.69846; 0
6.55105, 1.2518; 0
8.49519, 1.32397; 0
6.3573, 8.68575; 0
10, 3.80889; -2
0, 3.80813; -4
4.98453, 5.91941; 0
3.8227, 5.01245; 0
1.32962, 4.91952; 0
6.08042, 4.98604; 0
8.5745, 4.85152; 0
5.00333, 0.960654; 0
10, 9.0221; -2
0, 9.02033; -4
4.32527, 2.18445; 0
8.95509, 7.46507; 0
5.81644, 2.18795; 0
0.725835, 7.80992; 0
7.54642, 8.9027; 0
2.47162, 8.94304; 0
2.53165, 1.04499; 0
7.48155, 1.0641; 0
3.59916, 7.64459; 0
1.40684, 2.17272; 0
6.46564, 7.6304; 0
8.52308, 2.30527; 0
10, 1.03629; -2
4.995, 8.65729; 0
0, 1.03617; -4
6.24447, 0; -1
8.75553, 10; -3
1.24447, 10; -3
3.75553, 0; -1
6.25145, 10; -3
8.74855, 0; -1
1.25145, 0; -1
3.74855, 10; -3
4.93112, 4.16266; 0
0, 5.63743; -4
10, 5.63929; -2
7.62103, 5.80155; 0
7.28224, 4.27895; 0
2.31397, 5.79614; 0
2.66893, 4.28017; 0
5.85536, 4.28062; 0
9.10199, 5.74438; 0
0.839597, 5.67446; 0
4.09637, 4.38347; 0
6.68856, 4.57597; 0
1.74432, 5.41328; 0
8.23568, 5.45392; 0
3.30585, 4.56377; 0
0, 7.05296; -4
10, 7.05584; -2
4.91545, 2.79239; 0
8.66441, 6.90808; 0
1.48538, 6.8442; 0
3.60016, 3.12686; 0
6.44026, 3.24467; 0
1.41309, 4.42561; 0
3.60068, 5.53663; 0
8.44705, 4.33952; 0
6.3497, 5.50083; 0
7.01062, 4.43876; 0
3.1635, 4.33109; 0
1.78031, 5.70664; 0
7.8522, 5.58112; 0
4.95168, 5.35537; 0
10, 4.42262; -2
0, 4.42161; -4
8.48228, 5.25467; 0
6.3348, 4.72754; 0
1.5167, 5.2291; 0
3.44901, 4.81324; 0
1.99722, 4.40103; 0
3.03757, 5.5911; 0
7.81534, 4.30143; 0
7.00124, 5.69676; 0
2.39459, 3.21014; 0
2.72909, 6.74567; 0
7.66842, 3.26941; 0
7.32478, 6.70849; 0
8.15882, 6.38759; 0
7.00792, 3.76721; 0
1.87019, 6.34372; 0
3.3409, 3.58286; 0
3.01499, 8.26079; 0
7.08983, 8.18931; 0
7.86955, 1.83331; 0
2.10021, 1.77606; 0
3.46767, 6.77694; 0
8.42965, 3.12895; 0
7.13117, 1.93578; 0
2.85871, 1.89041; 0
2.20343, 8.08672; 0
7.92521, 8.04221; 0
1.80579, 9.47724; 0
6.81937, 0.506668; 0
8.19274, 9.45942; 0
3.19538, 0.517379; 0
9.20682, 9.35199; 0
0.794415, 9.3393; 0
4.20887, 0.65323; 0
5.79648, 0.641594; 0
5.04045, 1.78269; 0
10, 8.18337; -2
0, 8.18065; -4
0.718017, 1.61788; 0
9.25243, 1.69551; 0
0.764023, 0.647959; 0
9.20607, 0.710863; 0
5.66957, 9.30876; 0
4.39193, 9.34166; 0
5.71286, 8.08314; 0
4.31275, 8.08374; 0
3.16695, 9.40969; 0
6.81935, 9.39967; 0
8.18259, 0.555263; 0
1.84538, 0.504576; 0
2.02489, 3.89455; 0
3.24949, 6.12931; 0
8.39416, 3.7935; 0
6.63025, 6.09817; 0
3.61188, 2.05709; 0
6.42287, 2.01675; 0
1.44484, 7.94168; 0
8.79237, 7.96874; 0
6.57462, 6.78117; 0
8.09334, 7.3615; 0
2.11795, 7.32434; 0
6.92097, 2.66177; 0
2.91029, 2.59807; 0
5.6389, 3.60944; 0
0.813963, 6.26986; 0
9.20865, 6.40595; 0
3.98437, 3.81873; 0
10, 2.99658; -2
0, 2.99602; -4
5.00901, 6.63327; 0
9.30866, 6.11647; 0
5.49014, 3.89853; 0
7.13197, 5.11202; 0
7.71379, 4.88858; 0
2.53982, 5.31762; 0
2.37508, 4.8127; 0
5.44203, 4.51775; 0
9.20689, 5.4387; 0
0.7924, 5.38471; 0
4.47863, 4.57223; 0
4.28323, 1.48427; 0
5.74694, 1.46012; 0
9.31601, 8.5418; 0
0.735563, 8.5077; 0
0, 6.65467; -4
5.15165, 3.17894; 0
0, 5.289; -4
10, 5.29052; -2
9.2, 4.70433; 0
6.03647, 3.39738; 0
9.11778, 6.71804; 0
4.23936, 2.65628; 0
9.37911, 7.20457; 0
0.733837, 7.30078; 0
4.33601, 5.14157; 0
5.59996, 5.14614; 0
5.76926, 7.09492; 0
4.26408, 7.09101; 0
9.24156, 2.68187; 0
0.708791, 2.6146; 0
0.756397, 3.47217; 0
9.19078, 3.52969; 0
4.16176, 6.28494; 0
5.83335, 6.28288; 0
2.00004, 4.75869; 0
7.97776, 4.75093; 0
3.04332, 5.25964; 0
6.86771, 5.26798; 0
10, 6.65729; -2
6.25828, 4.07549; 0
4.75771, 3.79222; 0
4.09903, 3.44721; 0
3.44348, 2.74912; 0
1.47445, 7.29787; 0
8.0358, 6.81158; 0
1.63061, 3.60048; 0
0, 5.96874; -4
4.03035, 4.10726; 0
4.28033, 3.09476; 0
0.939111, 5.93785; 0
8.59327, 5.91449; 0
2.85026, 3.40898; 0
2.20204, 6.6552; 0
7.02409, 3.26719; 0
4.79595, 3.4677; 0
10, 5.97086; -2
1.48527, 3.01439; 0
5.68542, 2.89288; 0
6.2362, 2.72115; 0
9.28767, 5.13045; 0
0.742312, 6.94567; 0
0.499966, 4.49805; 0
0.470219, 5.19028; 0
0.708631, 6.61051; 0
0.790297, 4.64736; 0
1.27237, 6.51454; 0
0.71563, 4.93404; 0
0, 5.26738; -4
1.16422, 6.51775; 0
0.778137, 6.60777; 0
1.4076, 4.27096; 0
2.49297, 0; -1
5, 0; -1
7.50703, 0; -1
0, 2.0411; -4
2.18364, 2.57696; 0
5.16997, 2.39571; 0
7.70334, 2.62285; 0
10, 2.04144; -2
0, 4.8857; -4
2.57382, 5.00269; 0
5.00335, 4.82041; 0
7.46203, 5.02677; 0
10, 4.89679; -2
0, 7.54419; -4
2.8351, 7.41505; 0
5.01373, 7.56511; 0
7.28542, 7.37129; 0
10, 7.54705; -2
2.50703, 10; -3
5, 10; -3
7.49297, 10; -3
3.35527, 3.90317; 0
1.59954, 6.093; 0
0, 6.30261; -4
10, 6.30494; -2
0.839196, 4.09049; 0
4.15937, 5.69269; 0
2.6153, 3.92302; 0
7.43174, 6.21986; 0
7.68968, 3.82282; 0
2.59392, 6.08966; 0
8.40825, 6.1667; 0
6.53183, 3.86883; 0
9.17585, 4.1905; 0
5.76786, 5.66628; 0
3.47532, 1.27669; 0
1.54729, 8.7105; 0
1.48972, 1.23318; 0
3.7365, 8.74295; 0
8.48701, 8.69676; 0
6.5546, 1.25656; 0
8.48979, 1.3275; 0
6.36001, 8.65588; 0
10, 3.80214; -2
0, 3.80131; -4
4.98447, 5.90366; 0
3.82336, 5.00472; 0
1.28991, 4.9116; 0
6.06458, 4.96882; 0
8.57063, 4.85035; 0
5.0042, 0.958446; 0
10, 9.02658; -2
0, 9.02488; -4
4.33003, 2.1803; 0
8.94948, 7.46376; 0
5.81492, 2.1857; 0
0.725823, 7.81039; 0
7.53781, 8.9044; 0
2.47124, 8.93867; 0
2.52791, 1.04098; 0
7.4815, 1.06672; 0
3.60675, 7.64198; 0
1.40568, 2.18472; 0
6.46376, 7.6187; 0
8.52434, 2.3009; 0
10, 1.02981; -2
4.99982, 8.65744; 0
0, 1.02966; -4
6.24324, 0; -1
8.75676, 10; -3
1.24324, 10; -3
3.75676, 0; -1
6.25199, 10; -3
8.74801, 0; -1
1.25199, 0; -1
3.74801, 10; -3
4.92575, 4.14998; 0
0, 5.63031; -4
10, 5.64034; -2
7.6141, 5.80123; 0
7.28302, 4.28076; 0
2.33104, 5.78593; 0
2.67131, 4.28223; 0
5.85, 4.26897; 0
9.0995, 5.74678; 0
0.831917, 5.69167; 0
4.09424, 4.37467; 0
6.68383, 4.57042; 0
1.74535, 5.41422; 0
8.23308, 5.45707; 0
3.30347, 4.56105; 0
0, 7.05819; -4
10, 7.0609; -2
4.91674, 2.78556; 0
8.66115, 6.90941; 0
1.47597, 6.83385; 0
3.59657, 3.12599; 0
6.44868, 3.24422; 0
3.60442, 5.52714; 0
8.44915, 4.33987; 0
6.339, 5.48412; 0
7.01227, 4.43932; 0
3.16339, 4.32849; 0
1.77677, 5.71078; 0
7.84233, 5.57872; 0
4.95247, 5.34094; 0
10, 4.41878; -2
0, 4.41331; -4
8.48117, 5.25733; 0
6.32589, 4.71735; 0
1.52753, 5.225; 0
3.4484, 4.8082; 0
1.94321, 4.4071; 0
3.04359, 5.58086; 0
7.81709, 4.30316; 0
6.99654, 5.69781; 0
2.38157, 3.20632; 0
2.75644, 6.73002; 0
7.67861, 3.27365; 0
7.31826, 6.70156; 0
8.15642, 6.38822; 0
7.0149, 3.76863; 0
1.91049, 6.32189; 0
3.34194, 3.57646; 0
3.02242, 8.26093; 0
7.09685, 8.17762; 0
7.86465, 1.83758; 0
2.10692, 1.77703; 0
3.48069, 6.77499; 0
8.43521, 3.12592; 0
7.1305, 1.94058; 0
2.86479, 1.8894; 0
2.21179, 8.07597; 0
7.92751, 8.03936; 0
1.80652, 9.47547; 0
6.81981, 0.50812; 0
8.19076, 9.4579; 0
3.19603, 0.519766; 0
9.20462, 9.35191; 0
0.798298, 9.3363; 0
4.20759, 0.655101; 0
5.79902, 0.643218; 0
5.04233, 1.77746; 0
10, 8.18947; -2
0, 8.18689; -4
0.719374, 1.61706; 0
9.25163, 1.69275; 0
0.771892, 0.657128; 0
9.2025, 0.712795; 0
5.6868, 9.30192; 0
4.39578, 9.34345; 0
5.70645, 8.06836; 0
4.32431, 8.07319; 0
3.17021, 9.40147; 0
6.80243, 9.38945; 0
8.1822, 0.55682; 0
1.83423, 0.512682; 0
2.11432, 3.85903; 0
3.28065, 6.11891; 0
8.40224, 3.79465; 0
6.6244, 6.08671; 0
3.61128, 2.06278; 0
6.42493, 2.0232; 0
1.45279, 7.93557; 0
8.79489, 7.96861; 0
6.5712, 6.77071; 0
8.09104, 7.35885; 0
2.12686, 7.31342; 0
6.92888, 2.66656; 0
2.90924, 2.60167; 0
5.63901, 3.60073; 0
0.828023, 6.2725; 0
9.20737, 6.40862; 0
3.97935, 3.81241; 0
10, 2.9874; -2
0, 2.98677; -4
5.00894, 6.61447; 0
9.30591, 6.11807; 0
5.48816, 3.88764; 0
7.12016, 5.10591; 0
7.7139, 4.8925; 0
2.53502, 5.32066; 0
2.38578, 4.81443; 0
5.43145, 4.50289; 0
9.20709, 5.44161; 0
0.816853, 5.40305; 0
4.47156, 4.5626; 0
4.28198, 1.48412; 0
5.75103, 1.46004; 0
9.31457, 8.54415; 0
0.740451, 8.50642; 0
0, 6.65881; -4
5.15668, 3.17196; 0
10, 5.29028; -2
9.19955, 4.70727; 0
6.04247, 3.39364; 0
9.11668, 6.7207; 0
4.23554, 2.65269; 0
9.37876, 7.208; 0
0.738102, 7.31615; 0
4.33792, 5.12934; 0
5.59222, 5.1319; 0
5.76823, 7.07899; 0
4.27013, 7.07847; 0
9.24245, 2.6789; 0
0.716979, 2.60966; 0
0.772835, 3.45806; 0
9.19277, 3.52963; 0
4.16289, 6.26972; 0
5.83204, 6.26822; 0
1.98737, 4.75422; 0
7.97649, 4.75309; 0
3.04951, 5.24986; 0
6.85628, 5.26405; 0
10, 6.66128; -2
6.2593, 4.06948; 0
4.75447, 3.78153; 0
4.09218, 3.4427; 0
3.44099, 2.75023; 0
1.47966, 7.29255; 0
8.02991, 6.80862; 0
1.59132, 3.66024; 0
0, 5.96759; -4
4.02728, 4.09977; 0
4.28441, 3.0887; 0
0.937937, 5.94645; 0
8.58823, 5.91641; 0
2.87537, 3.38744; 0
2.1959, 6.65753; 0
7.03275, 3.27018; 0
4.79216, 3.45783; 0
10, 5.97294; -2
1.51206, 3.03216; 0
5.69084, 2.88874; 0
6.24307, 2.71918; 0
9.2852, 5.13243; 0
0.720426, 6.96073; 0
0.587387, 5.15672; 0
0.767268, 4.69294; 0
0, 5.27795; -4
1.28374, 6.514; 0
0.709916, 6.62097; 0
1.43114, 4.30171; 0
444
3667 0 3594; 0.875146
3667 3587 0; 0.975334
3668 4 3585; 0.967181
3668 3593 4; 0.902502
3659 20 3572; 0.976964
3659 3590 20; 0.887401
3658 24 3589; 0.878375
3658 3571 24; 0.979966
3676 3520 3579; 0.957459
3657 3520 3591; 0.775173
3657 3579 3520; 0.961415
3676 3594 3520; 0.776865
3660 3521 3570; 0.978379
3661 3521 3588; 0.874581
3660 3591 3521; 0.883298
3661 3570 3521; 0.979795
3655 3522 3580; 0.950922
3675 3522 3593; 0.815755
3655 3588 3522; 0.765058
3675 3580 3522; 0.957013
3665 3523 3587; 0.974536
3725 3523 3665; 0.974817
3725 3695 3523; 0.976873
3647 3524 3582; 0.984284
3752 3524 3636; 0.945957
3651 3524 3647; 0.972539
3689 3524 3651; 0.976842
3689 3636 3524; 0.986899
3752 3582 3524; 0.980851
3662 3525 3573; 0.995985
3754 3525 3575; 0.88362
3717 3525 3613; 0.944751
3662 3575 3525; 0.980831
3717 3573 3525; 0.954348
3753 3613 3525; 0.954037
3754 3753 3525; 0.935572
3649 3526 3584; 0.995106
3688 3526 3638; 0.993186
3646 3584 3526; 0.978284
3649 3638 3526; 0.995959
3650 3646 3526; 0.979708
3688 3650 3526; 0.991183
3666 3585 3527; 0.96849
3724 3527 3694; 0.970072
3724 3666 3527; 0.968151
3758 3528 3627; 0.958227
3759 3528 3757; 0.88829
3758 3757 3528; 0.977047
3702 3529 3608; 0.962817
3631 3529 3610; 0.873179
3622 3610 3529; 0.859848
3623 3608 3529; 0.900328
3701 3529 3631; 0.897841
3701 3623 3529; 0.844596
3702 3622 3529; 0.879845
3706 3530 3566; 0.930284
3721 3530 3568; 0.916349
3720 3530 3625; 0.92291
3703 3568 3530; 0.990556
3706 3703 3530; 0.997797
3720 3566 3530; 0.849756
3721 3625 3530; 0.907752
3621 3531 3607; 0.964769
3624 3531 3609; 0.986281
3700 3531 3621; 0.915854
3699 3531 3624; 0.953469
3699 3607 3531; 0.973792
3700 3609 3531; 0.961713
3755 3532 3713; 0.939006
3714 3626 3532; 0.950704
3755 3714 3532; 0.973468
3664 3533 3576; 0.987164
3719 3533 3611; 0.963683
3719 3576 3533; 0.98686
3644 3534 3581; 0.989101
3648 3534 3637; 0.99268
3652 3534 3644; 0.993893
3648 3581 3534; 0.982948
3687 3534 3652; 0.986415
3687 3637 3534; 0.991162
3672 3535 3586; 0.944462
3671 3586 3535; 0.950287
3723 3535 3672; 0.973052
3722 3535 3696; 0.985945
3722 3671 3535; 0.975199
3723 3696 3535; 0.982154
3685 3536 3583; 0.996808
3686 3536 3639; 0.987814
3645 3583 3536; 0.991648
3653 3645 3536; 0.996949
3685 3639 3536; 0.998827
3686 3653 3536; 0.999594
3718 3537 3574; 0.906434
3663 3574 3537; 0.893914
3718 3612 3537; 0.96116
3673 3538 3578; 0.955128
3654 3538 3590; 0.779821
3654 3578 3538; 0.955176
3673 3595 3538; 0.849647
3669 3539 3586; 0.874989
3670 3539 3595; 0.88611
3669 3592 3539; 0.90852
3670 3586 3539; 0.817581
3656 3540 3577; 0.94205
3674 3540 3592; 0.856759
3656 3589 3540; 0.796016
3674 3577 3540; 0.959378
3643 3541 3602; 0.812864
3622 3602 3541; 0.974676
3737 3541 3643; 0.986714
3693 3622 3541; 0.958259
3737 3693 3541; 0.984063
3642 3542 3601; 0.989355
3623 3601 3542; 0.899399
3760 3542 3642; 0.936599
3691 3623 3542; 0.886801
3760 3691 3542; 0.92342
3711 3543 3691; 0.956783
3745 3543 3742; 0.971384
3745 3691 3543; 0.906959
3697 3544 3692; 0.956464
3751 3544 3697; 0.971976
3734 3692 3544; 0.994802
3726 3545 3564; 0.985351
3627 3564 3545; 0.995763
3741 3545 3726; 0.989186
3762 3545 3741; 0.980497
3758 3627 3545; 0.987898
3762 3758 3545; 0.943274
3728 3546 3565; 0.996635
3720 3546 3618; 0.962359
3625 3565 3546; 0.999049
3678 3618 3546; 0.987722
3720 3625 3546; 0.966893
3728 3678 3546; 0.971022
3632 3547 3602; 0.974226
3677 3547 3632; 0.972531
3643 3602 3547; 0.893995
3747 3547 3677; 0.996603
3747 3643 3547; 0.979696
3640 3548 3599; 0.956016
3635 3599 3548; 0.895927
3680 3548 3639; 0.99915
3740 3548 3640; 0.995891
3680 3635 3548; 0.93052
3740 3639 3548; 0.992447
3634 3549 3619; 0.998778
3641 3549 3634; 0.996373
3679 3549 3638; 0.996013
3749 3549 3641; 0.983716
3679 3619 3549; 0.998591
3749 3638 3549; 0.990284
3633 3550 3601; 0.958912
3678 3550 3633; 0.835236
3642 3601 3550; 0.957044
3748 3550 3678; 0.915774
3748 3642 3550; 0.967712
3624 3551 3599; 0.985459
3746 3551 3624; 0.967829
3640 3599 3551; 0.987233
3716 3551 3692; 0.951437
3716 3640 3551; 0.96334
3746 3692 3551; 0.983589
3621 3552 3600; 0.958314
3735 3552 3621; 0.961946
3641 3600 3552; 0.991564
3715 3552 3690; 0.994707
3715 3641 3552; 0.97392
3735 3690 3552; 0.988518
3626 3553 3563; 0.96554
3679 3553 3619; 0.983649
3714 3553 3626; 0.965979
3727 3553 3679; 0.980703
3714 3619 3553; 0.975189
3727 3563 3553; 0.966458
3625 3554 3565; 0.999389
3680 3554 3620; 0.991621
3721 3554 3625; 0.979939
3729 3554 3680; 0.993007
3721 3620 3554; 0.979873
3729 3565 3554; 0.999051
3657 3555 3579; 0.971438
3651 3579 3555; 0.986983
3660 3555 3657; 0.973828
3707 3555 3660; 0.99333
3681 3651 3555; 0.99279
3707 3681 3555; 0.996234
3654 3556 3578; 0.980856
3652 3578 3556; 0.998063
3659 3556 3654; 0.974136
3710 3556 3659; 0.990755
3683 3652 3556; 0.995282
3710 3683 3556; 0.996919
3647 3557 3579; 0.949906
3665 3557 3582; 0.989847
3647 3582 3557; 0.973133
3667 3557 3665; 0.991364
3676 3557 3667; 0.942075
3676 3579 3557; 0.941276
3644 3558 3578; 0.833794
3672 3558 3581; 0.927662
3670 3558 3586; 0.874442
3673 3558 3595; 0.822436
3644 3581 3558; 0.921761
3670 3595 3558; 0.881868
3672 3586 3558; 0.86609
3673 3578 3558; 0.811605
3653 3559 3577; 0.983584
3684 3559 3653; 0.994646
3656 3577 3559; 0.977052
3658 3656 3559; 0.977531
3709 3559 3684; 0.985892
3709 3658 3559; 0.990052
3650 3560 3580; 0.992631
3682 3560 3650; 0.980028
3655 3580 3560; 0.981526
3661 3655 3560; 0.966395
3708 3560 3682; 0.998495
3708 3661 3560; 0.989361
3675 3561 3580; 0.958117
3646 3561 3584; 0.959472
3646 3580 3561; 0.956109
3666 3584 3561; 0.980728
3668 3666 3561; 0.984184
3675 3668 3561; 0.969758
3674 3562 3577; 0.885792
3645 3562 3583; 0.95528
3671 3562 3586; 0.802304
3645 3577 3562; 0.88863
3669 3586 3562; 0.844401
3671 3583 3562; 0.965648
3674 3669 3562; 0.946473
3727 3694 3563; 0.973386
3726 3564 3695; 0.989392
3728 3565 3696; 0.997201
3729 3696 3565; 0.999399
3633 3566 3618; 0.925176
3706 3566 3631; 0.980023
3732 3566 3633; 0.946091
3720 3618 3566; 0.960334
3732 3631 3566; 0.973735
3705 3567 3630; 0.942665
3730 3567 3632; 0.999282
3757 3567 3705; 0.931996
3730 3630 3567; 0.945458
3758 3567 3757; 0.942957
3762 3567 3758; 0.884988
3762 3632 3567; 0.890852
3721 3568 3620; 0.966477
3733 3568 3629; 0.989384
3635 3620 3568; 0.787345
3703 3629 3568; 0.989956
3733 3635 3568; 0.816679
3714 3569 3619; 0.970175
3731 3569 3628; 0.903964
3634 3619 3569; 0.986472
3704 3628 3569; 0.911375
3755 3569 3714; 0.948766
3731 3634 3569; 0.97505
3755 3704 3569; 0.837003
3708 3570 3661; 0.997636
3707 3570 3662; 0.991402
3707 3660 3570; 0.997078
3708 3662 3570; 0.985742
3709 3571 3658; 0.999123
3709 3663 3571; 0.975178
3710 3572 3664; 0.986896
3710 3659 3572; 0.997028
3707 3573 3681; 0.988578
3707 3662 3573; 0.996327
3738 3573 3717; 0.903604
3738 3681 3573; 0.947356
3718 3574 3614; 0.975744
3684 3574 3663; 0.833411
3686 3574 3684; 0.979709
3740 3574 3686; 0.929034
3740 3614 3574; 0.860728
3708 3575 3662; 0.991012
3688 3575 3682; 0.803594
3754 3575 3688; 0.848857
3708 3682 3575; 0.961497
3710 3576 3683; 0.990805
3710 3664 3576; 0.996493
3739 3576 3719; 0.981661
3739 3683 3576; 0.988654
3653 3577 3645; 0.973762
3652 3644 3578; 0.991591
3651 3647 3579; 0.971386
3650 3580 3646; 0.952121
3723 3581 3648; 0.986126
3723 3672 3581; 0.966357
3725 3665 3582; 0.965458
3752 3725 3582; 0.976723
3722 3583 3671; 0.978463
3722 3685 3583; 0.991142
3724 3584 3666; 0.966985
3724 3649 3584; 0.967939
3668 3585 3666; 0.982383
3667 3665 3587; 0.990589
3661 3588 3655; 0.915263
3658 3589 3656; 0.930594
3659 3654 3590; 0.929049
3660 3657 3591; 0.923996
3674 3592 3669; 0.924311
3675 3593 3668; 0.943842
3676 3667 3594; 0.902909
3703 3596 3603; 0.997575
3743 3596 3606; 0.934064
3698 3603 3596; 0.992958
3706 3596 3703; 0.992704
3706 3606 3596; 0.944314
3736 3698 3596; 0.941163
3743 3736 3596; 0.973468
3742 3597 3605; 0.996786
3705 3605 3597; 0.967949
3759 3705 3597; 0.982866
3704 3598 3604; 0.931808
3713 3598 3704; 0.969406
3751 3604 3598; 0.959543
3733 3599 3635; 0.99228
3699 3624 3599; 0.872193
3733 3699 3599; 0.852823
3731 3600 3634; 0.99586
3641 3634 3600; 0.991029
3700 3621 3600; 0.915109
3731 3700 3600; 0.892898
3701 3601 3623; 0.953643
3732 3601 3701; 0.975369
3732 3633 3601; 0.982363
3702 3602 3622; 0.989534
3730 3602 3702; 0.953511
3730 3632 3602; 0.970545
3629 3603 3607; 0.999771
3703 3603 3629; 0.998936
3735 3603 3698; 0.969774
3735 3607 3603; 0.992865
3628 3604 3609; 0.994745
3704 3604 3628; 0.977468
3746 3604 3697; 0.907453
3746 3609 3604; 0.969328
3751 3697 3604; 0.9965
3745 3605 3608; 0.9407
3630 3608 3605; 0.968604
3705 3630 3605; 0.963795
3745 3742 3605; 0.955309
3743 3606 3610; 0.983842
3631 3610 3606; 0.995384
3706 3631 3606; 0.921145
3699 3629 3607; 0.992187
3735 3621 3607; 0.983623
3745 3608 3623; 0.968029
3702 3608 3630; 0.96306
3700 3628 3609; 0.985228
3746 3624 3609; 0.987582
3743 3610 3622; 0.972875
3756 3611 3711; 0.861627
3756 3719 3611; 0.880617
3734 3612 3716; 0.993283
3718 3716 3612; 0.942133
3744 3613 3712; 0.980353
3744 3717 3613; 0.987085
3753 3712 3613; 0.977028
3716 3614 3640; 0.96534
3718 3614 3716; 0.972221
3740 3640 3614; 0.95664
3748 3615 3642; 0.970102
3756 3615 3719; 0.955305
3739 3719 3615; 0.988917
3748 3739 3615; 0.964485
3760 3615 3756; 0.997364
3760 3642 3615; 0.970537
3747 3616 3643; 0.958005
3744 3616 3717; 0.992095
3738 3717 3616; 0.994578
3744 3643 3616; 0.905942
3747 3738 3616; 0.96531
3715 3617 3641; 0.925835
3753 3617 3715; 0.962238
3749 3641 3617; 0.936903
3754 3617 3753; 0.994606
3754 3749 3617; 0.962706
3678 3633 3618; 0.766975
3680 3620 3635; 0.88783
3743 3622 3693; 0.962079
3745 3623 3691; 0.905281
3731 3628 3700; 0.988097
3733 3629 3699; 0.971635
3730 3702 3630; 0.974565
3732 3701 3631; 0.908473
3762 3677 3632; 0.974178
3741 3636 3677; 0.993364
3738 3636 3689; 0.827885
3747 3636 3738; 0.926605
3752 3636 3741; 0.962741
3747 3677 3636; 0.988049
3678 3648 3637; 0.954508
3748 3637 3687; 0.961049
3748 3678 3637; 0.838847
3679 3638 3649; 0.997018
3749 3688 3638; 0.98544
3685 3680 3639; 0.988162
3740 3686 3639; 0.962757
3744 3737 3643; 0.898098
3728 3648 3678; 0.962074
3728 3723 3648; 0.987581
3727 3649 3724; 0.981469
3727 3679 3649; 0.977424
3688 3682 3650; 0.958301
3689 3651 3681; 0.998797
3687 3652 3683; 0.98965
3686 3684 3653; 0.999182
3709 3684 3663; 0.831517
3762 3741 3677; 0.963017
3729 3680 3685; 0.987957
3738 3689 3681; 0.962185
3739 3687 3683; 0.97592
3729 3685 3722; 0.994931
3748 3687 3739; 0.952554
3754 3688 3749; 0.987657
3736 3690 3698; 0.897989
3715 3690 3712; 0.982155
3735 3698 3690; 0.967787
3750 3690 3736; 0.94062
3750 3712 3690; 0.947531
3761 3691 3760; 0.78901
3761 3711 3691; 0.859972
3734 3716 3692; 0.973913
3746 3697 3692; 0.951342
3743 3693 3736; 0.994834
3750 3693 3737; 0.971584
3750 3736 3693; 0.982923
3727 3724 3694; 0.960324
3726 3695 3725; 0.977943
3728 3696 3723; 0.991006
3729 3722 3696; 0.994998
3755 3713 3704; 0.919852
3759 3757 3705; 0.821779
3761 3756 3711; 0.790777
3744 3712 3737; 0.884492
3750 3737 3712; 0.85398
3753 3715 3712; 0.9966
3752 3726 3725; 0.98802
3752 3741 3726; 0.983058
3761 3760 3756; 0.933568
$z(x, y) = 5\tanh\left( 0.5 \cdot (y - \cos(\pi x / 5) - 5) \right)$, compute by embedding, eval by embedding, time elapsed = 20.00
