2
3893
0, 0; 1
2.5, 0; -1
5, 0; -1
7.5, 0; -1
10, 0; 2
0, 2.5; -4
2.5, 2.5; 0
5, 2.5; 0
7.5, 2.5; 0
10, 2.5; -2
0, 5; -4
2.5, 5; 0
5, 5; 0
7.5, 5; 0
10, 5; -2
0, 7.5; -4
2.5, 7.5; 0
5, 7.5; 0
7.5, 7.5; 0
10, 7.5; -2
0, 10; 4
2.5, 10; -3
5, 10; -3
7.5, 10; -3
10, 10; 3
3.75, 6.25; 0
1.25, 3.75; 0
3.75, 3.75; 0
1.25, 6.25; 0
10, 6.25; -2
0, 6.25; -4
5, 3.75; 0
6.25, 6.25; 0
8.75, 3.75; 0
6.25, 3.75; 0
8.75, 6.25; 0
2.5, 3.75; 0
2.5, 6.25; 0
7.5, 6.25; 0
7.5, 3.75; 0
1.25, 8.75; 0
3.75, 1.25; 0
3.75, 8.75; 0
1.25, 1.25; 0
10, 3.75; -2
5, 6.25; 0
0, 3.75; -4
6.25, 1.25; 0
8.75, 8.75; 0
8.75, 1.25; 0
6.25, 8.75; 0
8.75, 5; 0
3.75, 5; 0
6.25, 5; 0
1.25, 5; 0
0, 8.75; -4
5, 1.25; 0
10, 8.75; -2
2.5, 8.75; 0
7.5, 8.75; 0
2.5, 1.25; 0
7.5, 1.25; 0
8.75, 2.5; 0
3.75, 2.5; 0
3.75, 7.5; 0
8.75, 7.5; 0
1.25, 7.5; 0
6.25, 2.5; 0
1.25, 2.5; 0
6.25, 7.5; 0
0, 1.25; -4
10, 1.25; -2
5, 8.75; 0
8.75, 10; -3
6.25, 10; -3
3.75, 10; -3
1.25, 0; -1
6.25, 0; -1
8.75, 0; -1
1.25, 10; -3
3.75, 0; -1
2.49992, 0; -1
5, 0; -1
7.50008, 0; -1
0, 2.48321; -4
2.49249, 2.4891; 0
5, 2.49997; 0
7.50751, 2.4891; 0
10, 2.48321; -2
0, 5; -4
2.5, 5; 0
5, 5; 0
7.5, 5; 0
10, 5; -2
0, 7.50003; -4
2.50751, 7.5109; 0
5, 7.51689; 0
7.49249, 7.5109; 0
10, 7.50003; -2
2.50008, 10; -3
5, 10; -3
7.49992, 10; -3
3.76762, 6.25173; 0
1.23238, 3.74827; 0
3.75395, 3.75; 0
1.24605, 6.25; 0
10, 6.25; -2
0, 6.25; -4
4.99976, 3.75; 0
6.23238, 6.25173; 0
8.76762, 3.74827; 0
6.24606, 3.75; 0
8.75395, 6.25; 0
2.49918, 3.75; 0
2.50082, 6.25; 0
7.49918, 6.25; 0
7.50082, 3.75; 0
1.24946, 8.76882; 0
3.75054, 1.23118; 0
3.75057, 8.75388; 0
1.24943, 1.24612; 0
10, 3.74502; -2
5, 6.25504; 0
0, 3.74502; -4
6.24946, 1.23118; 0
8.75054, 8.76882; 0
8.75057, 1.24612; 0
6.24943, 8.75388; 0
8.75491, 5; 0
3.75491, 5; 0
6.24509, 5; 0
1.24509, 5; 0
0, 8.76542; -4
5, 1.23386; 0
10, 8.76542; -2
2.50095, 8.76185; 0
7.49905, 8.76185; 0
2.49905, 1.23815; 0
7.50095, 1.23815; 0
8.7544, 2.48078; 0
3.75659, 2.4995; 0
3.7544, 7.51922; 0
8.75659, 7.5005; 0
1.24341, 7.5005; 0
6.24341, 2.4995; 0
1.2456, 2.48078; 0
6.2456, 7.51922; 0
0, 1.24912; -4
10, 1.24912; -2
5, 8.75103; 0
8.75005, 10; -3
6.24996, 10; -3
3.75004, 10; -3
1.24996, 0; -1
6.24995, 0; -1
8.75004, 0; -1
1.24995, 10; -3
3.75005, 0; -1
6.24988, 4.375; 0
1.25, 5.625; 0
8.75, 5.625; 0
3.74988, 4.375; 0
8.75041, 4.375; 0
1.24959, 4.375; 0
6.24959, 5.625; 0
3.75041, 5.625; 0
8.74959, 6.87502; 0
1.25041, 6.87502; 0
3.74959, 3.12498; 0
6.25041, 3.12498; 0
4.99988, 4.375; 0
10, 5.625; -2
0, 5.625; -4
5.62242, 4.375; 0
0.622543, 5.625; 0
9.37746, 5.625; 0
4.37734, 4.375; 0
7.49952, 5.625; 0
2.50048, 5.625; 0
2.49952, 4.375; 0
7.50049, 4.375; 0
0, 6.87501; -4
10, 6.87501; -2
4.99988, 3.12499; 0
4.37697, 3.12499; 0
9.37697, 6.87501; 0
0.623026, 6.87501; 0
5.62303, 3.12499; 0
0.616188, 4.37413; 0
9.38381, 4.37413; 0
4.38381, 5.62587; 0
5.61619, 5.62587; 0
0.624731, 8.13443; 0
4.37527, 1.86557; 0
1.87303, 5.625; 0
8.12697, 5.625; 0
3.12697, 4.375; 0
6.87303, 4.375; 0
5, 5.62752; 0
0, 4.37251; -4
10, 4.37251; -2
8.12787, 4.375; 0
1.87213, 4.375; 0
6.87213, 5.625; 0
3.12787, 5.625; 0
8.12746, 5; 0
1.87254, 5; 0
3.12746, 5; 0
6.87254, 5; 0
7.50416, 3.11955; 0
7.49584, 6.88045; 0
2.50416, 6.88045; 0
2.49584, 3.11955; 0
8.12789, 6.87525; 0
6.87211, 3.12475; 0
3.12789, 3.12475; 0
1.87211, 6.87525; 0
5.6217, 1.86668; 0
9.3783, 8.13296; 0
0.6228, 3.1129; 0
9.3772, 3.1129; 0
4.3772, 6.88713; 0
5.6228, 6.88713; 0
3.13757, 6.88132; 0
6.86243, 6.88132; 0
1.86243, 3.11868; 0
8.13757, 3.11868; 0
3.12523, 0.615588; 0
1.87477, 9.38441; 0
6.87477, 0.615588; 0
8.12523, 9.38441; 0
5, 1.86692; 0
0, 8.13272; -4
10, 8.13272; -2
8.12657, 6.25; 0
1.87343, 6.25; 0
3.12657, 3.75; 0
6.87344, 3.75; 0
6.87848, 1.86014; 0
8.12152, 8.13986; 0
1.87848, 8.13986; 0
3.12152, 1.86014; 0
9.37528, 1.86467; 0
0.624717, 1.86467; 0
4.37528, 8.13538; 0
5.62472, 8.13538; 0
8.12767, 1.85947; 0
1.87233, 1.85947; 0
6.87233, 8.14053; 0
3.12767, 8.14053; 0
4.37527, 0.615588; 0
0.624731, 9.38441; 0
9.37527, 9.38441; 0
5.62473, 0.615588; 0
9.37528, 0.62306; 0
0.624717, 0.62306; 0
4.37528, 9.37694; 0
5.62472, 9.37694; 0
6.87468, 9.37694; 0
3.12532, 9.37694; 0
1.87468, 0.62306; 0
8.12532, 0.62306; 0
3.75357, 1.86534; 0
1.24643, 8.13466; 0
6.24643, 1.86534; 0
8.75357, 8.13466; 0
8.13422, 3.74913; 0
3.13422, 6.25087; 0
6.86578, 6.25087; 0
1.86578, 3.74913; 0
3.76101, 6.88548; 0
6.23899, 6.88548; 0
1.23899, 3.11453; 0
8.76101, 3.11453; 0
5.62291, 3.75; 0
0.623026, 6.25; 0
9.37697, 6.25; 0
4.37686, 3.75; 0
5, 6.88596; 0
10, 3.11411; -2
0, 3.11411; -4
5.62254, 5; 0
4.37746, 5; 0
0.622543, 5; 0
9.37746, 5; 0
2.49982, 0; -1
5, 0; -1
7.50018, 0; -1
0, 2.34148; -4
2.47619, 2.44932; 0
5.00001, 2.50777; 0
7.52381, 2.44932; 0
10, 2.34148; -2
0, 4.98839; -4
2.50001, 5; 0
5, 5.03165; 0
7.50001, 5; 0
10, 4.98839; -2
0, 7.48818; -4
2.52381, 7.55068; 0
5, 7.62961; 0
7.47619, 7.55068; 0
10, 7.48818; -2
2.50018, 10; -3
5, 10; -3
7.49982, 10; -3
3.90289, 6.19117; 0
1.09711, 3.80883; 0
3.6983, 3.75542; 0
1.30166, 6.24458; 0
10, 6.25092; -2
0, 6.25092; -4
4.99983, 3.7503; 0
6.09711, 6.19117; 0
8.90289, 3.80883; 0
6.30162, 3.75542; 0
8.69834, 6.24458; 0
2.51898, 3.74851; 0
2.48102, 6.25149; 0
7.51898, 6.25149; 0
7.48102, 3.74851; 0
1.22843, 8.85042; 0
3.77157, 1.14957; 0
3.74663, 8.75289; 0
1.25335, 1.24712; 0
10, 3.8081; -2
5, 6.15407; 0
0, 3.8081; -4
6.22799, 1.14998; 0
8.77205, 8.84995; 0
8.74665, 1.24712; 0
6.25337, 8.75289; 0
8.67927, 4.99368; 0
3.67927, 5.00632; 0
6.32073, 5.00632; 0
1.32073, 4.99368; 0
0, 8.84637; -4
4.99995, 1.17151; 0
10, 8.84637; -2
2.48221, 8.76644; 0
7.51775, 8.76643; 0
2.51779, 1.23356; 0
7.48224, 1.23357; 0
8.7296, 2.39268; 0
3.74588, 2.52955; 0
3.72995, 7.60681; 0
8.74576, 7.47042; 0
1.25424, 7.4704; 0
6.25404, 2.52945; 0
1.2704, 2.39268; 0
6.27005, 7.60681; 0
0, 1.24656; -4
10, 1.24656; -2
5, 8.75182; 0
8.75011, 10; -3
6.24992, 10; -3
3.75008, 10; -3
1.24992, 0; -1
6.24989, 0; -1
8.75008, 0; -1
1.24989, 10; -3
3.75011, 0; -1
6.31586, 4.38535; 0
1.31594, 5.61465; 0
8.68406, 5.61464; 0
3.68399, 4.38536; 0
8.70247, 4.37918; 0
1.29753, 4.37918; 0
6.29753, 5.62082; 0
3.70247, 5.62082; 0
8.70537, 6.87273; 0
1.29463, 6.87272; 0
3.70526, 3.12732; 0
6.29474, 3.1273; 0
4.99986, 4.37924; 0
10, 5.62369; -2
0, 5.62369; -4
5.7318, 4.38487; 0
0.732854, 5.61455; 0
9.26715, 5.61455; 0
4.26797, 4.38487; 0
7.50358, 5.62745; 0
2.49642, 5.62745; 0
2.50358, 4.37255; 0
7.49643, 4.37255; 0
0, 6.88591; -4
10, 6.88591; -2
4.99996, 3.11834; 0
4.30403, 3.1304; 0
9.30357, 6.86892; 0
0.696426, 6.86892; 0
5.69595, 3.1304; 0
0.643547, 4.40315; 0
9.35645, 4.40315; 0
4.35628, 5.59323; 0
5.64372, 5.59323; 0
0.629457, 8.13863; 0
4.36846, 1.86429; 0
1.90156, 5.62626; 0
8.09844, 5.62626; 0
3.09842, 4.37374; 0
6.90155, 4.37375; 0
5, 5.57676; 0
0, 4.42226; -4
10, 4.42226; -2
8.07853, 4.38787; 0
1.92147, 4.38787; 0
6.92147, 5.61213; 0
3.07853, 5.61213; 0
8.0896, 5.00535; 0
1.91041, 5.00534; 0
3.08949, 4.99471; 0
6.91052, 4.99472; 0
7.44874, 3.13671; 0
7.55128, 6.8633; 0
2.44872, 6.8633; 0
2.55127, 3.13671; 0
8.13227, 6.87125; 0
6.86771, 3.12869; 0
3.13226, 3.12872; 0
1.86774, 6.87125; 0
5.63092, 1.86585; 0
9.37119, 8.13668; 0
0.62021, 3.12464; 0
9.37979, 3.12464; 0
4.38095, 6.86581; 0
5.61905, 6.86581; 0
3.11505, 6.88404; 0
6.88495, 6.88404; 0
1.88495, 3.11594; 0
8.11505, 3.11594; 0
3.12314, 0.612719; 0
1.87685, 9.38728; 0
6.87666, 0.612896; 0
8.12337, 9.38708; 0
4.99972, 1.90886; 0
0, 8.09755; -4
10, 8.09755; -2
8.12472, 6.2586; 0
1.87528, 6.2586; 0
3.12463, 3.74144; 0
6.87535, 3.74144; 0
6.97885, 1.85506; 0
8.02114, 8.14494; 0
1.97884, 8.14495; 0
3.02116, 1.85505; 0
9.34998, 1.84234; 0
0.650017, 1.84234; 0
4.35729, 8.15413; 0
5.64271, 8.15413; 0
8.05017, 1.8545; 0
1.94983, 1.85449; 0
6.94962, 8.14534; 0
3.05037, 8.14535; 0
4.39264, 0.593029; 0
0.612282, 9.41025; 0
9.38768, 9.41029; 0
5.60737, 0.593008; 0
9.37365, 0.625297; 0
0.626354, 0.625297; 0
4.37402, 9.3744; 0
5.62598, 9.3744; 0
6.88014, 9.37126; 0
3.11986, 9.37125; 0
1.88014, 0.628754; 0
8.11987, 0.628748; 0
3.70197, 1.90921; 0
1.2977, 8.09014; 0
6.2977, 1.90902; 0
8.70267, 8.09037; 0
8.12995, 3.76877; 0
3.12994, 6.23123; 0
6.87006, 6.23123; 0
1.87005, 3.76877; 0
3.73015, 6.85025; 0
6.26985, 6.85025; 0
1.26974, 3.1517; 0
8.73026, 3.1517; 0
5.71831, 3.75741; 0
0.718936, 6.2422; 0
9.28106, 6.2422; 0
4.28147, 3.75742; 0
5, 6.84872; 0
10, 3.13033; -2
0, 3.13033; -4
5.72411, 5.02121; 0
4.27589, 5.0212; 0
0.730124, 4.97493; 0
9.26988, 4.97493; 0
5, 6.85025; 0
0, 4.39824; -4
10, 4.39824; -2
9.34203, 5.93278; 0
0.657968, 5.93278; 0
5.65784, 4.06782; 0
4.34191, 4.06783; 0
9.33963, 5.30868; 0
0.660365, 5.30868; 0
5.6603, 4.69278; 0
4.33957, 4.69278; 0
0, 3.07479; -4
0.650828, 6.56525; 0
9.34917, 6.56525; 0
5.65079, 3.43688; 0
4.34913, 3.43688; 0
4.99985, 4.06477; 0
10, 5.9373; -2
0, 5.9373; -4
0.63487, 2.74659; 0
9.36513, 2.74659; 0
0.366427, 5.93273; 0
9.63357, 5.93273; 0
5.36582, 4.06758; 0
4.6339, 4.06759; 0
4.36508, 7.23993; 0
5.63492, 7.23993; 0
9.63494, 5.29931; 0
0.365062, 5.29931; 0
0.614215, 8.47398; 0
9.38603, 8.47375; 0
10, 6.56842; -2
0, 6.56842; -4
4.35264, 2.81754; 0
5.64737, 2.81754; 0
0.647317, 7.18045; 0
9.35268, 7.18045; 0
4.9999, 3.43432; 0
5.36199, 4.70023; 0
4.63788, 4.70022; 0
4.99993, 4.70545; 0
0.359468, 6.56406; 0
9.64053, 6.56406; 0
5.35914, 3.43788; 0
4.64072, 3.43788; 0
0, 5.30604; -4
10, 5.30604; -2
4.36508, 6.50216; 0
5.63492, 6.50216; 0
0.63487, 3.4799; 0
9.36513, 3.4799; 0
0.627119, 7.78398; 0
9.37288, 7.78399; 0
3.08944, 6.85677; 0
6.91056, 6.85677; 0
1.9105, 3.14421; 0
8.0895, 3.14421; 0
6.88893, 2.48939; 0
3.11104, 2.48943; 0
1.88903, 7.51054; 0
8.11098, 7.51055; 0
6.30993, 4.06558; 0
3.68995, 4.06558; 0
1.31025, 5.93423; 0
8.68975, 5.93423; 0
6.32116, 4.68979; 0
3.67873, 4.68979; 0
1.32163, 5.30995; 0
8.67837, 5.30995; 0
2.49972, 0; -1
5, 0; -1
7.50028, 0; -1
0, 2.23921; -4
2.33873, 2.48963; 0
5.00007, 2.43578; 0
7.66127, 2.48965; 0
10, 2.26522; -2
0, 4.92935; -4
2.50001, 4.99999; 0
5.00001, 5.1022; 0
7.50002, 5.00001; 0
10, 4.92935; -2
0, 7.46939; -4
2.66102, 7.51065; 0
5, 7.7288; 0
7.33897, 7.51064; 0
10, 7.46939; -2
2.50028, 10; -3
5, 10; -3
7.49972, 10; -3
3.86979, 6.10646; 0
1.11278, 3.89742; 0
3.56528, 3.76998; 0
1.43361, 6.23026; 0
10, 6.24719; -2
0, 6.24719; -4
4.99992, 3.70453; 0
6.13021, 6.10646; 0
8.88722, 3.89742; 0
6.43462, 3.76999; 0
8.56639, 6.23026; 0
2.52537, 3.75514; 0
2.47462, 6.24485; 0
7.52538, 6.24485; 0
7.47461, 3.75513; 0
1.33588, 8.88004; 0
3.76527, 1.21366; 0
3.7233, 8.74039; 0
1.27895, 1.25718; 0
10, 3.83621; -2
5, 6.00096; 0
0, 3.81428; -4
6.23426, 1.21413; 0
8.66445, 8.87999; 0
8.72105, 1.25718; 0
6.2767, 8.74039; 0
8.52388, 4.91151; 0
3.52327, 5.08901; 0
6.4767, 5.08901; 0
1.47612, 4.91152; 0
0, 8.88637; -4
5.0002, 1.21989; 0
10, 8.88637; -2
2.47384, 8.80705; 0
7.52614, 8.80707; 0
2.5238, 1.19503; 0
7.47626, 1.19503; 0
8.59678, 2.35008; 0
3.86329, 2.52419; 0
3.6008, 7.6519; 0
8.74306, 7.39352; 0
1.25692, 7.39347; 0
6.13684, 2.52437; 0
1.40323, 2.35008; 0
6.39919, 7.65189; 0
0, 1.22331; -4
10, 1.23033; -2
5, 8.76472; 0
8.75018, 10; -3
6.24989, 10; -3
3.75011, 10; -3
1.24989, 0; -1
6.24982, 0; -1
8.75011, 0; -1
1.24982, 10; -3
3.75018, 0; -1
6.47317, 4.43434; 0
1.4729, 5.56571; 0
8.52709, 5.56571; 0
3.52664, 4.43439; 0
8.64397, 4.39608; 0
1.35603, 4.39608; 0
6.35662, 5.60296; 0
3.64337, 5.60296; 0
8.58016, 6.80514; 0
1.41984, 6.80512; 0
3.58273, 3.17882; 0
6.41727, 3.17886; 0
4.99992, 4.31038; 0
10, 5.63007; -2
0, 5.63007; -4
5.76726, 4.38907; 0
0.756938, 5.61923; 0
9.24306, 5.61923; 0
4.23254, 4.38908; 0
7.52095, 5.6317; 0
2.47905, 5.6317; 0
2.52096, 4.36829; 0
7.47904, 4.3683; 0
0, 6.93822; -4
10, 6.93822; -2
5.00002, 2.97589; 0
4.2185, 3.19323; 0
9.21145, 6.81881; 0
0.788543, 6.81882; 0
5.78149, 3.19323; 0
0.66847, 4.46669; 0
9.33153, 4.46669; 0
4.4668, 5.53778; 0
5.52312, 5.53665; 0
4.37438, 1.87329; 0
2.06299, 5.5656; 0
7.93701, 5.56561; 0
2.93699, 4.43434; 0
7.06294, 4.43433; 0
8.02307, 4.37334; 0
1.97693, 4.37334; 0
6.97844, 5.62731; 0
3.02156, 5.62731; 0
7.9195, 4.9341; 0
2.08051, 4.93409; 0
2.91967, 5.06585; 0
7.0803, 5.06583; 0
7.45887, 3.16441; 0
7.54091, 6.83548; 0
2.45909, 6.83548; 0
2.54111, 3.16442; 0
8.09967, 6.86615; 0
6.86762, 3.10177; 0
3.13239, 3.10176; 0
1.90034, 6.86614; 0
5.62431, 1.87414; 0
3.14799, 0.613364; 0
1.89571, 9.4295; 0
6.85177, 0.613626; 0
8.10442, 9.42935; 0
0, 8.09378; -4
10, 8.09378; -2
8.08413, 6.25126; 0
1.91588, 6.25126; 0
3.08935, 3.74274; 0
6.91061, 3.74275; 0
6.96714, 1.81342; 0
7.92275, 8.19511; 0
2.07737, 8.19511; 0
3.033, 1.81345; 0
9.30558, 1.82507; 0
0.699416, 1.82277; 0
4.30912, 8.1687; 0
5.69088, 8.1687; 0
7.98619, 1.79522; 0
2.01383, 1.79519; 0
6.99136, 8.20416; 0
3.00867, 8.20416; 0
4.39135, 0.610769; 0
0.637297, 9.39388; 0
9.36277, 9.39388; 0
5.60874, 0.610684; 0
9.36228, 0.630532; 0
0.639414, 0.629299; 0
4.36344, 9.36857; 0
5.63656, 9.36857; 0
6.87471, 9.37778; 0
3.12528, 9.37777; 0
1.87569, 0.620995; 0
8.12433, 0.620977; 0
1.30608, 8.06464; 0
8.69392, 8.06464; 0
8.11569, 3.78707; 0
3.10887, 6.21405; 0
6.89113, 6.21405; 0
1.8843, 3.78707; 0
3.70166, 6.83908; 0
6.29834, 6.83908; 0
1.29921, 3.16178; 0
8.70079, 3.16178; 0
5.76524, 3.77791; 0
0.752584, 6.23045; 0
9.24742, 6.23045; 0
4.23458, 3.77791; 0
10, 3.11557; -2
5.85123, 5.13961; 0
4.14851, 5.13959; 0
0.851912, 4.86856; 0
9.14809, 4.86856; 0
5, 6.79782; 0
0, 4.42708; -4
10, 4.43526; -2
9.22057, 5.94869; 0
0.779427, 5.94869; 0
5.75842, 4.0459; 0
4.24138, 4.04591; 0
9.20802, 5.30143; 0
0.791985, 5.30143; 0
5.77016, 4.69283; 0
4.22973, 4.6928; 0
0, 3.0848; -4
0.761353, 6.56543; 0
9.23865, 6.56543; 0
5.73976, 3.42896; 0
4.26017, 3.42896; 0
4.99986, 4.01715; 0
10, 5.93974; -2
0, 5.93974; -4
0.694216, 2.69517; 0
9.30731, 2.69955; 0
0.378637, 5.94445; 0
9.62136, 5.94445; 0
5.35906, 4.06695; 0
4.64064, 4.06695; 0
4.33247, 7.28419; 0
5.66752, 7.28419; 0
9.58981, 5.2885; 0
0.410188, 5.2885; 0
0.653618, 8.5007; 0
9.34649, 8.50063; 0
10, 6.57537; -2
0, 6.57537; -4
4.33903, 2.7649; 0
5.66098, 2.76493; 0
0.657034, 7.23179; 0
9.34295, 7.2318; 0
4.99991, 3.37928; 0
5.38203, 4.69317; 0
4.61783, 4.69317; 0
4.99992, 4.72162; 0
0.354229, 6.58152; 0
9.64577, 6.58152; 0
5.33165, 3.42895; 0
4.66821, 3.42896; 0
0, 5.30056; -4
10, 5.30056; -2
4.38227, 6.43531; 0
5.61773, 6.4353; 0
0.646726, 3.51785; 0
9.35198, 3.52321; 0
0.642166, 7.79542; 0
9.35785, 7.7954; 0
3.10393, 6.82271; 0
6.89606, 6.8227; 0
1.89596, 3.17761; 0
8.10405, 3.17762; 0
6.85688, 2.50596; 0
3.14315, 2.50597; 0
1.92791, 7.46541; 0
8.07207, 7.46539; 0
6.43911, 4.08519; 0
3.56076, 4.0852; 0
1.4373, 5.91805; 0
8.5627, 5.91805; 0
6.43569, 4.7157; 0
3.5642, 4.71571; 0
1.43395, 5.28788; 0
8.56605, 5.28788; 0
10, 4.38278; -2
10, 5.93863; -2
9.62153, 5.93321; 0
5.23453, 4.91639; 0
5.70865, 3.07737; 0
2.78928, 6.53378; 0
7.21072, 6.53378; 0
6.28179, 7.05345; 0
3.7182, 7.05345; 0
8.70568, 2.93858; 0
3.2022, 2.8443; 0
6.79786, 2.84439; 0
0.770563, 6.52463; 0
9.22943, 6.52463; 0
7.49787, 6.84443; 0
2.50214, 6.84443; 0
1.92016, 3.1631; 0
2.4996, 0; -1
5, 0; -1
7.5004, 0; -1
0, 2.19889; -4
2.32198, 2.50447; 0
4.99992, 2.3724; 0
7.68425, 2.50875; 0
10, 2.2235; -2
0, 4.90882; -4
2.50005, 4.99998; 0
4.90784, 5.14609; 0
7.49997, 5; 0
10, 4.89789; -2
0, 7.4602; -4
2.72723, 7.4899; 0
5, 7.74138; 0
7.27277, 7.48992; 0
10, 7.4602; -2
2.5004, 10; -3
5, 10; -3
7.4996, 10; -3
3.86645, 6.09546; 0
1.10418, 3.92501; 0
3.59897, 3.75243; 0
1.51184, 6.20321; 0
10, 6.25015; -2
0, 6.25063; -4
5.01935, 3.71435; 0
6.1323, 6.09425; 0
8.89392, 3.90361; 0
6.50181, 3.79445; 0
8.48815, 6.20321; 0
2.54448, 3.73036; 0
2.4477, 6.2252; 0
7.55231, 6.2252; 0
7.45547, 3.73034; 0
1.40297, 8.8664; 0
3.77798, 1.24255; 0
3.69924, 8.74939; 0
1.31125, 1.25063; 0
10, 3.82665; -2
4.9989, 5.95106; 0
0, 3.83212; -4
6.22144, 1.24313; 0
8.5972, 8.86639; 0
8.6903, 1.25228; 0
6.30078, 8.74938; 0
8.43284, 4.87539; 0
3.51494, 5.09531; 0
6.55367, 5.13191; 0
1.56716, 4.87539; 0
0, 8.91344; -4
5.00021, 1.24343; 0
10, 8.91344; -2
2.47868, 8.88207; 0
7.52133, 8.88205; 0
2.53885, 1.14236; 0
7.46123, 1.14234; 0
8.52919, 2.22667; 0
3.98104, 2.46695; 0
3.55842, 7.76304; 0
8.71159, 7.3783; 0
1.2884, 7.37828; 0
6.01913, 2.46716; 0
1.45461, 2.32586; 0
6.44159, 7.76304; 0
0, 1.19353; -4
10, 1.20625; -2
5, 8.7558; 0
8.75028, 10; -3
6.24985, 10; -3
3.75015, 10; -3
1.24985, 0; -1
6.24972, 0; -1
8.75015, 0; -1
1.24972, 10; -3
3.75028, 0; -1
6.50581, 4.43323; 0
1.58134, 5.52804; 0
8.41865, 5.52804; 0
3.42604, 4.46951; 0
8.56447, 4.35704; 0
1.43758, 4.36105; 0
6.38511, 5.62717; 0
3.61279, 5.62706; 0
8.55051, 6.78057; 0
1.44949, 6.78056; 0
3.49497, 3.1829; 0
6.50931, 3.20948; 0
4.97836, 4.3284; 0
10, 5.62923; -2
0, 5.62972; -4
5.78365, 4.35822; 0
0.748957, 5.66976; 0
9.20217, 5.62931; 0
4.23584, 4.37619; 0
7.52978, 5.6437; 0
2.47481, 5.6413; 0
2.53238, 4.35465; 0
7.46704, 4.35399; 0
0, 6.96698; -4
10, 6.96698; -2
4.95815, 2.97513; 0
4.1179, 3.24545; 0
9.17443, 6.80236; 0
0.825562, 6.80236; 0
0.695644, 4.4947; 0
9.30892, 4.49186; 0
4.46, 5.55303; 0
5.51123, 5.52805; 0
4.38819, 1.85127; 0
2.14472, 5.5214; 0
7.85565, 5.52117; 0
2.85783, 4.47893; 0
7.13821, 4.48063; 0
7.97048, 4.34232; 0
2.0322, 4.34196; 0
7.0321, 5.66067; 0
2.97922, 5.64612; 0
7.87503, 4.90803; 0
2.12381, 4.90895; 0
2.88729, 5.09088; 0
7.11467, 5.08802; 0
7.47221, 3.20808; 0
2.53392, 3.20959; 0
8.066, 6.84407; 0
1.93401, 6.84407; 0
5.60949, 1.85122; 0
3.17992, 0.611437; 0
1.88725, 9.46926; 0
6.81978, 0.611792; 0
8.1128, 9.46917; 0
0, 8.09644; -4
10, 8.09644; -2
8.0517, 6.23247; 0
1.94836, 6.23198; 0
3.0642, 3.7586; 0
6.97813, 3.77368; 0
6.9734, 1.82361; 0
7.90234, 8.17068; 0
2.09769, 8.17064; 0
3.02835, 1.82221; 0
9.29952, 1.79459; 0
0.720827, 1.79553; 0
4.30728, 8.19351; 0
5.69272, 8.19351; 0
7.90722, 1.75263; 0
2.06222, 1.76657; 0
7.04415, 8.25506; 0
2.95587, 8.25506; 0
4.3923, 0.623268; 0
0.669171, 9.38851; 0
9.33088, 9.38852; 0
5.60784, 0.623168; 0
9.34864, 0.634112; 0
0.654771, 0.631874; 0
4.36008, 9.36146; 0
5.63993, 9.36145; 0
6.85935, 9.3991; 0
3.14065, 9.3991; 0
1.87173, 0.605349; 0
8.12895, 0.606053; 0
1.33697, 8.04297; 0
8.66305, 8.04296; 0
8.11865, 3.79828; 0
3.18267, 6.10446; 0
6.81702, 6.10444; 0
1.88183, 3.79537; 0
1.32384, 3.14943; 0
5.74855, 3.77517; 0
0.731075, 6.26935; 0
9.26904, 6.26939; 0
4.24916, 3.73278; 0
10, 3.0928; -2
5.91745, 5.15222; 0
4.13072, 5.12393; 0
0.867985, 4.90693; 0
9.13223, 4.90461; 0
4.99998, 6.80188; 0
0, 4.43321; -4
9.11049, 5.95572; 0
0.785085, 5.96105; 0
4.30457, 4.04745; 0
9.22828, 5.30753; 0
0.772932, 5.32018; 0
5.70891, 4.69154; 0
0, 3.07956; -4
5.67363, 3.41257; 0
0, 5.94137; -4
0.708634, 2.69256; 0
9.33662, 2.67063; 0
5.3117, 4.01358; 0
4.36775, 7.29105; 0
5.63224, 7.29105; 0
0.676806, 8.51029; 0
9.32325, 8.51026; 0
10, 6.58855; -2
0, 6.58876; -4
4.32362, 2.78795; 0
5.65814, 2.73756; 0
0.694874, 7.22577; 0
9.30512, 7.22577; 0
4.58164, 4.68834; 0
4.74881, 3.37851; 0
0, 5.2917; -4
10, 5.28744; -2
4.34697, 6.43995; 0
5.65279, 6.43961; 0
0.65809, 3.52489; 0
9.29177, 3.49513; 0
0.652918, 7.79261; 0
9.34709, 7.79259; 0
3.24121, 6.77112; 0
6.75867, 6.77102; 0
8.15025, 3.24881; 0
6.85926, 2.42691; 0
3.14269, 2.42663; 0
1.96646, 7.45128; 0
8.03353, 7.4513; 0
6.44097, 4.08607; 0
3.5588, 4.09142; 0
1.46355, 5.91494; 0
8.49733, 5.91221; 0
6.42925, 4.72214; 0
3.58289, 4.71524; 0
1.43247, 5.2934; 0
8.54306, 5.2785; 0
10, 4.41766; -2
10, 5.94082; -2
9.5903, 5.95046; 0
5.22881, 4.85538; 0
5.76514, 3.11209; 0
2.78398, 6.47408; 0
7.21607, 6.47407; 0
6.30274, 7.00023; 0
3.69714, 7.00024; 0
8.63091, 2.99191; 0
3.22923, 2.90205; 0
6.76526, 2.91036; 0
0.758437, 6.55357; 0
9.24156, 6.55359; 0
7.53001, 6.93177; 0
2.46994, 6.93176; 0
1.92165, 3.2156; 0
6.84231, 6.15973; 0
7.15549, 6.49811; 0
10, 5.93969; -2
8.74344, 2.95972; 0
2.60384, 7.1112; 0
3.87539, 4.73575; 0
3.80448, 7.03109; 0
6.19545, 7.03103; 0
1.92888, 3.17951; 0
6.29145, 1.83741; 0
2.49946, 0; -1
5, 0; -1
7.50054, 0; -1
0, 2.1747; -4
2.31261, 2.52737; 0
4.97562, 2.3476; 0
7.71849, 2.55431; 0
10, 2.19242; -2
0, 4.90257; -4
2.50404, 5.00064; 0
4.93161, 5.14018; 0
7.4911, 4.99722; 0
10, 4.89325; -2
0, 7.4639; -4
2.81787, 7.57134; 0
5, 7.76567; 0
7.20888, 7.47783; 0
10, 7.4639; -2
2.50054, 10; -3
5, 10; -3
7.49946, 10; -3
3.80239, 6.07401; 0
1.09021, 3.93751; 0
3.56568, 3.75749; 0
1.47814, 6.21398; 0
10, 6.2564; -2
0, 6.25728; -4
4.97418, 3.68778; 0
6.09761, 6.04988; 0
8.91666, 3.94867; 0
6.48847, 3.78481; 0
8.52587, 6.22228; 0
2.56498, 3.71366; 0
2.47296, 6.21417; 0
7.53601, 6.23488; 0
7.44468, 3.71091; 0
1.44319, 8.84806; 0
3.78339, 1.26211; 0
3.67948, 8.76794; 0
1.34523, 1.24591; 0
10, 3.83334; -2
5.00448, 5.96888; 0
0, 3.83654; -4
6.20366, 1.15399; 0
8.55689, 8.84805; 0
8.63629, 1.23841; 0
6.32053, 8.76793; 0
8.39189, 4.86118; 0
3.41518, 5.18032; 0
6.58643, 5.13396; 0
1.60515, 4.86551; 0
0, 8.93358; -4
5.00001, 1.25542; 0
10, 8.93358; -2
2.46486, 8.92623; 0
7.53515, 8.92623; 0
2.55669, 1.10506; 0
7.43713, 1.09192; 0
8.53664, 2.20794; 0
3.97621, 2.44884; 0
3.61909, 7.78697; 0
8.6774, 7.36301; 0
1.32259, 7.36301; 0
6.03658, 2.43767; 0
1.46912, 2.30637; 0
6.4129, 7.78243; 0
0, 1.16456; -4
10, 1.17909; -2
5, 8.76745; 0
8.75039, 10; -3
6.24983, 10; -3
3.75017, 10; -3
1.24983, 0; -1
6.24961, 0; -1
8.75017, 0; -1
1.24961, 10; -3
3.75039, 0; -1
6.55187, 4.45521; 0
1.62715, 5.50751; 0
8.3986, 5.52462; 0
3.40027, 4.49334; 0
8.54257, 4.36475; 0
1.45909, 4.36363; 0
6.38636, 5.62205; 0
3.56802, 5.64217; 0
8.51973, 6.76323; 0
1.48075, 6.7625; 0
3.4791, 3.2082; 0
6.52361, 3.23333; 0
5.02719, 4.33267; 0
10, 5.62423; -2
0, 5.62676; -4
5.8048, 4.33542; 0
0.770497, 5.67746; 0
9.18885, 5.64895; 0
4.3063, 4.32008; 0
7.54366, 5.65442; 0
2.45426, 5.6563; 0
2.55252, 4.34047; 0
7.44953, 4.3445; 0
0, 6.98364; -4
10, 6.98355; -2
4.97574, 2.96887; 0
4.08589, 3.27761; 0
9.18503, 6.73529; 0
0.815841, 6.73443; 0
0.713727, 4.5236; 0
9.29151, 4.5256; 0
4.44981, 5.54946; 0
5.49608, 5.51454; 0
4.39366, 1.84197; 0
2.14331, 5.51779; 0
7.84617, 5.50764; 0
2.87223, 4.47961; 0
7.12481, 4.47891; 0
7.91877, 4.31266; 0
2.08009, 4.31485; 0
7.0357, 5.66676; 0
2.92096, 5.68664; 0
7.85732, 4.89908; 0
2.13408, 4.90273; 0
2.89462, 5.0959; 0
7.11476, 5.08875; 0
7.45046, 3.18158; 0
2.56369, 3.19279; 0
8.02546, 6.82094; 0
2.03949, 6.83667; 0
5.47338, 1.82599; 0
3.20684, 0.61006; 0
1.86919, 9.49843; 0
6.81289, 0.588139; 0
8.13084, 9.49838; 0
0, 8.10341; -4
10, 8.10341; -2
8.02154, 6.21096; 0
1.96603, 6.21586; 0
3.03858, 3.77396; 0
7.01939, 3.80264; 0
7.08045, 1.77359; 0
7.8839, 8.15758; 0
2.10274, 8.16839; 0
3.01751, 1.78619; 0
9.29156, 1.72691; 0
0.727069, 1.77826; 0
4.3206, 8.22649; 0
5.69034, 8.21906; 0
7.91225, 1.75685; 0
2.09257, 1.76179; 0
7.0497, 8.27458; 0
2.9617, 8.31236; 0
4.41852, 0.631634; 0
0.693123, 9.38247; 0
9.3069, 9.38248; 0
5.55025, 0.608361; 0
9.32953, 0.662281; 0
0.671205, 0.635769; 0
4.35634, 9.36002; 0
5.64366, 9.36001; 0
6.85582, 9.41629; 0
3.14418, 9.41629; 0
1.8718, 0.590683; 0
8.12577, 0.584469; 0
1.34861, 8.02648; 0
8.64784, 8.02789; 0
8.114, 3.8127; 0
1.88867, 3.79638; 0
1.33928, 3.13784; 0
5.73978, 3.76342; 0
0.737934, 6.3346; 0
9.24475, 6.28758; 0
4.21797, 3.7021; 0
10, 3.07983; -2
5.93085, 5.15501; 0
4.12664, 5.12415; 0
0.871344, 4.92108; 0
9.1286, 4.91612; 0
5.00011, 6.78275; 0
0, 4.43326; -4
0.798019, 5.9877; 0
4.32447, 4.01508; 0
9.2123, 5.31688; 0
0.781451, 5.32629; 0
5.76086, 4.67293; 0
0, 3.07175; -4
5.62349, 3.41155; 0
0, 5.94317; -4
0.712975, 2.684; 0
9.34161, 2.62331; 0
5.24805, 4.0005; 0
4.40845, 7.31159; 0
5.59885, 7.31489; 0
0.688805, 8.51203; 0
9.31083, 8.51146; 0
10, 6.59962; -2
0, 6.60008; -4
4.30138, 2.80027; 0
5.65742, 2.73054; 0
0.728574, 7.19365; 0
9.2718, 7.19404; 0
4.57441, 4.67286; 0
4.81892, 3.34462; 0
0, 5.28667; -4
10, 5.28136; -2
4.29696, 6.4202; 0
5.69269, 6.43937; 0
0.665315, 3.51876; 0
9.25892, 3.4895; 0
0.664459, 7.77794; 0
9.33405, 7.77838; 0
3.31732, 6.69461; 0
6.67526, 6.72066; 0
8.22241, 3.30854; 0
6.89979, 2.44938; 0
3.16499, 2.42005; 0
1.95498, 7.48007; 0
8.03145, 7.47632; 0
6.42955, 4.08075; 0
3.56914, 4.08995; 0
1.46348, 5.91726; 0
8.53274, 5.91217; 0
6.43985, 4.71641; 0
3.52378, 4.70355; 0
1.44023, 5.2945; 0
8.53263, 5.27801; 0
10, 4.42511; -2
9.42775, 5.98384; 0
5.23597, 4.80522; 0
5.8159, 3.14549; 0
2.86822, 6.40392; 0
3.25598, 2.92689; 0
6.7324, 2.93975; 0
7.52576, 6.97411; 0
6.79376, 6.07618; 0
7.20074, 6.48398; 0
10, 5.9415; -2
8.64908, 2.95937; 0
2.59753, 7.01377; 0
3.91502, 4.73479; 0
3.73355, 7.02989; 0
6.25829, 7.03462; 0
1.92522, 3.24019; 0
6.28003, 1.88243; 0
6.65324, 6.76385; 0
6.81169, 6.51199; 0
9.2168, 5.96826; 0
9.59443, 5.95268; 0
5.89996, 4.22786; 0
8.82168, 5.9061; 0
3.86289, 7.0031; 0
1.95149, 3.16531; 0
7.40961, 6.44856; 0
3.70559, 1.81408; 0
2.49929, 0; -1
5, 0; -1
7.50071, 0; -1
0, 2.15496; -4
2.33024, 2.51648; 0
4.95832, 2.35422; 0
7.74599, 2.57324; 0
10, 2.16865; -2
0, 4.89924; -4
2.51303, 4.99909; 0
4.95274, 5.11748; 0
7.48437, 4.99234; 0
10, 4.89237; -2
0, 7.47285; -4
2.84322, 7.51187; 0
5.00182, 7.79203; 0
7.17508, 7.47795; 0
10, 7.47282; -2
2.50071, 10; -3
5, 10; -3
7.49929, 10; -3
3.79124, 6.03488; 0
1.07761, 3.95297; 0
3.50835, 3.7833; 0
1.49875, 6.21398; 0
10, 6.26253; -2
0, 6.26356; -4
4.96865, 3.6664; 0
6.02949, 5.99314; 0
8.95352, 3.9928; 0
6.46648, 3.77304; 0
8.51817, 6.22324; 0
2.58013, 3.69451; 0
2.4696, 6.22506; 0
7.574, 6.1854; 0
7.42205, 3.68401; 0
1.46128, 8.83538; 0
3.81407, 1.15997; 0
3.66148, 8.79011; 0
1.39183, 1.24777; 0
10, 3.83327; -2
5.00197, 5.96996; 0
0, 3.8348; -4
6.20284, 1.16606; 0
8.53468, 8.83208; 0
8.59363, 1.2247; 0
6.35125, 8.78308; 0
8.37324, 4.83914; 0
3.41311, 5.15475; 0
6.60403, 5.13941; 0
1.6229, 4.84459; 0
0, 8.94968; -4
4.98277, 1.23783; 0
10, 8.94968; -2
2.44896, 8.95119; 0
7.54237, 8.94342; 0
2.55736, 1.06918; 0
7.44935, 1.04359; 0
8.55708, 2.19283; 0
3.99295, 2.42184; 0
3.61868, 7.79477; 0
8.65476, 7.34243; 0
1.34575, 7.33458; 0
6.01667, 2.40967; 0
1.47846, 2.29227; 0
6.39204, 7.80328; 0
0, 1.1385; -4
10, 1.15259; -2
5.00432, 8.78975; 0
8.75052, 10; -3
6.2498, 10; -3
3.7502, 10; -3
1.2498, 0; -1
6.24948, 0; -1
8.7502, 0; -1
1.24948, 10; -3
3.75052, 0; -1
6.68635, 4.51558; 0
1.63881, 5.50227; 0
8.29707, 5.44499; 0
3.40144, 4.48042; 0
8.52312, 4.38679; 0
1.48063, 4.37711; 0
6.33987, 5.57694; 0
3.52909, 5.64713; 0
8.52608, 6.74603; 0
1.50482, 6.74832; 0
3.46635, 3.24742; 0
6.53991, 3.26602; 0
5.06947, 4.34061; 0
10, 5.62187; -2
0, 5.6251; -4
5.79371, 4.36518; 0
0.773731, 5.69216; 0
9.1532, 5.62839; 0
4.28677, 4.3371; 0
7.54883, 5.6523; 0
2.44465, 5.6546; 0
2.56938, 4.34092; 0
7.43513, 4.34842; 0
0, 6.99578; -4
10, 6.99555; -2
4.98494, 2.95756; 0
4.08741, 3.29723; 0
9.19274, 6.70061; 0
0.827101, 6.70418; 0
0.725825, 4.54055; 0
9.28428, 4.5526; 0
4.45617, 5.53223; 0
5.45503, 5.48774; 0
4.52187, 1.81588; 0
2.14445, 5.51373; 0
7.85772, 5.51112; 0
2.87622, 4.47943; 0
7.12767, 4.4723; 0
7.85539, 4.27634; 0
2.1451, 4.27861; 0
7.00926, 5.65755; 0
2.89671, 5.68903; 0
7.84994, 4.88744; 0
2.1346, 4.9021; 0
2.88019, 5.10749; 0
7.12962, 5.09803; 0
7.47181, 3.17163; 0
2.57877, 3.17686; 0
8.07742, 6.8476; 0
2.05982, 6.82198; 0
5.4532, 1.81903; 0
3.22888, 0.594663; 0
1.85266, 9.51622; 0
6.79988, 0.58076; 0
8.14429, 9.51264; 0
0, 8.11304; -4
10, 8.11303; -2
8.02948, 6.19797; 0
1.98819, 6.20241; 0
3.01484, 3.79057; 0
7.02561, 3.81758; 0
7.05963, 1.77538; 0
7.86611, 8.15915; 0
2.13743, 8.1648; 0
2.92921, 1.75248; 0
9.29071, 1.68143; 0
0.73339, 1.73057; 0
4.31459, 8.28036; 0
5.69077, 8.27913; 0
7.88433, 1.76147; 0
2.08329, 1.76027; 0
7.05028, 8.2818; 0
2.96439, 8.31113; 0
4.42431, 0.60016; 0
0.708273, 9.37742; 0
9.2902, 9.37613; 0
5.54148, 0.609931; 0
9.31123, 0.662943; 0
0.692304, 0.66651; 0
4.3512, 9.34187; 0
5.65514, 9.34003; 0
6.86034, 9.43328; 0
3.13884, 9.43035; 0
1.86761, 0.571284; 0
8.13291, 0.555839; 0
1.34927, 8.02613; 0
8.64931, 8.0246; 0
8.12278, 3.83606; 0
1.88622, 3.7966; 0
1.35007, 3.13168; 0
5.72204, 3.76471; 0
0.746585, 6.36022; 0
9.30263, 6.38001; 0
4.21471, 3.66385; 0
10, 3.06838; -2
5.90344, 5.12065; 0
4.11885, 5.12191; 0
0.85553, 4.93841; 0
9.14489, 4.94064; 0
4.99304, 6.7541; 0
0, 4.43119; -4
0.789714, 6.00509; 0
4.32907, 4.00115; 0
9.20833, 5.31629; 0
0.788772, 5.3334; 0
5.80669, 4.68758; 0
0, 3.06225; -4
5.61694, 3.41317; 0
0, 5.94536; -4
0.718007, 2.6622; 0
9.31379, 2.62321; 0
5.12464, 3.97436; 0
4.42744, 7.33528; 0
5.60002, 7.31311; 0
0.690257, 8.51107; 0
9.30841, 8.51092; 0
10, 6.60865; -2
0, 6.60926; -4
4.2416, 2.81805; 0
5.69889, 2.74537; 0
0.738625, 7.17703; 0
9.26346, 7.17855; 0
4.46768, 4.6749; 0
4.85368, 3.3206; 0
0, 5.28391; -4
10, 5.27906; -2
4.28929, 6.38923; 0
5.71036, 6.44851; 0
0.672848, 3.50829; 0
9.23727, 3.47761; 0
0.679746, 7.76664; 0
9.32318, 7.76847; 0
3.35271, 6.66581; 0
8.24894, 3.37589; 0
6.91809, 2.48109; 0
3.13457, 2.44714; 0
1.97846, 7.48051; 0
8.03105, 7.49112; 0
6.41174, 4.0836; 0
3.59539, 4.07252; 0
1.45998, 5.92349; 0
8.48645, 5.92916; 0
6.47258, 4.71762; 0
3.60038, 4.7051; 0
1.4423, 5.29195; 0
8.52243, 5.26046; 0
10, 4.42604; -2
5.18419, 4.75238; 0
5.84606, 3.17062; 0
2.93222, 6.32801; 0
3.31735, 2.93581; 0
6.68698, 2.94983; 0
7.50788, 6.97669; 0
6.78346, 5.99247; 0
10, 5.94335; -2
8.59083, 2.95092; 0
2.60853, 6.94624; 0
6.26807, 7.05898; 0
6.28031, 1.8973; 0
6.63754, 6.75339; 0
6.79315, 6.4253; 0
9.20425, 6.00848; 0
9.56446, 5.95739; 0
5.92913, 4.15418; 0
8.77558, 5.87898; 0
3.78564, 7.01547; 0
1.94208, 3.2275; 0
7.43424, 6.45355; 0
3.71881, 1.87561; 0
6.60912, 6.7126; 0
6.76868, 6.48492; 0
9.5766, 5.94546; 0
7.40647, 6.09522; 0
5.75787, 4.06495; 0
6.34345, 5.55656; 0
3.89008, 7.00054; 0
6.11925, 5.74011; 0
9.38779, 6.07075; 0
6.10272, 4.22439; 0
1.96442, 3.15427; 0
7.14567, 6.48458; 0
3.4857, 7.23029; 0
6.88797, 7.01783; 0
2.4991, 0; -1
5, 0; -1
7.5009, 0; -1
0, 2.1369; -4
2.32084, 2.51204; 0
4.96756, 2.37865; 0
7.7507, 2.57693; 0
10, 2.14825; -2
0, 4.8967; -4
2.52136, 4.99292; 0
4.95521, 5.08563; 0
7.48543, 4.98937; 0
10, 4.89153; -2
0, 7.48318; -4
2.73851, 7.53254; 0
5.01317, 7.81788; 0
7.2353, 7.59581; 0
10, 7.48308; -2
2.5009, 10; -3
5, 10; -3
7.4991, 10; -3
3.80842, 6.0021; 0
1.06181, 3.96811; 0
3.45694, 3.8116; 0
1.52482, 6.21641; 0
10, 6.26784; -2
0, 6.2691; -4
4.97389, 3.65081; 0
5.98634, 6.05151; 0
8.99291, 4.02808; 0
6.44821, 3.76779; 0
8.51619, 6.18815; 0
2.59247, 3.67452; 0
2.46417, 6.22649; 0
7.38047, 3.64646; 0
1.47792, 8.79838; 0
3.8193, 1.20166; 0
3.63636, 8.80525; 0
1.42645, 1.24481; 0
10, 3.82965; -2
4.99951, 5.95914; 0
0, 3.83024; -4
6.19569, 1.17168; 0
8.51894, 8.79651; 0
8.5586, 1.21925; 0
6.38058, 8.79908; 0
8.35904, 4.81783; 0
3.41743, 5.15341; 0
6.61636, 5.15133; 0
1.63472, 4.82918; 0
0, 8.96321; -4
4.98183, 1.20266; 0
10, 8.96321; -2
2.44744, 8.96136; 0
7.54406, 8.95491; 0
2.54401, 1.02781; 0
7.45677, 1.03503; 0
8.55829, 2.17022; 0
4.02332, 2.40697; 0
3.63001, 7.90877; 0
8.66342, 7.34656; 0
1.36554, 7.32286; 0
6.00054, 2.40297; 0
1.46913, 2.28408; 0
6.379, 7.82311; 0
0, 1.11586; -4
10, 1.12845; -2
5.00269, 8.81271; 0
8.75069, 10; -3
6.24979, 10; -3
3.75021, 10; -3
1.24979, 0; -1
6.24931, 0; -1
8.75021, 0; -1
1.24931, 10; -3
3.75069, 0; -1
6.79636, 4.58109; 0
1.63988, 5.50268; 0
8.2668, 5.42934; 0
3.41366, 4.49004; 0
8.5334, 4.41987; 0
1.49734, 4.38737; 0
3.51113, 5.64153; 0
8.55465, 6.72966; 0
1.5089, 6.72629; 0
3.45347, 3.28385; 0
6.54433, 3.2901; 0
5.04872, 4.33869; 0
10, 5.62141; -2
0, 5.6247; -4
5.74011, 4.36133; 0
0.779885, 5.69931; 0
9.14699, 5.65868; 0
4.28851, 4.31918; 0
7.54252, 5.64886; 0
2.43641, 5.6534; 0
2.56921, 4.35085; 0
7.42763, 4.34644; 0
0, 7.00599; -4
10, 7.00564; -2
4.98992, 2.94118; 0
4.08563, 3.30302; 0
9.20523, 6.71507; 0
0.807713, 6.71806; 0
0.734462, 4.55198; 0
9.28645, 4.57663; 0
4.46284, 5.50879; 0
5.3697, 5.44775; 0
4.54812, 1.81279; 0
2.13637, 5.51352; 0
7.94234, 5.56146; 0
2.90204, 4.47187; 0
7.11319, 4.45638; 0
7.83438, 4.23815; 0
2.17806, 4.2561; 0
7.01944, 5.61842; 0
2.88328, 5.6882; 0
7.84095, 4.87758; 0
2.14032, 4.89946; 0
2.89976, 5.09366; 0
7.18011, 5.13412; 0
7.47141, 3.16747; 0
2.60049, 3.16218; 0
8.08469, 6.83475; 0
2.0644, 6.80602; 0
5.44947, 1.81322; 0
3.2513, 0.600138; 0
1.81153, 9.5114; 0
6.7948, 0.582681; 0
8.18478, 9.50733; 0
0, 8.12395; -4
10, 8.12391; -2
7.99221, 6.20002; 0
2.03319, 6.17857; 0
2.99251, 3.80663; 0
7.02518, 3.82611; 0
7.04615, 1.77687; 0
7.89395, 8.1901; 0
2.12463, 8.18179; 0
2.95286, 1.75232; 0
9.28783, 1.66482; 0
0.735024, 1.70546; 0
4.34017, 8.31251; 0
5.69421, 8.30606; 0
7.86382, 1.77189; 0
2.10838, 1.75503; 0
7.05075, 8.32027; 0
2.93277, 8.30778; 0
4.40313, 0.592286; 0
0.748588, 9.37151; 0
9.24981, 9.37039; 0
5.54697, 0.601843; 0
9.29518, 0.663984; 0
0.710769, 0.674836; 0
4.34142, 9.34572; 0
5.66691, 9.34036; 0
6.86594, 9.45105; 0
3.13318, 9.44574; 0
1.85598, 0.548879; 0
8.13543, 0.533719; 0
1.34971, 8.00787; 0
8.66081, 8.01431; 0
8.12005, 3.87849; 0
1.8824, 3.79513; 0
1.35429, 3.12633; 0
5.70615, 3.72651; 0
0.756577, 6.36976; 0
9.24048, 6.37219; 0
4.21461, 3.64183; 0
10, 3.05688; -2
5.84325, 5.08727; 0
4.11224, 5.12099; 0
0.848472, 4.94994; 0
9.15865, 4.95742; 0
4.95608, 6.74738; 0
0, 4.42808; -4
0.783954, 6.01572; 0
4.29003, 3.98457; 0
9.20494, 5.33196; 0
0.78846, 5.33841; 0
5.85361, 4.69693; 0
0, 3.05168; -4
5.60968, 3.3986; 0
0, 5.94783; -4
0.714927, 2.64929; 0
9.29753, 2.62092; 0
5.02085, 3.98169; 0
4.42374, 7.39096; 0
5.58392, 7.30991; 0
0.69326, 8.50851; 0
9.3102, 8.5123; 0
10, 6.61625; -2
0, 6.61704; -4
4.21859, 2.83203; 0
5.73469, 2.76624; 0
0.748951, 7.17658; 0
9.26326, 7.18112; 0
4.36597, 4.68177; 0
4.8633, 3.30295; 0
0, 5.28235; -4
10, 5.27819; -2
4.28036, 6.34342; 0
5.66766, 6.48226; 0
0.678129, 3.50079; 0
9.22313, 3.47067; 0
0.682812, 7.76268; 0
9.33269, 7.77179; 0
3.34059, 6.57744; 0
8.26852, 3.4295; 0
6.91345, 2.49505; 0
3.12425, 2.4754; 0
1.9743, 7.46378; 0
8.03464, 7.4875; 0
6.42577, 4.07166; 0
3.59201, 4.07128; 0
1.45843, 5.93174; 0
6.48212, 4.71008; 0
3.64089, 4.7049; 0
1.44615, 5.28697; 0
8.52453, 5.25556; 0
10, 4.42456; -2
5.13221, 4.70517; 0
5.86353, 3.1835; 0
2.94641, 6.26384; 0
3.35444, 2.93893; 0
6.66967, 2.95163; 0
7.60945, 7.05843; 0
6.77315, 5.93365; 0
10, 5.94563; -2
8.55524, 2.94504; 0
2.63018, 6.90396; 0
6.1901, 7.10533; 0
6.27936, 1.90538; 0
8.70183, 5.8899; 0
7.5181, 6.46421; 0
3.72583, 1.91127; 0
6.48977, 6.62254; 0
6.75831, 6.36682; 0
9.52986, 5.93315; 0
7.45653, 6.09392; 0
5.65722, 3.97878; 0
6.30692, 5.42818; 0
3.98434, 6.9064; 0
6.08477, 5.69029; 0
9.3417, 6.10933; 0
6.16789, 4.24205; 0
1.95665, 3.22041; 0
7.17918, 6.53671; 0
3.41591, 7.23569; 0
6.96859, 7.05437; 0
7.11237, 7.29641; 0
7.20682, 7.6553; 0
8.75364, 5.90076; 0
7.26221, 7.05502; 0
5.76713, 3.11564; 0
5.71956, 5.06667; 0
8.39149, 5.80875; 0
6.75222, 6.25786; 0
5.57089, 3.94643; 0
1.33579, 2.93485; 0
7.54269, 7.90388; 0
6.07142, 5.6907; 0
5.63107, 5.2569; 0
7.38268, 6.06683; 0
8.09076, 6.90538; 0
8.80425, 5.76933; 0
5.60163, 7.4616; 0
6.08027, 5.06255; 0
7.77637, 6.97585; 0
2.49888, 0; -1
5, 0; -1
7.50112, 0; -1
0, 2.11994; -4
2.3065, 2.52974; 0
4.98125, 2.38905; 0
7.74284, 2.58195; 0
10, 2.12967; -2
0, 4.89446; -4
2.52585, 4.99106; 0
4.78424, 5.02115; 0
7.52488, 5.01499; 0
10, 4.89047; -2
0, 7.49362; -4
2.83598, 7.49591; 0
4.99278, 7.84463; 0
10, 7.49344; -2
2.50112, 10; -3
5, 10; -3
7.49888, 10; -3
3.83172, 5.95374; 0
1.04249, 3.99707; 0
3.43323, 3.82981; 0
1.52817, 6.22759; 0
10, 6.27264; -2
0, 6.27409; -4
4.92359, 3.6233; 0
5.89784, 6.00425; 0
9.01755, 4.05174; 0
6.46242, 3.7564; 0
8.46655, 6.18645; 0
2.60014, 3.66069; 0
2.45239, 6.2277; 0
7.34914, 3.61718; 0
1.48339, 8.77773; 0
3.85423, 1.22917; 0
3.61746, 8.83893; 0
1.45533, 1.27106; 0
10, 3.82423; -2
4.97743, 5.94541; 0
0, 3.82421; -4
6.16481, 1.17838; 0
8.52001, 8.7834; 0
8.53092, 1.24035; 0
6.38934, 8.81794; 0
8.34766, 4.80497; 0
3.41177, 5.15832; 0
6.71311, 5.14184; 0
1.64296, 4.82049; 0
0, 8.97495; -4
4.98146, 1.18956; 0
10, 8.97494; -2
2.44286, 8.98193; 0
7.5551, 8.98001; 0
2.52136, 1.01402; 0
7.48374, 1.03116; 0
8.55487, 2.16984; 0
4.04647, 2.41193; 0
3.64137, 7.8121; 0
8.69941, 7.35776; 0
1.37071, 7.30719; 0
5.98478, 2.40149; 0
1.4902, 2.18799; 0
6.4072, 7.86295; 0
0, 1.09662; -4
10, 1.10731; -2
5.011, 8.84389; 0
8.75088, 10; -3
6.24979, 10; -3
3.75021, 10; -3
1.24979, 0; -1
6.24912, 0; -1
8.75021, 0; -1
1.24912, 10; -3
3.75088, 0; -1
6.85281, 4.60702; 0
1.63625, 5.50494; 0
8.17348, 5.34873; 0
3.41886, 4.49293; 0
8.5541, 4.45209; 0
1.5063, 4.39507; 0
3.50538, 5.62033; 0
8.51355, 6.72088; 0
1.51331, 6.7125; 0
3.44395, 3.30639; 0
6.50319, 3.31607; 0
5.01635, 4.33783; 0
10, 5.62198; -2
0, 5.62508; -4
5.70573, 4.31182; 0
0.78356, 5.70284; 0
9.25959, 5.69489; 0
4.26883, 4.30155; 0
7.58884, 5.66752; 0
2.43306, 5.64383; 0
2.56291, 4.3626; 0
7.43721, 4.34414; 0
0, 7.0151; -4
10, 7.01462; -2
4.94737, 2.91837; 0
4.07474, 3.30531; 0
9.19577, 6.72204; 0
0.799345, 6.72809; 0
0.735206, 4.5665; 0
9.29311, 4.59272; 0
4.45638, 5.48069; 0
5.20919, 5.46316; 0
4.55823, 1.81873; 0
2.13938, 5.50606; 0
7.85854, 5.51417; 0
2.90696, 4.47306; 0
7.11533, 4.45114; 0
7.82488, 4.21871; 0
2.18906, 4.24668; 0
7.01363, 5.58351; 0
2.87494, 5.68549; 0
7.82464, 4.85054; 0
2.13962, 4.90249; 0
2.91606, 5.0806; 0
7.18046, 5.11586; 0
7.48374, 3.17404; 0
2.62181, 3.15065; 0
2.07004, 6.79433; 0
5.44738, 1.80925; 0
3.25891, 0.646175; 0
1.79565, 9.50501; 0
6.79724, 0.620021; 0
8.20182, 9.50475; 0
0, 8.13519; -4
10, 8.13511; -2
7.95371, 6.19658; 0
2.05666, 6.15838; 0
2.97583, 3.82013; 0
7.05907, 3.84181; 0
7.02928, 1.74788; 0
8.00057, 8.27975; 0
2.13758, 8.1493; 0
2.9746, 1.72717; 0
9.28397, 1.65618; 0
0.721028, 1.68525; 0
4.30223, 8.35165; 0
5.6998, 8.36384; 0
7.84423, 1.79342; 0
2.16476, 1.75773; 0
7.0158, 8.44162; 0
2.95363, 8.30253; 0
4.39335, 0.58615; 0
0.756636, 9.36091; 0
9.24436, 9.36332; 0
5.54763, 0.590617; 0
9.25056, 0.666301; 0
0.756397, 0.677839; 0
4.33699, 9.35742; 0
5.67629, 9.36186; 0
6.86945, 9.46401; 0
3.12531, 9.46469; 0
1.81682, 0.539253; 0
8.17147, 0.522459; 0
1.35296, 7.99576; 0
8.67991, 7.99575; 0
8.12328, 3.90368; 0
1.87477, 3.8191; 0
5.73184, 3.70295; 0
0.756137, 6.37777; 0
9.203, 6.3806; 0
4.17939, 3.631; 0
10, 3.04519; -2
4.03161, 5.12527; 0
0.846646, 4.95846; 0
9.17035, 4.97834; 0
4.97499, 6.78483; 0
0, 4.42441; -4
0.782112, 6.02208; 0
4.25033, 3.96687; 0
9.20786, 5.34102; 0
0.786956, 5.34306; 0
5.84345, 4.657; 0
0, 3.04053; -4
5.64043, 3.37918; 0
0, 5.95041; -4
0.67688, 2.6065; 0
9.28939, 2.61885; 0
4.92782, 3.9865; 0
4.41493, 7.42196; 0
0.695424, 8.50463; 0
9.31058, 8.51374; 0
10, 6.62298; -2
0, 6.62393; -4
4.20025, 2.83855; 0
5.75038, 2.76018; 0
0.748951, 7.17769; 0
9.26079, 7.1763; 0
4.31226, 4.67778; 0
4.87632, 3.28399; 0
0, 5.28142; -4
10, 5.2779; -2
4.29904, 6.29369; 0
5.62218, 6.47413; 0
0.749384, 3.46889; 0
9.21424, 3.46741; 0
0.687264, 7.76085; 0
9.35373, 7.77779; 0
3.39326, 6.59241; 0
8.29115, 3.4632; 0
6.90858, 2.49354; 0
3.12319, 2.47651; 0
2.01915, 7.43959; 0
8.07744, 7.53073; 0
6.43566, 4.06533; 0
3.57113, 4.07853; 0
1.46441, 5.9361; 0
6.45859, 4.67791; 0
3.6406, 4.70379; 0
1.44666, 5.28443; 0
8.56734, 5.28319; 0
10, 4.42193; -2
5.14528, 4.68135; 0
2.99423, 6.23759; 0
3.3662, 2.93787; 0
6.66408, 2.96365; 0
6.79545, 5.88328; 0
10, 5.9482; -2
8.53454, 2.94609; 0
2.65412, 6.87397; 0
6.20151, 7.08574; 0
6.27854, 1.91311; 0
7.51, 6.42978; 0
3.72978, 1.93434; 0
6.49836, 6.58851; 0
6.46017, 5.45824; 0
3.9219, 6.94228; 0
9.43684, 6.15032; 0
6.20606, 4.22803; 0
1.86466, 3.28301; 0
7.01516, 7.26539; 0
7.18268, 7.64816; 0
8.7948, 5.96545; 0
7.27475, 6.97394; 0
5.75501, 3.11056; 0
5.58194, 4.98118; 0
8.37046, 5.81385; 0
6.81445, 6.27742; 0
5.56318, 3.92245; 0
1.40395, 2.94908; 0
7.57346, 7.89986; 0
6.08471, 5.66912; 0
5.64875, 5.23388; 0
7.41283, 6.04458; 0
8.1762, 6.89921; 0
8.76429, 5.72641; 0
5.58685, 7.42338; 0
6.13092, 5.0451; 0
7.76262, 6.95866; 0
5.65909, 3.51651; 0
7.13948, 7.30823; 0
7.24232, 7.69684; 0
7.2879, 7.05962; 0
6.00232, 5.67322; 0
10, 6.28559; -2
7.54662, 7.98617; 0
5.21975, 3.60322; 0
8.61542, 5.95643; 0
6.0128, 3.83943; 0
6.46319, 5.46419; 0
8.98364, 6.05351; 0
2.49862, 0; -1
5, 0; -1
7.50138, 0; -1
0, 2.10406; -4
2.30166, 2.55255; 0
4.98376, 2.38731; 0
7.73341, 2.5876; 0
10, 2.11247; -2
0, 4.89235; -4
2.52846, 4.9891; 0
4.82965, 5.00831; 0
7.51019, 4.9946; 0
10, 4.88921; -2
0, 7.50375; -4
2.88914, 7.44628; 0
5.00243, 7.88854; 0
10, 7.50348; -2
2.50138, 10; -3
5, 10; -3
7.49862, 10; -3
3.84159, 5.93144; 0
1.01825, 4.01723; 0
3.40557, 3.84389; 0
1.50875, 6.25352; 0
0, 6.27869; -4
4.78832, 3.63882; 0
5.91458, 6.00318; 0
9.03492, 4.06724; 0
6.51364, 3.7342; 0
8.41765, 6.19566; 0
2.60848, 3.65137; 0
2.45791, 6.22895; 0
7.32467, 3.59576; 0
1.49667, 8.75728; 0
3.89087, 1.24899; 0
3.5972, 8.83405; 0
1.48307, 1.27624; 0
10, 3.81784; -2
4.9748, 5.95515; 0
0, 3.81741; -4
6.13379, 1.18465; 0
8.56178, 8.80965; 0
8.50642, 1.26177; 0
6.33847, 8.85803; 0
8.34902, 4.80824; 0
3.37711, 5.15937; 0
6.73999, 5.11959; 0
1.64742, 4.81794; 0
0, 8.98531; -4
4.9818, 1.1842; 0
10, 8.98528; -2
2.44456, 8.96795; 0
7.6094, 8.99684; 0
2.4987, 0.990266; 0
7.51489, 1.02126; 0
8.55077, 2.1754; 0
4.05742, 2.41466; 0
3.63171, 7.80152; 0
8.62712, 7.29563; 0
1.38705, 7.29984; 0
5.98241, 2.39824; 0
1.46972, 2.18973; 0
6.40265, 7.86505; 0
0, 1.08049; -4
10, 1.08926; -2
5.00159, 8.87218; 0
8.75112, 10; -3
6.2498, 10; -3
3.7502, 10; -3
1.2498, 0; -1
6.24888, 0; -1
8.7502, 0; -1
1.24888, 10; -3
3.75112, 0; -1
6.85899, 4.60196; 0
1.63193, 5.50839; 0
8.14282, 5.35239; 0
3.41155, 4.49154; 0
8.56597, 4.47565; 0
1.50003, 4.40968; 0
3.49556, 5.6139; 0
8.44774, 6.72672; 0
1.51978, 6.707; 0
3.43458, 3.31804; 0
6.5005, 3.31547; 0
4.98822, 4.33374; 0
10, 5.62305; -2
0, 5.62587; -4
5.67692, 4.27011; 0
0.784298, 5.70616; 0
9.30468, 5.72626; 0
4.22866, 4.29563; 0
7.59812, 5.67084; 0
2.4042, 5.64482; 0
2.55105, 4.37343; 0
7.44522, 4.3401; 0
0, 7.02344; -4
10, 7.02284; -2
4.93536, 2.89217; 0
4.07064, 3.30196; 0
9.16949, 6.7289; 0
0.788821, 6.73998; 0
0.731382, 4.57864; 0
9.29466, 4.60608; 0
4.38679, 5.46202; 0
5.15929, 5.46104; 0
4.5666, 1.82337; 0
2.15298, 5.48204; 0
7.94044, 5.55315; 0
2.89546, 4.47899; 0
7.11184, 4.44017; 0
7.83511, 4.21906; 0
2.18842, 4.24308; 0
7.11018, 5.6186; 0
2.86578, 5.68023; 0
7.85687, 4.8691; 0
2.13293, 4.90968; 0
2.91276, 5.0742; 0
7.22419, 5.12474; 0
7.49333, 3.1781; 0
2.59083, 3.1545; 0
2.08297, 6.78491; 0
5.44705, 1.80709; 0
3.2722, 0.681894; 0
1.79401, 9.49436; 0
6.79483, 0.653462; 0
8.21518, 9.51949; 0
0, 8.14622; -4
10, 8.14608; -2
7.84619, 6.17855; 0
2.07372, 6.14366; 0
2.96023, 3.82979; 0
7.10057, 3.852; 0
7.01106, 1.72108; 0
8.04706, 8.31242; 0
2.16466, 8.12172; 0
3.0052, 1.70824; 0
9.27848, 1.6499; 0
0.72493, 1.6563; 0
4.28968, 8.36606; 0
5.69442, 8.35526; 0
7.8216, 1.81378; 0
2.18851, 1.781; 0
6.98394, 8.51398; 0
2.95506, 8.28302; 0
4.38938, 0.581647; 0
0.76681, 9.3525; 0
9.25797, 9.3753; 0
5.54622, 0.580732; 0
9.23515, 0.676716; 0
0.767051, 0.681112; 0
4.32147, 9.36301; 0
5.65919, 9.37816; 0
6.88466, 9.46361; 0
3.12051, 9.47485; 0
1.80065, 0.526456; 0
8.19007, 0.513873; 0
1.37415, 7.9779; 0
8.70823, 7.99491; 0
8.12552, 3.91632; 0
1.86808, 3.84463; 0
0.753439, 6.38359; 0
9.24941, 6.46383; 0
4.12919, 3.61547; 0
10, 3.03347; -2
4.02864, 5.10876; 0
0.843818, 4.96666; 0
9.17828, 4.99083; 0
4.90053, 6.79718; 0
0, 4.42043; -4
0.783892, 6.02624; 0
4.1849, 3.96718; 0
9.2207, 5.35456; 0
0.784037, 5.34806; 0
5.83723, 4.62769; 0
0, 3.02922; -4
0, 5.95303; -4
0.702946, 2.60099; 0
9.28417, 2.61663; 0
4.89217, 3.98175; 0
4.41427, 7.4495; 0
0.706019, 8.49867; 0
9.32291, 8.52046; 0
10, 6.63278; -2
0, 6.63021; -4
4.18829, 2.84265; 0
5.75813, 2.76008; 0
0.754465, 7.1824; 0
9.25233, 7.18284; 0
4.31727, 4.67378; 0
4.89772, 3.24697; 0
0, 5.28082; -4
10, 5.27783; -2
4.28563, 6.29018; 0
5.59817, 6.50201; 0
0.78236, 3.45649; 0
9.21293, 3.46581; 0
0.69488, 7.76207; 0
9.32719, 7.75764; 0
3.39537, 6.57834; 0
8.3089, 3.48641; 0
6.90587, 2.49566; 0
3.11797, 2.4818; 0
2.05149, 7.41969; 0
8.06379, 7.55014; 0
6.54789, 4.09161; 0
3.54354, 4.08203; 0
1.50319, 5.92994; 0
6.45712, 4.6575; 0
3.64182, 4.70092; 0
1.44321, 5.28574; 0
8.58103, 5.29955; 0
10, 4.41866; -2
5.18942, 4.69453; 0
3.00905, 6.2153; 0
3.35307, 2.94269; 0
6.66265, 2.95903; 0
6.8681, 5.97684; 0
10, 5.9543; -2
8.52205, 2.95076; 0
2.66596, 6.84848; 0
6.25732, 7.08613; 0
6.28067, 1.91799; 0
7.53709, 6.44601; 0
3.73361, 1.9519; 0
6.57234, 6.50767; 0
3.86934, 6.96462; 0
9.45856, 6.15856; 0
6.24109, 4.2336; 0
1.8133, 3.35341; 0
5.72876, 3.16961; 0
5.52657, 3.90928; 0
1.44528, 2.94206; 0
5.61918, 5.15058; 0
8.73107, 5.6984; 0
5.57726, 7.37148; 0
6.11141, 5.0029; 0
7.86213, 6.92767; 0
5.71259, 3.45908; 0
7.02887, 7.2676; 0
7.20645, 7.69121; 0
7.3449, 6.97393; 0
6.02475, 5.61113; 0
10, 6.28571; -2
7.5669, 8.02569; 0
5.26151, 3.56972; 0
8.5207, 5.96184; 0
5.99732, 3.7943; 0
6.46802, 5.43021; 0
8.98089, 6.07509; 0
4.89495, 3.61436; 0
8.80069, 5.75547; 0
10, 6.29354; -2
4.54131, 3.60707; 0
5.21215, 3.57812; 0
9.31402, 6.44373; 0
5.73536, 3.10958; 0
5.44752, 3.52063; 0
8.8451, 6.34537; 0
6.88939, 7.09944; 0
8.0821, 6.87082; 0
2.49831, 0; -1
5, 0; -1
7.50169, 0; -1
0, 2.0893; -4
2.29495, 2.57114; 0
4.98921, 2.38151; 0
7.72744, 2.5939; 0
10, 2.09656; -2
0, 4.89029; -4
2.53105, 4.98056; 0
4.79399, 5.00007; 0
7.50947, 4.98276; 0
10, 4.88779; -2
0, 7.51342; -4
2.91611, 7.40977; 0
5.01161, 7.91111; 0
10, 7.51304; -2
2.50169, 10; -3
5, 10; -3
7.49831, 10; -3
3.84576, 5.92422; 0
0.995346, 4.0345; 0
3.37259, 3.8558; 0
1.48989, 6.27677; 0
0, 6.283; -4
5.904, 5.98407; 0
9.04755, 4.07826; 0
6.52776, 3.74935; 0
8.28148, 6.196; 0
2.6268, 3.63289; 0
2.46054, 6.22501; 0
7.32353, 3.58558; 0
1.51185, 8.73634; 0
3.92507, 1.26301; 0
3.57761, 8.83225; 0
1.50727, 1.28422; 0
10, 3.81093; -2
4.96384, 5.95676; 0
0, 3.81023; -4
6.10451, 1.18916; 0
8.59796, 8.82714; 0
8.49058, 1.27683; 0
6.29661, 8.88501; 0
8.35618, 4.81719; 0
3.35989, 5.1611; 0
6.7518, 5.12077; 0
1.64732, 4.81981; 0
0, 8.99453; -4
4.98451, 1.18091; 0
10, 8.99447; -2
2.45148, 8.95785; 0
7.63778, 9.01104; 0
2.48712, 0.988127; 0
7.53559, 1.01556; 0
8.54416, 2.17966; 0
4.06068, 2.42155; 0
3.62847, 7.81007; 0
8.65814, 7.34361; 0
1.40234, 7.29338; 0
5.97897, 2.39603; 0
1.47354, 2.17714; 0
6.38511, 7.87628; 0
0, 1.06704; -4
10, 1.07409; -2
4.9971, 8.88563; 0
8.75141, 10; -3
6.24984, 10; -3
3.75016, 10; -3
1.24984, 0; -1
6.24859, 0; -1
8.75016, 0; -1
1.24859, 10; -3
3.75141, 0; -1
6.88345, 4.60981; 0
1.62269, 5.51405; 0
8.15503, 5.36367; 0
3.39303, 4.49325; 0
8.57338, 4.49094; 0
1.47502, 4.43611; 0
3.47891, 5.60403; 0
8.49692, 6.71328; 0
1.5272, 6.70499; 0
3.43349, 3.32197; 0
6.498, 3.32131; 0
4.97021, 4.3362; 0
10, 5.62578; -2
0, 5.62686; -4
5.65674, 4.24763; 0
0.781095, 5.71065; 0
9.30919, 5.73779; 0
4.21302, 4.28943; 0
7.63269, 5.66079; 0
2.38561, 5.64648; 0
2.53367, 4.3838; 0
7.46095, 4.35049; 0
0, 7.03119; -4
10, 7.03199; -2
4.93974, 2.87232; 0
4.07355, 3.29166; 0
9.21043, 6.78262; 0
0.780642, 6.75131; 0
0.720975, 4.58941; 0
9.29648, 4.61477; 0
4.35717, 5.44755; 0
5.18268, 5.44746; 0
4.57221, 1.82888; 0
2.16321, 5.463; 0
7.94303, 5.52933; 0
2.88137, 4.48208; 0
7.01225, 4.37972; 0
7.84888, 4.22777; 0
2.17385, 4.22972; 0
7.14917, 5.65652; 0
2.85584, 5.67483; 0
7.82999, 4.85295; 0
2.12218, 4.91751; 0
2.91362, 5.06755; 0
7.21426, 5.11158; 0
7.50375, 3.18162; 0
2.56595, 3.159; 0
2.09123, 6.77572; 0
5.44754, 1.80585; 0
3.28426, 0.705924; 0
1.79507, 9.48316; 0
6.79005, 0.678076; 0
8.22508, 9.53079; 0
0, 8.15673; -4
10, 8.15652; -2
7.75246, 6.16419; 0
2.07881, 6.13523; 0
2.93918, 3.83862; 0
7.11632, 3.85527; 0
6.99403, 1.7003; 0
7.92155, 8.24778; 0
2.18097, 8.09991; 0
3.02432, 1.69525; 0
9.27375, 1.64846; 0
0.728246, 1.64715; 0
4.28484, 8.38134; 0
5.68712, 8.34827; 0
7.80128, 1.82803; 0
2.21348, 1.79969; 0
7.03062, 8.47678; 0
2.95105, 8.26252; 0
4.38811, 0.578173; 0
0.776919, 9.34292; 0
9.27078, 9.39088; 0
5.54452, 0.571574; 0
9.2265, 0.684171; 0
0.774338, 0.685367; 0
4.31001, 9.36545; 0
5.64159, 9.39314; 0
6.89385, 9.43915; 0
3.11777, 9.4834; 0
1.79543, 0.519308; 0
8.20043, 0.509481; 0
1.39155, 7.96197; 0
8.6914, 8.03402; 0
8.13181, 3.92725; 0
1.8691, 3.8861; 0
0.758443, 6.38413; 0
4.05153, 3.61335; 0
10, 3.02192; -2
4.00437, 5.09997; 0
0.836038, 4.97732; 0
9.18396, 5.00121; 0
4.85145, 6.79418; 0
0, 4.41628; -4
0.798472, 6.02768; 0
4.1595, 3.97332; 0
9.22624, 5.3646; 0
0.780453, 5.35409; 0
5.83439, 4.59816; 0
0, 3.01803; -4
0, 5.95561; -4
0.714531, 2.59786; 0
9.27917, 2.61424; 0
4.86621, 3.97456; 0
4.41168, 7.46274; 0
0.715363, 8.49481; 0
9.33858, 8.51949; 0
10, 6.64136; -2
0, 6.63603; -4
4.18225, 2.8433; 0
5.77065, 2.76335; 0
0.758316, 7.1881; 0
9.25075, 7.20124; 0
4.33109, 4.667; 0
4.84386, 3.19916; 0
0, 5.28037; -4
10, 5.27847; -2
4.26546, 6.2951; 0
5.62833, 6.5067; 0
0.794451, 3.45099; 0
9.2137, 3.46466; 0
0.701212, 7.76399; 0
9.3331, 7.78232; 0
3.39489, 6.55696; 0
8.32299, 3.50423; 0
6.90659, 2.49255; 0
3.11161, 2.48292; 0
2.07337, 7.4028; 0
7.99204, 7.4917; 0
3.54913, 4.07262; 0
1.52334, 5.92992; 0
6.4567, 4.64899; 0
3.64702, 4.69577; 0
1.4373, 5.28976; 0
8.57359, 5.30373; 0
10, 4.41503; -2
5.21376, 4.69179; 0
3.01684, 6.1949; 0
3.34144, 2.94663; 0
6.666, 2.95933; 0
6.83905, 5.9833; 0
10, 5.95961; -2
8.5144, 2.95586; 0
2.67379, 6.82599; 0
6.21187, 7.05861; 0
6.28133, 1.92132; 0
7.47824, 6.44026; 0
3.73565, 1.9641; 0
6.57278, 6.40209; 0
3.83576, 6.97778; 0
9.30595, 6.11894; 0
6.26629, 4.19788; 0
1.7686, 3.41444; 0
5.54055, 3.90258; 0
1.47107, 2.93708; 0
5.59177, 5.10508; 0
5.54562, 7.36431; 0
6.07973, 4.95596; 0
5.75151, 3.38507; 0
7.26227, 7.72993; 0
7.42569, 6.91031; 0
6.02718, 5.56669; 0
8.50484, 5.95215; 0
6.1811, 3.85272; 0
6.47677, 5.39466; 0
4.87252, 3.6199; 0
8.73308, 5.75123; 0
10, 6.29263; -2
4.49966, 3.58623; 0
5.2365, 3.568; 0
9.37085, 6.46064; 0
5.71553, 3.10421; 0
5.48416, 3.51434; 0
8.83615, 6.36984; 0
6.88451, 7.10038; 0
8.09043, 6.89547; 0
8.74916, 10; -3
5.62804, 3.5034; 0
9.11254, 9.7654; 0
5.29403, 3.36206; 0
5.94832, 3.47846; 0
6.21506, 7.23234; 0
2.49795, 0; -1
5, 0; -1
7.50205, 0; -1
0, 2.07572; -4
2.29022, 2.58669; 0
4.9954, 2.37717; 0
7.72585, 2.59992; 0
10, 2.08195; -2
0, 4.88825; -4
2.52964, 4.97577; 0
4.76851, 4.99136; 0
7.51234, 4.97192; 0
10, 4.88653; -2
0, 7.52254; -4
2.92721, 7.38844; 0
5.0058, 7.95431; 0
10, 7.52267; -2
2.50205, 10; -3
5, 10; -3
7.49809, 10; -3
3.85237, 5.90814; 0
0.978161, 4.04932; 0
3.32738, 3.87288; 0
1.47557, 6.29518; 0
0, 6.28707; -4
5.86718, 5.94396; 0
9.05765, 4.08558; 0
6.66676, 3.81201; 0
8.39655, 6.24531; 0
2.64098, 3.61455; 0
2.4612, 6.21883; 0
7.32608, 3.58484; 0
1.52584, 8.71924; 0
3.95016, 1.27313; 0
3.56028, 8.83127; 0
1.52351, 1.28737; 0
10, 3.80379; -2
4.94842, 5.95408; 0
0, 3.80291; -4
6.0809, 1.19217; 0
8.57192, 8.80712; 0
8.48104, 1.28803; 0
6.30114, 8.88555; 0
8.36204, 4.82834; 0
3.34219, 5.15985; 0
6.77258, 5.13118; 0
1.64603, 4.82084; 0
0, 9.00277; -4
4.98723, 1.17936; 0
10, 9.00268; -2
2.45904, 8.94871; 0
7.6504, 9.02369; 0
2.48472, 0.987522; 0
7.5459, 1.01246; 0
8.5364, 2.18321; 0
4.0612, 2.426; 0
3.62912, 7.81827; 0
8.66187, 7.36382; 0
1.4132, 7.28827; 0
5.97837, 2.39589; 0
1.47832, 2.17217; 0
6.40556, 7.94351; 0
0, 1.05583; -4
10, 1.06143; -2
4.99505, 8.90433; 0
6.24989, 10; -3
3.7501, 10; -3
1.2499, 0; -1
6.24825, 0; -1
8.7501, 0; -1
1.24825, 10; -3
3.75175, 0; -1
6.88356, 4.61271; 0
1.61423, 5.52093; 0
8.1463, 5.34682; 0
3.38154, 4.49435; 0
8.5812, 4.50433; 0
1.44569, 4.46673; 0
3.46629, 5.59596; 0
8.46482, 6.70424; 0
1.5304, 6.70516; 0
3.43229, 3.32556; 0
6.49434, 3.32432; 0
4.96029, 4.32972; 0
10, 5.62869; -2
0, 5.62793; -4
5.66849, 4.22884; 0
0.776772, 5.71645; 0
9.2838, 5.74255; 0
4.20212, 4.28839; 0
7.66871, 5.68523; 0
2.37448, 5.64491; 0
2.50332, 4.3938; 0
7.49007, 4.3727; 0
0, 7.03842; -4
10, 7.04091; -2
4.93733, 2.8346; 0
4.05492, 3.28269; 0
9.1918, 6.76111; 0
0.773359, 6.75989; 0
0.710544, 4.5988; 0
9.29839, 4.62098; 0
4.36062, 5.43171; 0
5.18252, 5.42961; 0
4.57677, 1.83358; 0
2.167, 5.45191; 0
7.91037, 5.50579; 0
2.8755, 4.47708; 0
6.99102, 4.34719; 0
7.85574, 4.23517; 0
2.16457, 4.22578; 0
7.15166, 5.66537; 0
2.848, 5.66912; 0
7.82345, 4.84717; 0
2.11601, 4.92144; 0
2.91217, 5.0611; 0
7.21053, 5.10712; 0
7.51188, 3.18611; 0
2.53958, 3.16676; 0
2.09708, 6.76674; 0
5.44788, 1.80624; 0
3.29607, 0.719429; 0
1.79716, 9.47343; 0
6.78364, 0.692052; 0
8.20923, 9.5296; 0
0, 8.16657; -4
10, 8.1665; -2
7.74794, 6.16542; 0
2.07896, 6.129; 0
2.91922, 3.84236; 0
7.15267, 3.8602; 0
6.97955, 1.68331; 0
7.91843, 8.23693; 0
2.18971, 8.08315; 0
3.04299, 1.68536; 0
9.26973, 1.648; 0
0.733414, 1.64254; 0
4.27447, 8.39706; 0
5.68169, 8.35494; 0
7.78437, 1.83667; 0
2.23279, 1.81315; 0
7.05604, 8.49729; 0
2.94704, 8.24462; 0
4.38799, 0.576306; 0
0.786286, 9.33462; 0
9.2836, 9.26918; 0
5.54308, 0.564232; 0
9.2205, 0.689266; 0
0.780374, 0.688472; 0
4.29918, 9.36834; 0
5.64419, 9.39821; 0
6.89631, 9.43896; 0
3.11588, 9.49099; 0
1.79487, 0.51552; 0
8.20582, 0.508812; 0
1.40362, 7.94961; 0
8.65705, 8.01635; 0
8.13854, 3.938; 0
1.8627, 3.91285; 0
0.758405, 6.38691; 0
4.1396, 3.59856; 0
10, 3.01072; -2
3.98392, 5.09445; 0
0.824637, 4.99002; 0
9.18854, 5.00944; 0
4.83777, 6.75676; 0
0, 4.41206; -4
0.80575, 6.02966; 0
4.16507, 3.95312; 0
9.22637, 5.37323; 0
0.776828, 5.36093; 0
5.82057, 4.56717; 0
0, 3.00717; -4
0, 5.95812; -4
0.72242, 2.59547; 0
9.27498, 2.6113; 0
4.86887, 3.97266; 0
4.44959, 7.45438; 0
0.723133, 8.49267; 0
9.32317, 8.47636; 0
10, 6.6458; -2
0, 6.64149; -4
4.17181, 2.84253; 0
5.78678, 2.76638; 0
0.759961, 7.19326; 0
9.2388, 7.19465; 0
4.34023, 4.65974; 0
4.76516, 3.18967; 0
0, 5.27999; -4
10, 5.27935; -2
4.24099, 6.29461; 0
5.67618, 6.51839; 0
0.79731, 3.44849; 0
9.21508, 3.46303; 0
0.705624, 7.76626; 0
9.3344, 7.77696; 0
3.3939, 6.53743; 0
8.33363, 3.51832; 0
6.90898, 2.49056; 0
3.10444, 2.48527; 0
2.0878, 7.3881; 0
7.95271, 7.47518; 0
3.53043, 4.07272; 0
1.53105, 5.93358; 0
6.4523, 4.63529; 0
3.64813, 4.69246; 0
1.43394, 5.29352; 0
8.57508, 5.3084; 0
10, 4.41133; -2
5.20222, 4.67132; 0
3.02301, 6.1772; 0
3.32959, 2.94912; 0
6.67371, 2.96214; 0
6.80849, 5.93682; 0
10, 5.96134; -2
8.51035, 2.9612; 0
2.67993, 6.80814; 0
6.28181, 1.92398; 0
7.44168, 6.39826; 0
3.7373, 1.97344; 0
6.60125, 6.42646; 0
3.8279, 6.98746; 0
9.29353, 6.12246; 0
6.28854, 4.19751; 0
1.73029, 3.45517; 0
5.55078, 3.84765; 0
1.48396, 2.93881; 0
5.58185, 5.07824; 0
5.47055, 7.36061; 0
6.06011, 4.91661; 0
7.23053, 7.71353; 0
7.41874, 6.8718; 0
6.02406, 5.5289; 0
8.53446, 6.00001; 0
6.27558, 3.90556; 0
6.45976, 5.3537; 0
4.8204, 3.612; 0
8.69071, 5.75378; 0
10, 6.29491; -2
9.22844, 6.43506; 0
5.66254, 3.09048; 0
6.90801, 7.07218; 0
8.08447, 6.90007; 0
8.74922, 10; -3
5.62371, 3.54845; 0
9.2088, 9.81633; 0
5.1773, 3.30051; 0
6.06283, 3.45429; 0
6.24286, 7.15505; 0
2.98418, 3.74372; 0
5.72644, 3.60304; 0
2.49751, 0; -1
5, 0; -1
7.50249, 0; -1
0, 2.06333; -4
2.28499, 2.59669; 0
5.00238, 2.36436; 0
7.72627, 2.60618; 0
10, 2.06863; -2
0, 4.88622; -4
2.52765, 4.97057; 0
4.76224, 4.97775; 0
7.50018, 4.95626; 0
10, 4.88537; -2
0, 7.5311; -4
2.93503, 7.373; 0
4.99508, 8.00109; 0
10, 7.53211; -2
2.50249, 10; -3
5, 10; -3
7.49783, 10; -3
3.86057, 5.88861; 0
0.961035, 4.06239; 0
3.31747, 3.87256; 0
1.46304, 6.30953; 0
0, 6.29093; -4
5.86726, 5.92902; 0
9.06586, 4.09062; 0
6.8279, 3.86842; 0
8.40427, 6.2774; 0
2.61181, 3.6041; 0
2.46081, 6.21229; 0
7.30164, 3.61696; 0
1.53719, 8.70611; 0
3.96823, 1.28009; 0
3.5436, 8.83164; 0
1.53645, 1.291; 0
10, 3.79667; -2
4.9522, 5.94746; 0
0, 3.79563; -4
6.06396, 1.19426; 0
8.55358, 8.79046; 0
8.47376, 1.29646; 0
6.30338, 8.90063; 0
8.37482, 4.84001; 0
3.32664, 5.15864; 0
6.79187, 5.13502; 0
1.63622, 4.82859; 0
0, 9.01014; -4
4.98972, 1.17883; 0
10, 9.01007; -2
2.46506, 8.94091; 0
7.65535, 9.02543; 0
2.48763, 0.988389; 0
7.54918, 1.01; 0
8.52871, 2.18638; 0
4.06116, 2.42868; 0
3.64596, 7.81591; 0
8.65115, 7.3661; 0
1.42038, 7.28402; 0
5.98128, 2.39637; 0
1.484, 2.17142; 0
6.37459, 7.92249; 0
0, 1.04642; -4
10, 1.05085; -2
4.99137, 8.9293; 0
6.24996, 10; -3
3.75001, 10; -3
1.24999, 0; -1
6.24783, 0; -1
8.75001, 0; -1
1.24783, 10; -3
3.75217, 0; -1
6.89029, 4.60824; 0
1.60662, 5.52734; 0
8.13987, 5.33717; 0
3.37929, 4.48888; 0
8.58594, 4.51462; 0
1.42922, 4.48928; 0
3.46288, 5.58711; 0
8.45808, 6.71336; 0
1.53129, 6.7055; 0
3.45171, 3.2943; 0
6.52669, 3.32535; 0
4.95981, 4.3154; 0
10, 5.63023; -2
0, 5.629; -4
5.66507, 4.19294; 0
0.77388, 5.72137; 0
9.2697, 5.74926; 0
4.19616, 4.27908; 0
7.68594, 5.70061; 0
2.36882, 5.64141; 0
2.50425, 4.37375; 0
7.52907, 4.38252; 0
0, 7.0452; -4
10, 7.04795; -2
4.91419, 2.85768; 0
4.11096, 3.29121; 0
9.1989, 6.77132; 0
0.767334, 6.76757; 0
0.706088, 4.60706; 0
9.29923, 4.62527; 0
4.36093, 5.41561; 0
5.18452, 5.41643; 0
4.57746, 1.83405; 0
2.16616, 5.44612; 0
7.91465, 5.51162; 0
2.85931, 4.47663; 0
7.0396, 4.36071; 0
7.7974, 4.21058; 0
2.18365, 4.21266; 0
7.14972, 5.66428; 0
2.84339, 5.66423; 0
7.83812, 4.85268; 0
2.11203, 4.91802; 0
2.9095, 5.05433; 0
7.21675, 5.10451; 0
7.51252, 3.20838; 0
2.51575, 3.16666; 0
2.10184, 6.75821; 0
5.44963, 1.80488; 0
3.30658, 0.72638; 0
1.79951, 9.46596; 0
6.77699, 0.697863; 0
8.24246, 9.53421; 0
0, 8.17568; -4
10, 8.17599; -2
7.7437, 6.16267; 0
2.07689, 6.12346; 0
6.96713, 1.67005; 0
7.89758, 8.22066; 0
2.19528, 8.06923; 0
3.05805, 1.67751; 0
9.26575, 1.64738; 0
0.738701, 1.63968; 0
4.2647, 8.40625; 0
5.68158, 8.36509; 0
7.77013, 1.84229; 0
2.24809, 1.82191; 0
7.04043, 8.48738; 0
2.94997, 8.2253; 0
4.38865, 0.575367; 0
0.79414, 9.32802; 0
9.23786, 9.35108; 0
5.54214, 0.559013; 0
9.21568, 0.692958; 0
0.786072, 0.691284; 0
4.28704, 9.37021; 0
5.64655, 9.40417; 0
6.9026, 9.43845; 0
3.11393, 9.498; 0
1.79633, 0.514609; 0
8.20848, 0.510085; 0
1.41242, 7.93997; 0
8.63017, 7.9977; 0
8.13211, 3.94702; 0
1.83909, 3.93716; 0
0.756613, 6.39065; 0
4.13194, 3.60082; 0
10, 3.00001; -2
3.97352, 5.08669; 0
0.813795, 5.00098; 0
9.1956, 5.01708; 0
4.83518, 6.71593; 0
0, 4.40785; -4
0.808477, 6.0328; 0
4.15619, 3.94944; 0
9.23005, 5.38111; 0
0.773177, 5.3676; 0
5.79975, 4.53076; 0
0, 2.99679; -4
0, 5.96054; -4
0.727732, 2.59268; 0
9.27157, 2.60771; 0
4.88525, 3.9592; 0
4.4676, 7.4417; 0
0.729458, 8.49151; 0
9.30622, 8.50664; 0
10, 6.65015; -2
0, 6.64662; -4
4.17492, 2.84207; 0
5.7874, 2.77229; 0
0.76045, 7.19821; 0
9.23546, 7.20001; 0
4.33871, 4.64759; 0
0, 5.27962; -4
10, 5.27972; -2
4.22489, 6.28675; 0
5.68383, 6.50411; 0
0.794349, 3.44757; 0
9.21668, 3.46123; 0
0.708881, 7.76886; 0
9.32869, 7.7922; 0
3.39839, 6.52333; 0
8.33969, 3.53092; 0
6.91549, 2.49285; 0
3.09912, 2.48448; 0
2.09822, 7.37551; 0
7.91898, 7.4569; 0
3.51569, 4.07425; 0
1.53417, 5.93758; 0
6.45267, 4.62934; 0
3.64634, 4.68697; 0
1.4329, 5.29782; 0
8.58429, 5.31883; 0
10, 4.40766; -2
5.19254, 4.65218; 0
3.02981, 6.16335; 0
3.31486, 2.94353; 0
6.68047, 2.96168; 0
6.77749, 5.9112; 0
10, 5.96318; -2
8.50846, 2.96731; 0
2.68635, 6.79332; 0
6.28433, 1.92745; 0
7.42839, 6.37608; 0
3.73821, 1.97989; 0
6.58353, 6.39836; 0
3.82932, 6.98138; 0
9.30557, 6.12773; 0
6.29683, 4.20149; 0
1.70239, 3.48271; 0
5.53435, 3.83896; 0
1.48874, 2.94424; 0
5.56993, 5.05233; 0
5.47387, 7.3492; 0
6.04917, 4.87917; 0
7.19782, 7.70206; 0
7.40626, 6.83296; 0
6.013, 5.49811; 0
8.51337, 6.00735; 0
6.37302, 3.91882; 0
6.44476, 5.32365; 0
4.85879, 3.60098; 0
8.67595, 5.7623; 0
10, 6.29776; -2
9.22048, 6.43444; 0
5.66101, 3.07413; 0
6.94114, 7.04891; 0
8.07339, 6.89813; 0
8.7493, 10; -3
5.04362, 3.2628; 0
6.0748, 3.45331; 0
6.26227, 7.10713; 0
2.95634, 3.79492; 0
5.63994, 3.56132; 0
8.20233, 9.51271; 0
6.89851, 4.57888; 0
5.82115, 2.73525; 0
6.83427, 6.97005; 0
2.49699, 0; -1
5, 0; -1
7.50301, 0; -1
0, 2.05207; -4
2.27887, 2.60078; 0
5.00276, 2.37549; 0
7.72642, 2.62044; 0
10, 2.05657; -2
0, 4.8842; -4
2.52369, 4.96635; 0
4.75517, 4.96373; 0
7.49816, 4.95643; 0
10, 4.88402; -2
0, 7.53909; -4
2.94546, 7.36022; 0
4.9918, 8.01927; 0
10, 7.5406; -2
2.50301, 10; -3
5, 10; -3
7.49753, 10; -3
3.86813, 5.87244; 0
0.941639, 4.07281; 0
3.33823, 3.86489; 0
1.45194, 6.32113; 0
0, 6.29459; -4
5.86119, 5.90385; 0
9.08019, 4.08373; 0
6.91303, 3.86694; 0
8.41623, 6.29775; 0
2.63161, 3.59782; 0
2.46045, 6.2062; 0
7.30073, 3.62595; 0
1.54628, 8.69592; 0
3.97996, 1.28368; 0
3.53016, 8.82952; 0
1.54726, 1.29501; 0
10, 3.78973; -2
4.95102, 5.93318; 0
0, 3.78851; -4
6.05326, 1.19569; 0
8.54662, 8.77595; 0
8.46682, 1.30306; 0
6.30361, 8.90255; 0
8.38881, 4.84814; 0
3.31484, 5.1559; 0
6.82887, 5.15083; 0
1.63512, 4.83073; 0
0, 9.01672; -4
4.99187, 1.17752; 0
10, 9.01678; -2
2.47109, 8.9316; 0
7.64728, 9.01219; 0
2.49239, 0.988862; 0
7.54849, 1.00815; 0
8.52005, 2.19045; 0
4.06089, 2.43129; 0
3.65863, 7.80858; 0
8.64264, 7.3654; 0
1.42592, 7.2802; 0
5.98835, 2.38107; 0
1.48912, 2.1725; 0
6.34796, 7.89996; 0
0, 1.03845; -4
10, 1.04196; -2
4.98659, 8.94182; 0
6.25006, 10; -3
3.74988, 10; -3
1.25012, 0; -1
6.24733, 0; -1
8.74988, 0; -1
1.24733, 10; -3
3.75267, 0; -1
1.60049, 5.53292; 0
8.13945, 5.3369; 0
3.37088, 4.48536; 0
8.55274, 4.52265; 0
1.42994, 4.50361; 0
3.46151, 5.57794; 0
8.45571, 6.71982; 0
1.53192, 6.70562; 0
3.45889, 3.30036; 0
6.51318, 3.31083; 0
4.9555, 4.29735; 0
10, 5.63139; -2
0, 5.63005; -4
5.66598, 4.17846; 0
0.771202, 5.72618; 0
9.26642, 5.75555; 0
4.19259, 4.2696; 0
7.69202, 5.70907; 0
2.36792, 5.63605; 0
2.499, 4.37964; 0
7.55719, 4.40294; 0
0, 7.05155; -4
10, 7.0542; -2
4.91839, 2.85331; 0
4.14134, 3.27569; 0
9.20519, 6.77877; 0
0.762522, 6.77453; 0
0.709035, 4.61278; 0
9.26932, 4.61591; 0
4.36191, 5.39984; 0
5.18044, 5.39856; 0
4.58344, 1.83991; 0
2.16406, 5.44277; 0
7.909, 5.51217; 0
2.85507, 4.47521; 0
7.06571, 4.36181; 0
7.78001, 4.20154; 0
2.17349, 4.21778; 0
7.14144, 5.66349; 0
2.84023, 5.65997; 0
7.85456, 4.86642; 0
2.1055, 4.9194; 0
2.9064, 5.04785; 0
7.20976, 5.08915; 0
7.51676, 3.22089; 0
2.49266, 3.17854; 0
2.10662, 6.75056; 0
5.4445, 1.80463; 0
3.31476, 0.729451; 0
1.80275, 9.45974; 0
6.77134, 0.698903; 0
0, 8.18405; -4
10, 8.18474; -2
7.74489, 6.1607; 0
2.07405, 6.11812; 0
6.95675, 1.65971; 0
7.87807, 8.20582; 0
2.2015, 8.05728; 0
3.0697, 1.67036; 0
9.26106, 1.64679; 0
0.743558, 1.63749; 0
4.26007, 8.40793; 0
5.67874, 8.37303; 0
7.75752, 1.85028; 0
2.26029, 1.82649; 0
7.0223, 8.47605; 0
2.95455, 8.20817; 0
4.38956, 0.574465; 0
0.800802, 9.32291; 0
9.23578, 9.36459; 0
5.54201, 0.555384; 0
9.21145, 0.696022; 0
0.791387, 0.693928; 0
4.27751, 9.3689; 0
5.64815, 9.40743; 0
6.9045, 9.43651; 0
3.11243, 9.50286; 0
1.79807, 0.515313; 0
8.20958, 0.512153; 0
1.42015, 7.93242; 0
8.61436, 7.98941; 0
8.14924, 3.96143; 0
1.83384, 3.94822; 0
0.754342, 6.39476; 0
4.14169, 3.59575; 0
10, 2.98992; -2
3.9667, 5.07639; 0
0.80907, 5.00832; 0
9.20314, 5.02039; 0
4.83853, 6.69561; 0
0, 4.4037; -4
0.809219, 6.03653; 0
4.16325, 3.9401; 0
9.23377, 5.38568; 0
0.771844, 5.37255; 0
5.75521, 4.48751; 0
0, 2.98697; -4
0, 5.96284; -4
0.731205, 2.58964; 0
9.26831, 2.60382; 0
4.87401, 3.94881; 0
4.48231, 7.43192; 0
0.734836, 8.49088; 0
9.30143, 8.51388; 0
10, 6.65444; -2
0, 6.65144; -4
4.16669, 2.84191; 0
0.760658, 7.20291; 0
9.23598, 7.20916; 0
4.33753, 4.63462; 0
0, 5.27925; -4
10, 5.27978; -2
4.2239, 6.27643; 0
5.67958, 6.48177; 0
0.789916, 3.44658; 0
9.21862, 3.45432; 0
0.712004, 7.77153; 0
9.32321, 7.79961; 0
3.40445, 6.50982; 0
8.34423, 3.538; 0
6.92233, 2.4926; 0
3.08853, 2.48307; 0
2.10812, 7.36465; 0
7.887, 7.4381; 0
3.51453, 4.07355; 0
1.53627, 5.9411; 0
6.4528, 4.63407; 0
3.64307, 4.68059; 0
1.43096, 5.3021; 0
8.5952, 5.33007; 0
10, 4.40398; -2
5.18252, 4.63411; 0
3.03569, 6.15113; 0
3.30727, 2.94664; 0
6.69807, 2.96277; 0
6.75537, 5.88966; 0
10, 5.96511; -2
8.50794, 2.97119; 0
2.69352, 6.78093; 0
6.28805, 1.92332; 0
7.41716, 6.35304; 0
3.74014, 1.98485; 0
6.56216, 6.3404; 0
3.83653, 6.97217; 0
9.29558, 6.12905; 0
6.2847, 4.18303; 0
1.67872, 3.50332; 0
5.5858, 3.83359; 0
1.49014, 2.94995; 0
5.56508, 5.02758; 0
5.47991, 7.34026; 0
6.06364, 4.84316; 0
7.15523, 7.64991; 0
7.38503, 6.80749; 0
6.00203, 5.47004; 0
8.50319, 6.01376; 0
6.38976, 3.89457; 0
6.42897, 5.29371; 0
4.84867, 3.59663; 0
8.66479, 5.76627; 0
10, 6.30071; -2
9.22308, 6.43895; 0
5.65995, 3.06124; 0
8.05539, 6.89141; 0
8.74941, 10; -3
4.99087, 3.24966; 0
6.10073, 3.4574; 0
6.23073, 7.08382; 0
2.93289, 3.81753; 0
5.60517, 3.52806; 0
8.23002, 9.52509; 0
6.89061, 4.58118; 0
5.80704, 2.75812; 0
6.89218, 6.97229; 0
5.50956, 3.15535; 0
8.19835, 9.50609; 0
7.47378, 6.93185; 0
2.49636, 0; -1
5, 0; -1
7.50364, 0; -1
0, 2.04187; -4
2.27333, 2.60675; 0
5.0082, 2.37625; 0
7.73062, 2.63423; 0
10, 2.0457; -2
0, 4.88221; -4
2.517, 4.96582; 0
4.751, 4.94898; 0
7.49987, 4.95261; 0
10, 4.8825; -2
0, 7.54652; -4
2.95525, 7.3468; 0
4.99183, 8.02453; 0
10, 7.54825; -2
2.50364, 10; -3
5.00001, 10; -3
7.49718, 10; -3
3.87604, 5.8584; 0
0.91765, 4.06942; 0
3.35035, 3.85519; 0
1.44204, 6.33113; 0
0, 6.29805; -4
5.84152, 5.87302; 0
9.09272, 4.07934; 0
6.95084, 3.86765; 0
8.42665, 6.31138; 0
2.63654, 3.59733; 0
2.45941, 6.20077; 0
7.30318, 3.62344; 0
1.55422, 8.68756; 0
3.99014, 1.28791; 0
3.52195, 8.82456; 0
1.55617, 1.29881; 0
10, 3.78302; -2
4.944, 5.9158; 0
0, 3.78163; -4
6.04444, 1.19425; 0
8.53812, 8.76898; 0
8.45889, 1.3095; 0
6.30168, 8.90082; 0
8.39877, 4.8634; 0
3.30503, 5.15226; 0
6.85978, 5.16551; 0
1.63133, 4.8375; 0
0, 9.02261; -4
4.99227, 1.17714; 0
10, 9.02285; -2
2.4767, 8.9229; 0
7.63966, 9.00138; 0
2.49704, 0.988285; 0
7.5464, 1.00829; 0
8.51291, 2.19339; 0
4.05911, 2.43347; 0
3.66896, 7.79882; 0
8.62865, 7.3629; 0
1.43137, 7.27689; 0
5.99145, 2.39378; 0
1.49437, 2.17431; 0
6.33029, 7.88798; 0
0, 1.03162; -4
10, 1.03444; -2
4.98199, 8.94793; 0
6.25019, 10; -3
3.74969, 10; -3
1.25031, 0; -1
6.24673, 0; -1
8.74969, 0; -1
1.24673, 10; -3
3.75327, 0; -1
1.59403, 5.53881; 0
8.13995, 5.34183; 0
3.36729, 4.48275; 0
8.53667, 4.5362; 0
1.43691, 4.52604; 0
3.46298, 5.56814; 0
8.45631, 6.7262; 0
1.53287, 6.70571; 0
3.45572, 3.31259; 0
6.47192, 3.29394; 0
4.93356, 4.27834; 0
10, 5.63242; -2
0, 5.63104; -4
5.65982, 4.16034; 0
0.7684, 5.73065; 0
9.2665, 5.76162; 0
4.17591, 4.26297; 0
7.69401, 5.71381; 0
2.3701, 5.62939; 0
2.49322, 4.38361; 0
7.58497, 4.41929; 0
0, 7.05749; -4
10, 7.05996; -2
4.92053, 2.83587; 0
4.14603, 3.26249; 0
9.20935, 6.78709; 0
0.758628, 6.78098; 0
0.732275, 4.6033; 0
9.24956, 4.60564; 0
4.3597, 5.38422; 0
5.17305, 5.37686; 0
4.58368, 1.84382; 0
2.16072, 5.44164; 0
7.89703, 5.50956; 0
2.85274, 4.47334; 0
7.06077, 4.35945; 0
7.7817, 4.19848; 0
2.16899, 4.22187; 0
7.13184, 5.66272; 0
2.83864, 5.65601; 0
7.8593, 4.87145; 0
2.10193, 4.92081; 0
2.90324, 5.04226; 0
7.2101, 5.08353; 0
7.52787, 3.22941; 0
2.47755, 3.18757; 0
2.11195, 6.74372; 0
5.45038, 1.81031; 0
3.32199, 0.731127; 0
1.80607, 9.45468; 0
6.76734, 0.697842; 0
0, 8.1917; -4
10, 8.19268; -2
7.75106, 6.15957; 0
2.07113, 6.11258; 0
6.94984, 1.64933; 0
7.84865, 8.18391; 0
2.20789, 8.04675; 0
3.08007, 1.66367; 0
9.25661, 1.64564; 0
0.748041, 1.63587; 0
4.25826, 8.40595; 0
5.67492, 8.3784; 0
7.74635, 1.85913; 0
2.27096, 1.83053; 0
7.01098, 8.45321; 0
2.9598, 8.19273; 0
4.39025, 0.574017; 0
0.806535, 9.31871; 0
9.23257, 9.3658; 0
5.54101, 0.552328; 0
9.20716, 0.698848; 0
0.79601, 0.696381; 0
4.27022, 9.36637; 0
5.6485, 9.40915; 0
6.9047, 9.42958; 0
3.11199, 9.50469; 0
1.79936, 0.516606; 0
8.20969, 0.51473; 0
1.42742, 7.92609; 0
8.59525, 7.98399; 0
8.1703, 3.97589; 0
1.80708, 3.9707; 0
0.752247, 6.39883; 0
4.13435, 3.58887; 0
10, 2.98048; -2
3.96197, 5.06471; 0
0.799419, 5.01419; 0
9.20897, 5.02228; 0
4.84221, 6.68153; 0
0, 4.39965; -4
0.809073, 6.04043; 0
4.15623, 3.93099; 0
9.23752, 5.38961; 0
0.770455, 5.37624; 0
5.71522, 4.44958; 0
0, 2.97775; -4
0, 5.96502; -4
0.733888, 2.58634; 0
9.26619, 2.598; 0
4.88404, 3.933; 0
4.49355, 7.42335; 0
0.739738, 8.4905; 0
9.29392, 8.51531; 0
10, 6.6586; -2
0, 6.65598; -4
4.15726, 2.84186; 0
0.76116, 7.20742; 0
9.2359, 7.21748; 0
4.33343, 4.62225; 0
0, 5.27887; -4
10, 5.27966; -2
4.22587, 6.26634; 0
5.67536, 6.45348; 0
0.783901, 3.43967; 0
9.22067, 3.44789; 0
0.715135, 7.77414; 0
9.3142, 7.80414; 0
3.41119, 6.49713; 0
8.35071, 3.54376; 0
6.92581, 2.48803; 0
3.08171, 2.48367; 0
2.11699, 7.35525; 0
7.91247, 7.47611; 0
3.50851, 4.07335; 0
1.53772, 5.94472; 0
6.43999, 4.62497; 0
3.63777, 4.67681; 0
1.42892, 5.30703; 0
8.59928, 5.33968; 0
10, 4.4003; -2
5.18162, 4.61705; 0
3.0413, 6.13987; 0
3.30025, 2.95224; 0
6.70139, 2.96611; 0
6.73614, 5.86063; 0
10, 5.96704; -2
8.51009, 2.97412; 0
2.70085, 6.76937; 0
6.28676, 1.92652; 0
7.40032, 6.36488; 0
3.73924, 1.98938; 0
6.58339, 6.35132; 0
3.84464, 6.9617; 0
9.29138, 6.13181; 0
6.30831, 4.17627; 0
1.66321, 3.51892; 0
5.60858, 3.8178; 0
1.49071, 2.95555; 0
5.56902, 5.00067; 0
5.46718, 7.33524; 0
6.07442, 4.81902; 0
7.13408, 7.63702; 0
5.9895, 5.44227; 0
8.49868, 6.01806; 0
6.39621, 3.88034; 0
6.41978, 5.26816; 0
4.84431, 3.58952; 0
8.65862, 5.77064; 0
10, 6.30363; -2
9.22479, 6.44378; 0
8.05027, 6.8817; 0
8.74955, 10; -3
4.84068, 3.24192; 0
6.19636, 3.47428; 0
6.23317, 7.05621; 0
2.91315, 3.8322; 0
5.5877, 3.50309; 0
6.88484, 4.58216; 0
5.77937, 2.80745; 0
6.91123, 6.9598; 0
5.57005, 3.11993; 0
8.22611, 9.5194; 0
7.44816, 6.87431; 0
6.26045, 3.49379; 0
5.98313, 3.50014; 0
7.48075, 6.92075; 0
2.4956, 0; -1
5, 0; -1
7.5044, 0; -1
0, 2.03266; -4
2.26921, 2.61296; 0
5.01782, 2.37422; 0
7.73575, 2.64644; 0
10, 2.03593; -2
0, 4.88025; -4
2.51127, 4.96583; 0
4.75065, 4.93313; 0
7.50114, 4.94918; 0
10, 4.88087; -2
0, 7.5534; -4
2.96434, 7.33397; 0
4.99052, 8.02924; 0
10, 7.55521; -2
2.5044, 10; -3
5.00001, 10; -3
7.49677, 10; -3
3.88415, 5.84547; 0
0.898467, 4.0666; 0
3.3543, 3.83531; 0
1.43302, 6.34054; 0
0, 6.30131; -4
5.84852, 5.85647; 0
9.10389, 4.0748; 0
7.01985, 3.89915; 0
8.43605, 6.32146; 0
2.62638, 3.60289; 0
2.45761, 6.19614; 0
7.29598, 3.61624; 0
1.56143, 8.68048; 0
3.99753, 1.29071; 0
3.51728, 8.81793; 0
1.56409, 1.30263; 0
10, 3.77657; -2
4.94321, 5.89546; 0
0, 3.77504; -4
6.03934, 1.19523; 0
8.52094, 8.75914; 0
8.45095, 1.31534; 0
6.3021, 8.89751; 0
8.41385, 4.88167; 0
3.29614, 5.14944; 0
6.87842, 5.17094; 0
1.62714, 4.84859; 0
0, 9.02787; -4
4.99481, 1.18067; 0
10, 9.0283; -2
2.48184, 8.91472; 0
7.64029, 9.00087; 0
2.50135, 0.987748; 0
7.54484, 1.00885; 0
8.50689, 2.19556; 0
4.05854, 2.43544; 0
3.67757, 7.78842; 0
8.62119, 7.3592; 0
1.43668, 7.27391; 0
5.98768, 2.42082; 0
1.4995, 2.17659; 0
6.30932, 7.87086; 0
0, 1.02572; -4
10, 1.028; -2
4.97801, 8.95262; 0
6.25036, 10; -3
3.74944, 10; -3
1.25056, 0; -1
6.246, 0; -1
8.74944, 0; -1
1.246, 10; -3
3.754, 0; -1
1.58805, 5.54494; 0
8.13717, 5.34574; 0
3.35794, 4.48136; 0
8.53108, 4.55105; 0
1.44048, 4.54631; 0
3.46533, 5.5581; 0
8.46027, 6.73028; 0
1.53444, 6.70579; 0
3.44087, 3.33487; 0
6.49832, 3.28534; 0
4.90945, 4.26052; 0
10, 5.63334; -2
0, 5.63196; -4
5.66525, 4.13978; 0
0.765514, 5.73476; 0
9.26702, 5.76664; 0
4.16426, 4.25209; 0
7.69473, 5.71807; 0
2.37432, 5.62218; 0
2.48938, 4.38697; 0
7.61531, 4.44264; 0
0, 7.06304; -4
10, 7.06532; -2
4.90013, 2.82813; 0
4.10135, 3.24887; 0
9.21464, 6.7948; 0
0.755285, 6.78716; 0
0.749855, 4.59381; 0
9.23371, 4.59613; 0
4.35585, 5.36815; 0
5.17345, 5.35701; 0
4.58624, 1.84659; 0
2.15728, 5.44149; 0
7.8902, 5.50965; 0
2.84862, 4.47173; 0
7.07138, 4.36051; 0
7.79833, 4.20259; 0
2.16109, 4.22801; 0
7.12564, 5.65911; 0
2.83731, 5.65301; 0
7.86875, 4.88238; 0
2.09939, 4.92342; 0
2.89984, 5.03755; 0
7.20704, 5.07716; 0
7.53346, 3.23501; 0
2.46625, 3.19463; 0
2.11743, 6.7376; 0
5.45794, 1.81853; 0
3.32778, 0.731651; 0
1.80932, 9.45052; 0
6.7644, 0.69558; 0
0, 8.19867; -4
10, 8.19984; -2
7.74462, 6.16337; 0
2.06786, 6.10708; 0
6.94033, 1.63998; 0
7.82928, 8.18987; 0
2.21422, 8.03739; 0
3.08851, 1.65804; 0
9.25249, 1.64368; 0
0.752277, 1.63453; 0
4.25651, 8.40305; 0
5.67184, 8.38313; 0
7.73449, 1.86704; 0
2.28022, 1.83467; 0
6.99733, 8.44512; 0
2.96512, 8.17891; 0
4.3923, 0.574963; 0
0.811581, 9.31513; 0
9.23208, 9.36099; 0
5.53998, 0.55151; 0
9.20304, 0.701268; 0
0.800057, 0.698654; 0
4.26411, 9.36379; 0
5.64952, 9.40964; 0
6.90464, 9.42569; 0
3.1124, 9.50396; 0
1.80036, 0.518269; 0
8.20969, 0.517108; 0
1.43416, 7.92072; 0
8.59962, 7.99358; 0
8.18976, 3.9881; 0
1.77922, 3.99246; 0
0.750298, 6.40285; 0
4.10309, 3.58856; 0
10, 2.97169; -2
3.9594, 5.05238; 0
0.791576, 5.01818; 0
9.217, 5.02474; 0
4.84584, 6.66613; 0
0, 4.39573; -4
0.808587, 6.04429; 0
4.15628, 3.92099; 0
9.23931, 5.39363; 0
0.769307, 5.37931; 0
5.68472, 4.41842; 0
0, 2.96915; -4
0, 5.96708; -4
0.736218, 2.58108; 0
9.26506, 2.59176; 0
4.8909, 3.91925; 0
4.49825, 7.41481; 0
0.744226, 8.4903; 0
9.293, 8.52174; 0
10, 6.66257; -2
0, 6.66024; -4
4.13984, 2.83764; 0
0.761869, 7.21171; 0
9.23782, 7.22397; 0
4.33302, 4.6096; 0
0, 5.27846; -4
10, 5.27943; -2
4.23123, 6.2544; 0
5.67357, 6.43462; 0
0.779589, 3.43304; 0
9.22382, 3.44184; 0
0.718201, 7.7766; 0
9.31084, 7.80764; 0
3.41891, 6.48468; 0
8.35532, 3.54751; 0
6.92634, 2.4871; 0
3.07713, 2.48557; 0
2.12535, 7.34675; 0
7.90658, 7.47348; 0
3.49763, 4.071; 0
1.53935, 5.94836; 0
6.43142, 4.61298; 0
3.63589, 4.67076; 0
1.42641, 5.31352; 0
8.60522, 5.35129; 0
10, 4.39665; -2
5.18111, 4.59832; 0
3.04684, 6.12904; 0
3.29056, 2.96205; 0
6.69954, 2.9575; 0
6.72744, 5.84967; 0
10, 5.96891; -2
8.51387, 2.97647; 0
2.70862, 6.75823; 0
6.28199, 1.93893; 0
7.38055, 6.35412; 0
3.73922, 1.99303; 0
6.57702, 6.33834; 0
3.85203, 6.94916; 0
9.29003, 6.1353; 0
6.32356, 4.16822; 0
1.65247, 3.53107; 0
5.61918, 3.80053; 0
1.49069, 2.9604; 0
5.5684, 4.97626; 0
5.4678, 7.32393; 0
6.07761, 4.79838; 0
7.11995, 7.62911; 0
5.9857, 5.41952; 0
8.49632, 6.02212; 0
6.46092, 3.92734; 0
6.41567, 5.24991; 0
4.8389, 3.58043; 0
8.65571, 5.77529; 0
10, 6.30645; -2
9.22696, 6.44846; 0
8.04448, 6.87157; 0
8.74974, 10; -3
4.84623, 3.22441; 0
6.23747, 7.03339; 0
2.87145, 3.85455; 0
5.51194, 3.48416; 0
6.88105, 4.57814; 0
5.78635, 2.7977; 0
6.92541, 6.9483; 0
5.56834, 3.0812; 0
8.23059, 9.52028; 0
6.3418, 3.50153; 0
5.97853, 3.49344; 0
7.4555, 6.86719; 0
452
3790 0 3713; 0.895018
3790 3708 0; 0.970811
3789 4 3709; 0.969773
3789 3715 4; 0.896995
3786 20 3693; 0.962029
3786 3716 20; 0.90371
3787 3695 24; 0.965158
3880 3787 24; 0.881852
3795 3646 3698; 0.977803
3766 3646 3717; 0.905486
3766 3698 3646; 0.951458
3795 3713 3646; 0.779023
3788 3647 3714; 0.823012
3785 3717 3647; 0.846418
3788 3785 3647; 0.87257
3768 3648 3699; 0.966934
3796 3648 3715; 0.777091
3768 3714 3648; 0.903482
3796 3699 3648; 0.968213
3778 3649 3708; 0.97839
3816 3649 3778; 0.983581
3816 3814 3649; 0.977477
3782 3650 3706; 0.961233
3864 3650 3763; 0.91533
3839 3650 3776; 0.890074
3782 3776 3650; 0.846452
3839 3763 3650; 0.991959
3866 3650 3864; 0.854549
3866 3706 3650; 0.96198
3749 3651 3701; 0.978234
3886 3651 3705; 0.96672
3824 3651 3741; 0.808883
3765 3651 3749; 0.97884
3765 3705 3651; 0.980931
3824 3701 3651; 0.959609
3886 3741 3651; 0.918524
3855 3652 3700; 0.952345
3838 3652 3762; 0.983829
3781 3652 3773; 0.817912
3781 3700 3652; 0.950122
3837 3762 3652; 0.930624
3838 3773 3652; 0.873008
3855 3837 3652; 0.865104
3777 3709 3653; 0.976117
3817 3653 3803; 0.976082
3817 3777 3653; 0.981144
3805 3654 3745; 0.934728
3828 3654 3805; 0.982404
3808 3745 3654; 0.980232
3759 3655 3718; 0.955719
3760 3655 3720; 0.99036
3750 3718 3655; 0.943832
3752 3720 3655; 0.997391
3759 3752 3655; 0.996002
3760 3750 3655; 0.999506
3804 3656 3747; 0.934703
3748 3747 3656; 0.942198
3827 3656 3804; 0.933741
3849 3656 3827; 0.89725
3867 3656 3849; 0.972842
3867 3748 3656; 0.949597
3751 3657 3719; 0.919134
3761 3657 3751; 0.943064
3758 3657 3753; 0.955349
3758 3719 3657; 0.975057
3885 3657 3761; 0.953501
3885 3753 3657; 0.893605
3848 3658 3746; 0.98407
3806 3746 3658; 0.941514
3829 3806 3658; 0.984474
3825 3659 3739; 0.954376
3834 3659 3825; 0.965318
3834 3769 3659; 0.93426
3784 3660 3702; 0.96483
3840 3660 3775; 0.994725
3784 3775 3660; 0.972843
3861 3660 3836; 0.968459
3856 3660 3840; 0.974831
3856 3836 3660; 0.907745
3861 3702 3660; 0.998519
3779 3661 3710; 0.989014
3819 3661 3779; 0.932292
3780 3710 3661; 0.973966
3868 3661 3819; 0.975951
3868 3780 3661; 0.887932
3835 3662 3770; 0.931806
3826 3740 3662; 0.960455
3835 3826 3662; 0.957397
3794 3663 3696; 0.909745
3767 3663 3716; 0.805561
3767 3696 3663; 0.946681
3794 3712 3663; 0.760144
3792 3664 3710; 0.949402
3791 3664 3712; 0.8672
3791 3710 3664; 0.962365
3792 3711 3664; 0.840706
3889 3665 3697; 0.950386
3793 3665 3711; 0.829729
3793 3697 3665; 0.959513
3889 3880 3665; 0.737214
3830 3666 3683; 0.84163
3747 3666 3723; 0.944712
3747 3683 3666; 0.888517
3836 3666 3830; 0.982078
3850 3666 3836; 0.995711
3850 3723 3666; 0.986518
3832 3667 3684; 0.929547
3808 3667 3745; 0.995696
3800 3745 3667; 0.940479
3808 3684 3667; 0.999039
3864 3667 3832; 0.996972
3864 3800 3667; 0.977787
3742 3668 3726; 0.964427
3883 3668 3737; 0.962721
3802 3668 3742; 0.961062
3752 3737 3668; 0.937997
3842 3668 3802; 0.993335
3842 3752 3668; 0.857876
3883 3726 3668; 0.860823
3744 3669 3725; 0.975202
3772 3669 3736; 0.827521
3801 3669 3744; 0.993583
3772 3725 3669; 0.944671
3843 3669 3801; 0.995197
3843 3736 3669; 0.913141
3823 3670 3801; 0.963
3809 3801 3670; 0.940929
3815 3809 3670; 0.920656
3748 3671 3683; 0.974184
3871 3671 3748; 0.997659
3831 3683 3671; 0.999508
3860 3671 3853; 0.938673
3860 3831 3671; 0.991834
3871 3853 3671; 0.912498
3848 3672 3682; 0.999361
3799 3672 3746; 0.935891
3837 3672 3799; 0.963103
3833 3682 3672; 0.924312
3837 3833 3672; 0.995854
3848 3746 3672; 0.990845
3754 3673 3677; 0.988001
3727 3677 3673; 0.98873
3753 3673 3738; 0.914633
3873 3673 3753; 0.904174
3754 3738 3673; 0.995286
3890 3673 3873; 0.974172
3890 3727 3673; 0.886578
3771 3674 3724; 0.977677
3872 3674 3735; 0.974433
3743 3724 3674; 0.988865
3771 3735 3674; 0.992842
3878 3674 3872; 0.960184
3878 3743 3674; 0.976218
3883 3675 3726; 0.985348
3800 3675 3755; 0.996517
3851 3675 3763; 0.998756
3800 3763 3675; 0.939969
3851 3726 3675; 0.975862
3883 3755 3675; 0.953808
3850 3676 3723; 0.872601
3772 3676 3725; 0.946573
3757 3723 3676; 0.915494
3764 3725 3676; 0.970723
3772 3757 3676; 0.981843
3850 3764 3676; 0.913581
3852 3677 3727; 0.945581
3799 3677 3762; 0.983146
3799 3754 3677; 0.994887
3852 3762 3677; 0.998288
3767 3678 3696; 0.984226
3786 3678 3767; 0.983022
3775 3696 3678; 0.986564
3820 3678 3786; 0.985473
3797 3775 3678; 0.986227
3820 3797 3678; 0.990884
3749 3679 3694; 0.997652
3859 3679 3749; 0.984325
3785 3679 3766; 0.965516
3776 3766 3679; 0.998266
3785 3694 3679; 0.989953
3859 3776 3679; 0.991746
3784 3680 3696; 0.972745
3779 3680 3702; 0.949413
3794 3680 3712; 0.803566
3791 3680 3779; 0.988116
3784 3702 3680; 0.939319
3791 3712 3680; 0.876577
3794 3696 3680; 0.948014
3782 3681 3698; 0.994726
3778 3681 3706; 0.993674
3790 3681 3778; 0.991242
3782 3706 3681; 0.991885
3795 3681 3790; 0.96974
3795 3698 3681; 0.97366
3833 3803 3682; 0.978606
3748 3683 3747; 0.823295
3830 3683 3807; 0.918112
3831 3807 3683; 0.953145
3832 3684 3814; 0.98029
3788 3685 3694; 0.974668
3768 3685 3714; 0.839018
3765 3694 3685; 0.985347
3773 3685 3768; 0.997734
3857 3685 3773; 0.983847
3788 3714 3685; 0.815241
3857 3765 3685; 0.960764
3774 3686 3697; 0.994733
3798 3686 3774; 0.992742
3889 3686 3787; 0.980216
3821 3686 3798; 0.99035
3821 3787 3686; 0.983255
3889 3697 3686; 0.977755
3796 3687 3699; 0.98387
3781 3687 3700; 0.986574
3777 3700 3687; 0.991186
3781 3699 3687; 0.997642
3789 3777 3687; 0.989393
3796 3789 3687; 0.975952
3783 3688 3707; 0.961299
3792 3688 3711; 0.91611
3780 3707 3688; 0.935771
3793 3688 3783; 0.957135
3792 3780 3688; 0.946154
3793 3711 3688; 0.913307
3806 3689 3721; 0.980976
3754 3689 3738; 0.937882
3754 3721 3689; 0.880718
3758 3738 3689; 0.988715
3811 3689 3806; 0.984025
3847 3689 3811; 0.984795
3847 3758 3689; 0.987966
3757 3690 3723; 0.872138
3760 3690 3736; 0.993402
3757 3736 3690; 0.954344
3845 3690 3760; 0.989252
3804 3723 3690; 0.894124
3827 3804 3690; 0.879033
3845 3827 3690; 0.960997
3756 3691 3735; 0.992506
3874 3691 3756; 0.981103
3761 3735 3691; 0.913703
3844 3761 3691; 0.970508
3869 3844 3691; 0.967723
3874 3869 3691; 0.987744
3755 3692 3722; 0.932538
3759 3692 3737; 0.999761
3755 3737 3692; 0.986921
3846 3692 3759; 0.956293
3805 3722 3692; 0.969091
3812 3805 3692; 0.971537
3846 3812 3692; 0.986223
3820 3693 3769; 0.949554
3820 3786 3693; 0.996404
3765 3749 3694; 0.985257
3788 3694 3785; 0.941185
3821 3695 3787; 0.988748
3821 3770 3695; 0.943518
3784 3696 3775; 0.953925
3783 3774 3697; 0.992692
3793 3783 3697; 0.97399
3776 3698 3766; 0.98133
3782 3698 3776; 0.978408
3773 3768 3699; 0.973497
3781 3773 3699; 0.982601
3817 3700 3777; 0.983807
3855 3700 3817; 0.989088
3851 3701 3824; 0.960767
3859 3701 3839; 0.972864
3851 3839 3701; 0.949005
3859 3749 3701; 0.996307
3819 3779 3702; 0.968628
3861 3819 3702; 0.995495
3826 3703 3724; 0.961783
3841 3703 3798; 0.981788
3835 3703 3826; 0.936572
3835 3798 3703; 0.966074
3879 3703 3841; 0.903022
3879 3724 3703; 0.829163
3764 3704 3725; 0.943639
3840 3704 3764; 0.969363
3834 3704 3797; 0.976848
3825 3725 3704; 0.981395
3834 3825 3704; 0.944395
3840 3797 3704; 0.970958
3857 3705 3765; 0.993542
3852 3705 3838; 0.965601
3886 3705 3852; 0.970231
3857 3838 3705; 0.99465
3816 3778 3706; 0.986446
3866 3816 3706; 0.991193
3868 3707 3780; 0.944683
3882 3707 3868; 0.990863
3870 3783 3707; 0.998584
3882 3870 3707; 0.980546
3790 3778 3708; 0.990184
3789 3709 3777; 0.989166
3792 3710 3780; 0.959235
3791 3779 3710; 0.982812
3795 3790 3713; 0.933206
3796 3715 3789; 0.933757
3786 3767 3716; 0.952136
3785 3766 3717; 0.956023
3846 3718 3732; 0.94109
3843 3718 3750; 0.970537
3809 3732 3718; 0.982287
3843 3809 3718; 0.994562
3846 3759 3718; 0.897601
3847 3719 3758; 0.986219
3876 3719 3847; 0.884188
3876 3751 3719; 0.969184
3845 3720 3734; 0.954426
3842 3720 3752; 0.971447
3810 3734 3720; 0.98858
3842 3810 3720; 0.975664
3845 3760 3720; 0.983657
3806 3721 3746; 0.953261
3799 3721 3754; 0.977235
3799 3746 3721; 0.936892
3800 3722 3745; 0.928523
3800 3755 3722; 0.967091
3805 3745 3722; 0.948884
3804 3747 3723; 0.982877
3826 3724 3743; 0.957698
3858 3771 3724; 0.886659
3879 3858 3724; 0.858301
3825 3744 3725; 0.95348
3824 3742 3726; 0.929157
3851 3824 3726; 0.981456
3886 3852 3727; 0.959895
3888 3886 3727; 0.941409
3890 3888 3727; 0.860028
3813 3728 3731; 0.856908
3818 3728 3734; 0.987792
3849 3728 3813; 0.973762
3818 3731 3728; 0.931889
3827 3734 3728; 0.932352
3849 3827 3728; 0.970089
3811 3729 3733; 0.926774
3829 3729 3811; 0.92526
3854 3733 3729; 0.890522
3815 3730 3732; 0.914281
3812 3732 3730; 0.931014
3828 3812 3730; 0.935954
3865 3731 3818; 0.944538
3844 3813 3731; 0.95694
3863 3844 3731; 0.986727
3865 3863 3731; 0.978944
3815 3732 3809; 0.885492
3846 3732 3812; 0.987961
3847 3811 3733; 0.983308
3862 3733 3854; 0.884133
3876 3733 3862; 0.951751
3876 3847 3733; 0.950095
3818 3734 3810; 0.992987
3845 3734 3827; 0.911837
3872 3735 3751; 0.986215
3761 3751 3735; 0.878284
3771 3756 3735; 0.961258
3760 3736 3750; 0.962071
3772 3736 3757; 0.999729
3843 3750 3736; 0.966925
3759 3737 3752; 0.97903
3883 3737 3755; 0.988256
3758 3753 3738; 0.982124
3825 3739 3744; 0.94757
3823 3744 3739; 0.967137
3822 3740 3743; 0.975357
3826 3743 3740; 0.946352
3824 3741 3742; 0.998187
3881 3742 3741; 0.992706
3888 3741 3886; 0.913052
3888 3881 3741; 0.965914
3881 3802 3742; 0.997308
3878 3822 3743; 0.886548
3823 3801 3744; 0.932304
3871 3748 3867; 0.951202
3876 3872 3751; 0.994377
3873 3753 3863; 0.94595
3885 3863 3753; 0.94093
3853 3756 3771; 0.892301
3874 3756 3853; 0.9519
3885 3761 3844; 0.989968
3837 3799 3762; 0.951139
3852 3838 3762; 0.969054
3864 3763 3800; 0.913901
3851 3763 3839; 0.982253
3856 3764 3850; 0.937098
3856 3840 3764; 0.933104
3834 3820 3769; 0.965768
3835 3770 3821; 0.953337
3858 3853 3771; 0.872612
3857 3773 3838; 0.934191
3870 3774 3783; 0.99821
3841 3798 3774; 0.987119
3870 3841 3774; 0.995194
3840 3775 3797; 0.994065
3859 3839 3776; 0.940746
3889 3787 3880; 0.907239
3834 3797 3820; 0.950727
3835 3821 3798; 0.95974
3843 3801 3809; 0.985961
3842 3802 3810; 0.986669
3875 3810 3802; 0.988543
3881 3875 3802; 0.997827
3833 3817 3803; 0.959546
3828 3805 3812; 0.946308
3829 3811 3806; 0.941636
3861 3807 3819; 0.981531
3868 3807 3831; 0.953759
3861 3830 3807; 0.991524
3868 3819 3807; 0.997214
3875 3818 3810; 0.985904
3869 3813 3844; 0.940449
3869 3849 3813; 0.996458
3832 3814 3816; 0.96196
3866 3832 3816; 0.974198
3855 3817 3833; 0.972925
3875 3865 3818; 0.957803
3878 3877 3822; 0.991553
3861 3836 3830; 0.993609
3882 3831 3860; 0.924407
3882 3868 3831; 0.924003
3866 3864 3832; 0.963839
3855 3833 3837; 0.961635
3856 3850 3836; 0.95945
3887 3841 3870; 0.956501
3892 3841 3887; 0.842138
3892 3879 3841; 0.867843
3885 3844 3863; 0.900516
3869 3867 3849; 0.936607
3860 3853 3858; 0.959932
3874 3853 3871; 0.931567
3877 3862 3854; 0.856987
3892 3858 3879; 0.995008
3892 3860 3858; 0.970223
3887 3882 3860; 0.828421
3892 3887 3860; 0.904978
3876 3862 3872; 0.925189
3878 3862 3877; 0.829613
3878 3872 3862; 0.959736
3873 3863 3865; 0.90918
3884 3865 3875; 0.97879
3884 3873 3865; 0.882076
3874 3867 3869; 0.986886
3874 3871 3867; 0.978409
3887 3870 3882; 0.93005
3891 3873 3884; 0.870134
3891 3890 3873; 0.801815
3884 3875 3881; 0.910356
3888 3884 3881; 0.943201
3891 3884 3888; 0.806998
3891 3888 3890; 0.739766
$z(x, y) = 5\tanh\left( 0.5 \cdot (y - \cos(\pi x / 5) - 5) \right)$, compute by metric, eval by metric
