0.07220000980648722, 1.3862454362991887
0.7430942438630536, 1.0626532980767696
0.3903882902183058, 0.44712429910278995
0.8984242319594253, 1.4743543706997115
0.5554034604715176, 0.1114878685974432
0.2330204387386292, 0.8815475402404707
0.9342188892426166, 1.4403685461189832
0.3500354794021495, 0.12441917205582409
0.0417937938658316, 1.4185816444062083
0.7413823203757757, 1.1057713231558475
0.5800609724067397, 0.6081444901365161
0.7378321163484409, 0.2983118320860687
0.6711002183780854, 0.522980329098033
0.6680363676478347, 1.5849783074799801
0.16105617904085223, 1.8992684526420223
0.8633963212320058, 1.8167543266288793
0.9323487674684504, 1.9428994957980126
0.7066732352886445, 1.7785576151571316
0.7265537338518833, 1.2621480503232392
0.1685262051465699, 1.9500916077204955
0.32580806161033127, 0.43338664133351257
0.5228748537259557, 0.9792731108837767
0.6469770923462457, 1.2967741962351857
0.04998407681969175, 0.5860687891882956
0.8678410361779649, 0.18798152647183208
0.11930647171551845, 1.7117727495854336
0.5249778907675466, 0.12207369043871363
0.25209000781307833, 0.12686774476338258
0.8828635841918978, 0.6322694915725067
0.3646937103528044, 1.4361447430892693
0.10137702820945338, 0.4862664380706929
0.8956632885328955, 0.5723193210964643
0.44067333587189916, 0.16886859919950337
0.2674065919286419, 1.9958051619284072
0.5287383115422677, 0.33241710466202434
0.05531083548141136, 0.7552998777016764
0.8744041682946218, 1.7324484204600932
0.8126107777953082, 1.204974499763665
0.4057065482228901, 1.8129104469903035
0.10871404916442406, 0.9024855050315312
0.836413295160709, 1.3181268329045606
0.052675920776078966, 1.2642203901870537
0.41967107415203264, 0.2915498331806452
0.7803190299263306, 0.16080810494930486
0.3425205874418987, 0.12972164065482672
0.9559892869257004, 0.7293334130847293
0.018110527332669157, 0.1504237827087449
0.5604651832513278, 0.5516195263015433
0.23806126596678645, 1.8115461321441442
0.3932523095073819, 1.482833946814021
0.9259329502005419, 0.8109275849192503
0.913081950764533, 1.3809404648306296
0.28407755093253295, 0.8408625247233852
0.9635693093280305, 0.169952240322234
0.560079002907604, 0.15066501759526685
0.692306757149618, 1.8584729381964158
0.7177467514968583, 0.7066297733271949
0.4813269684211372, 0.5885399016268715
0.1752335899084705, 1.8595373190998559
0.6490470269278388, 1.9866273736591864
0.8135672308428942, 1.2850653469069182
0.5964435601569057, 0.5040696405650069
0.33003733933992074, 1.7726881939423096
0.8414325658855779, 0.2286327400455408
0.006134907635596876, 0.6528485976200809
0.5976780266142282, 1.9965956012493076
0.49011439532572054, 1.280139033513368
0.5226491175340989, 1.6737863321352415
0.3441048665471873, 1.7873275935256137
0.634933273996575, 1.63649423872259
0.2640275640868085, 0.8968335084293892
0.5018728256806777, 0.7527438019829391
0.590216165186873, 1.0509278420394927
0.3192531448024776, 0.20157095159486493
0.07259612968256257, 1.5854349728583528
0.4150528656585253, 1.4602289063117235
0.22460879618146123, 0.8733126409932741
0.5396653519228206, 0.11693941583398093
0.5294627456640816, 0.08364787247736882
0.4680674350925076, 0.19782328475759803
0.369911557058056, 0.5002900314297498
0.33051285642414885, 0.5476603120953927
0.5640175199568266, 0.8818880646892187
0.2042883032505871, 0.8672331163518328
0.10437363967334978, 0.3357255455855914
0.7440473437252413, 0.7584410892037274
0.11339333963693055, 1.8418722577587137
0.22705593140968072, 1.0949369866055563
0.8226591578097912, 0.4963537049040172
0.9915050612541888, 0.38060699421952116
0.7824143840533606, 0.5496775346781362
0.13672515296047416, 0.9440388495552843
0.09800237997232619, 0.183533539747184
0.14732779169210808, 1.2195527235098003
0.4868959940745464, 1.3780628335759129
0.6209405995353983, 1.5126995050732694
0.6429470640997412, 0.7220019334710648
0.259034034466022, 0.9662039097202602
0.9247849442194286, 0.16330215658119207
0.4739597778201926, 0.4930583498129417
0.6463172108653947, 1.5039090516757354
0.8643164820925131, 0.8370845256157187
0.06253549677412062, 0.37109311308797666
0.569553697704777, 0.7921453792467303
0.14782050776590627, 0.2540942522007186
0.8555979106048875, 1.5987889071028671
0.3331568525483297, 1.1854548829678893
0.6667404309734545, 1.9770710119456094
0.037157013458603005, 0.33212174799491945
0.6439186641209578, 0.022826219125452907
0.10846374304103534, 1.4050148287915252
0.5627507778312012, 1.9827338088047892
0.31762284628464976, 0.9763183123416135
0.6306241265606807, 1.2517755804482578
0.4976015619237828, 1.2573510528735194
0.019879024750118934, 0.5904161256565195
0.37873668019710083, 1.7435270895857287
0.2942139346619964, 1.2264872776648088
0.33322311535223104, 0.9052730315094755
0.7156166924368083, 0.3554572018275759
0.018743466173741896, 0.052486964088995336
0.14640740232143445, 1.1140835048377422
0.6805198466207603, 0.6495145093934807
0.1315294852969663, 1.5596640754270572
0.34561307086576365, 1.3393111088805623
0.6463632079780726, 1.9471569906497832
0.48368788509857963, 0.0159617330663413
0.7941780841406085, 0.5115410204536655
0.3379116936252017, 0.8107568229826037
0.044765809696594605, 1.403094488038601
0.7853151497024492, 0.44589643717055205
0.6443661075576278, 0.8720055483355211
0.701827418650094, 1.4118216138104358
0.6712575413562681, 0.5348452044688239
0.24164219910950835, 1.5740442987692453
0.38399924257744067, 0.3693270854515389
0.3639208921640701, 1.9684116979604083
0.2624356046494808, 1.8759279707317222
0.49836987262666765, 0.8179081041491854
0.2351128004355052, 0.8527946315816572
0.10975366521930108, 1.6543818841327251
0.5309074715871076, 1.3714429364187035
0.10234532742992497, 1.278125628195983
0.9395514757475893, 1.0842221233234743
0.667558396686701, 1.8044806577564454
0.9341858756882581, 1.971487729003539
0.9080203875301962, 0.38227760576267555
0.3803822869067326, 1.7259084108897493
0.41113361952117633, 0.5131364965629837
0.27700485018269827, 1.993391902986546
0.27559508663752663, 1.1126085485465893
0.9707205278024397, 1.7752506259617127
0.8280292738505726, 1.8221245230990908
0.8411784506012263, 1.15397713596106
0.6687404313565031, 1.2138907740598166
0.8279412741583838, 1.6169853455208143
0.25097229622931705, 1.8304381697951637
0.4435057617860999, 0.45477333197590264
0.6346954769228517, 1.5811863051767343
0.2556829001169397, 1.5818424106657372
0.9981525804656576, 1.4345630656417199
0.37795850561082045, 1.0700045564300116
0.5781198662484267, 1.132877885481826
0.06115363484790848, 0.5791177255376627
0.48373662254172534, 1.39678268901198
0.3202198030460891, 0.042106650219257746
0.3418451350381495, 0.4745045399455239
0.7118307355263991, 0.36258059203271675
0.8072322420974387, 1.1730456462524605
0.7502164383328237, 1.361659071137605
0.22573845136362047, 0.9874250232652904
0.2702254635766891, 0.09707360731056602
0.6184650338167942, 1.1767560051868429
0.21116931361280256, 0.1544752047061959
0.3700746882076388, 1.060683876914794
0.19127109493201666, 0.4228630193776428
0.0784826744575472, 0.72001396812099
0.7830374978924558, 0.5654812486164831
0.9107714375570126, 1.4519457336320216
0.465543132930883, 1.8227453460433487
0.6889303944079124, 0.4407775479018665
0.6839402286101429, 1.7839695180622814
0.3482705918020247, 0.2747615078913852
0.4388165642656229, 0.4370837201395905
0.06307575354583028, 0.09182380363063514
0.17781593068242985, 1.323243570017226
0.9566968218630602, 0.5894541300460929
0.42817545588682915, 0.5510302953354589
0.8722560025015486, 1.4324912808501793
0.040559324911010886, 1.6176341069946059
0.06610681541548802, 1.179034029781624
0.7248599481216956, 1.175960641808317
0.919803386997496, 0.3015198487759312
0.6313278878683984, 0.21131812872560896
0.9339124464634937, 1.5572753111183009
0.7707011132270165, 0.8729513542886205
0.224953565905619, 1.1779714413380196
0.7356555861631048, 1.2845657587383055
0.9380502631468537, 1.9730023798573522
0.7227019005400132, 0.7160900761273186
0.030531980555687177, 0.3355861467354031
0.971112488795259, 1.422948072259968
0.4476595482134521, 1.8330930908160619
0.8350731692544542, 1.6010577141547448
0.39292146112014925, 0.6533580658125524
0.9104488400489726, 0.5896359633339052
0.5424256990752959, 1.577908257150104
0.35867258551258663, 0.6603627354978732
0.561830871295323, 0.15284967840646746
0.9973183541307346, 1.2535435732312594
0.971285577490051, 0.8855129414557243
0.18026032787524338, 1.829749119993118
0.27415330174163355, 0.6139923218667347
0.3353590314982836, 1.3306839080086392
0.9357022133978511, 0.6961617665737945
0.7895334083879082, 1.6988259111812902
0.336641743416604, 0.1452274666201987
0.676394142755542, 1.8409269247129811
0.3728473233195878, 1.0072242598867713
0.8959837724261633, 0.3972433347415121
0.7367258919870079, 1.1343838867376783
0.23103773705953623, 1.3448875513725433
0.8248126076278885, 1.4867577428191912
0.08964740833154627, 0.9190611465893093
0.7400904407742068, 1.3901956646065363
0.8681268303849733, 1.769694164330785
0.042152988686363635, 0.6321410379149655
0.5642869374065519, 0.22993415783530335
0.20261310537255217, 0.15085787505087356
0.8408993926209509, 0.17297658693856466
0.941063539596608, 0.5149119458002975
0.44879598166235835, 1.0440775661672432
0.36419439538464937, 0.8030550672276029
0.8289763755639041, 0.8272024571392727
0.3100957936614497, 1.5670832784229183
0.5294438360102768, 1.160105055764875
0.11612867438991414, 0.4366362866690996
0.6211380052001962, 1.0396320761381954
0.16061851063676513, 1.0210708098449601
0.47631978323550617, 0.34621123995660863
0.9121892386923092, 0.9474205730610035
0.08034422755912618, 1.460891648206429
0.20723363222035096, 1.0713199953952408
0.4759990210903594, 1.599943626998124
0.7043862364064256, 1.5062957541440936
0.8904224000449561, 0.09949553042574188
0.8994301349925201, 0.341576645925715
0.772614043686178, 0.0026418816075268747
0.5878245818435548, 1.8994410518157978
0.03347926667548007, 0.9170491565814212
0.23201322686060244, 0.45629420501097995
0.13500473057676388, 0.37754934570315246
0.7849509299754152, 0.7375673000910861
0.5652752988215575, 0.8601153673734963
0.7808204226427947, 0.7284343130249802
0.4102734307031273, 1.3216397469594994
0.4045048861231272, 0.9168103296553027
0.5522430856324518, 0.5635033039951933
0.3211388384940598, 0.41135899597255055
0.07130115683986504, 1.0436563989597107
0.3138462747775922, 1.9538616144017478
0.7344627432141394, 0.8424334733623609
0.9624132227222822, 0.6341989453843657
0.27035375920222493, 0.38388384085692984
0.03858003453332459, 1.781251067308118
0.36386920725584315, 1.5962480103757946
0.4398562400157282, 0.5958631121685367
0.5731528222621327, 1.4604734996346729
0.40232364313974367, 1.746320059259028
0.09700164529621524, 1.180168055863088
0.11177150641958933, 0.4638158153424874
0.3540927797957929, 1.6714030047778723
0.7002630554994898, 1.269076698583886
0.6680835392001526, 1.3311242797953449
0.4502165777129752, 0.20614239581155291
0.22792162150796835, 0.25089925739647834
0.9667752222007219, 1.0639285054191967
0.3861035761056403, 1.068971121625147
0.9455913332188721, 0.727216604859173
0.23125427959528122, 0.15616733256331172
0.31947948303070284, 0.878499433592969
0.3192875125106377, 1.85402767049418
0.21523808949372447, 0.37575015191496264
0.9530252273286215, 0.9686433602208242
0.4143384751679188, 1.2018770331080646
0.5358684814757115, 0.3196074654510004
0.9700992368883048, 1.1593207567653312
0.05877629287759123, 0.3347177081730055
0.8368855810707192, 0.7748531858888321
0.44985646944834967, 0.6834411365870834
0.025838538163980296, 0.561435339322373
0.24971044408601406, 0.31053633701153105
0.510616559201165, 0.37584162350772843
0.47615893682670085, 1.7234972086959046
0.32667797952537403, 1.38588514888236
0.4011997168152479, 0.9407851827215714
0.7602045986832847, 1.7788815930971171
0.6230175951105142, 0.7101190437398031
0.7910368882401995, 1.0092323998545565
0.31851223580021226, 1.3756505205572511
0.6216132770762117, 0.02821549239809995
0.6644763612178374, 0.8825500043604781
0.03199676970377707, 1.873237174073382
0.8094799772283442, 1.8361079939553757
0.5431775239264512, 0.16485134841763904
0.3782870040339087, 1.5755812681093173
0.010872333485008934, 1.3783652633911117
0.9393965941464999, 0.17421376365084495
0.7896449590349575, 0.9265412621185563
0.5338179173156594, 1.4358963113399357
0.7526797090617542, 1.6693058980439723
0.38857189599008657, 1.4008150131070705
0.9701966237198286, 0.23986927304100036
0.382615192676361, 0.2047187882178405
0.6007434245530238, 1.4649054085499291
0.8866389110314445, 1.962190294163622
0.6562463353427088, 0.951642230154568
0.6978850334992573, 1.6790732596028626
0.842535601109462, 1.3408002342797927
0.6256933124700789, 1.0346556008479446
0.9680503865557639, 0.3246437047088422
0.595032451407683, 1.0062578365738832
0.008718921588073858, 0.7443104846175608
0.14116867606229633, 0.3945575458529491
0.8544932111924861, 1.8520871978207811
0.7677156045510027, 1.0136627652086856
0.5436579174107032, 1.6223836885994343
0.38515761011767335, 1.0787954090951595
0.2558463933035172, 0.3066042593696292
0.85512219034656, 0.3768151126608701
0.3804176058318235, 1.6729307102773787
0.9503069190131292, 1.3336139274418142
0.552331956703752, 0.8606896310858079
0.24049970618978744, 0.3354153281554406
0.4748906969722342, 0.2664090905119114
0.5141272827609419, 1.9586892654556982
0.7348896803106323, 0.6000094167247247
0.14268534186422477, 1.606243420164432
0.7685452452000547, 0.5538649040799726
0.4020724153854647, 1.0837146455280053
0.21064698018625916, 0.4448112687848893
0.5777275959217985, 1.2422540771414425
0.7275863607448815, 0.9021768494220455
0.6386923069608661, 0.7976303606719473
0.6383570657670983, 1.1049910486063044
0.16214809162617994, 1.77460169380992
0.03779895624270768, 0.7015633469655314
0.2638653948716232, 0.6036175412964058
0.9537098801636629, 1.512096415055646
0.624704898279273, 1.0311853324702882
0.3904896699353405, 0.38354336968919833
0.6077053806447641, 1.360204378198986
0.8159962270119596, 1.6614445126594377
0.39588259782742863, 0.7312079602998716
0.8060420609414597, 1.229628632940456
0.5941144581533884, 0.12932064643439656
0.05380642720166062, 0.28201811739717453
0.5828677590557189, 1.5136514760226598
0.8719268767597735, 0.09498487950738443
0.6704014309179065, 0.4709715784288562
0.48784505968139413, 1.8431321931493945
0.49850447595104386, 0.9755669733135721
0.09261088002896967, 0.7367210452011872
0.689732470086677, 0.21424569370302216
0.1548208108596436, 0.07641289135604024
0.8968775144785038, 0.24591491665931464
0.46334353700688646, 1.4647745874533218
0.9549434914695937, 1.250725225407274
0.5147721965560328, 1.910255505718549
0.08236354109152133, 0.0017520588340822485
0.9319562868919142, 0.34590365898769826
0.411121436387773, 0.12034648911642054
0.9078118744644474, 0.8908809689027082
0.6985550712250869, 1.4523549351745988
0.6633064219194919, 1.533052244126802
0.7536065171390117, 0.4034436790967282
0.8665312874165069, 0.8516447600826964
0.2763381484072366, 1.7232973697837428
0.6374769102595836, 1.4584007389264457
0.9705693884466732, 1.801446822628615
0.81897924588307, 1.0000154101146048
0.6137350032176196, 0.43849840754639513
0.5187597849139691, 1.6118557733845997
0.65573905161472, 0.19875442003326738
0.10380527446702836, 1.7161747540995103
0.4248346088199296, 1.6197454886789056
0.06914678546284991, 0.021633087493780234
0.9735514126417991, 1.3061961888156255
0.01763450915657716, 1.9861180866270196
0.8511313606760118, 0.19838041940510598
0.2896626004864409, 0.7676075631162522
0.24096989748114694, 0.5144075102908301
0.4325991054622471, 0.6357995953432272
0.31963274894445337, 1.7543282438192047
0.5796757913074938, 0.3452940374493656
0.651349377932915, 0.7507050131857296
0.33266538431732906, 0.8476246513446275
0.900307734518613, 0.3433796264395168
0.4618407558544857, 1.8658820787637571
0.7523747493196582, 0.47164053020779817
0.7064167287537645, 1.0961996948403618
0.3038550607950121, 0.5575579999972429
0.0030600105400589994, 1.553519786038006
0.45574516825491473, 0.22090852149123452
0.8664493723937375, 0.630282392047709
0.41799860206773476, 0.6545400176208043
0.491176698837259, 1.2947794106799617
0.6726731260511795, 1.4680594945972365
0.14755836512038045, 0.09572931816647445
0.8278377695793766, 0.9461398770139939
0.04791397073727133, 1.0735809654212012
0.30933062482718066, 0.10640764400199676
0.5258956916876794, 1.8898879005982117
0.8316941100411552, 0.4785810995043469
0.7589662481244835, 0.7008425575145563
0.8809970233377853, 0.35273959561084056
0.2356047447526003, 0.5483152179076647
0.33817146342451865, 1.593929204597529
0.7910628798928266, 1.3089278611936226
0.8409009624833774, 0.5109963271686799
0.7777517783329116, 1.3384134384985866
0.21696988207808998, 1.0318211557765469
0.19445223937859502, 1.7626290878546602
0.03186067977827678, 1.7320309393073834
0.7167648723178742, 0.9645412501575197
0.579032636351565, 0.831362976353397
0.28128757800462034, 1.92142603349063
0.7131156651147962, 1.0424088686428052
0.7921429504074395, 1.5911548235954003
0.28910891344085476, 0.8784477267986581
0.42082296409741593, 0.32157369722110074
0.09619559550867562, 1.387357895087108
0.5975591562479464, 1.163866423151912
0.08008413757547916, 0.8456798823956697
0.9849288491480315, 1.8003579843031638
0.8335506413649888, 1.0922095196760244
0.9020500587168722, 0.5611163218230448
0.13701297349554908, 0.055061833115212844
0.19533598753182235, 1.7718914732865447
0.29467145491600466, 0.9770131443473127
0.17762076413248562, 0.1587000377302994
0.5662463887208982, 1.4079744908915128
0.2923410931328736, 0.8493927734684259
0.22152503108787636, 0.24805272967226255
0.42397763874454397, 0.9013016064274786
0.758800451759788, 1.804855263610842
0.6313390735522567, 0.619415898192637
0.9211542163010278, 0.0040058159923017644
0.26635030211401045, 1.969235828567537
0.9982538048093945, 1.2330520455838059
0.5207425111958667, 1.8017478677223449
0.49320021858664953, 0.3525532395586781
0.9004671605048225, 0.7009437516262227
0.654620656536916, 1.2351000818830298
0.7155093683808553, 1.490415371638353
0.6540731734857443, 1.6309841314357754
0.3971306044766122, 0.3742027033136439
0.8164560032730691, 0.8223245628616982
0.941257497944804, 1.3619172701550915
0.9920283081020552, 1.700715683450772
0.3163038901229357, 0.021608461089942965
0.38091662302005636, 0.09849421673836578
0.8066224920712013, 0.18486045698964437
0.6604255818424825, 1.3547640612304572
0.5389945136452325, 1.370067159454576
0.7250802050281921, 1.6029753276250205
0.14320747763444497, 1.8875759987810226
0.587555567058302, 0.5649594954418633
0.16162094359604118, 1.5230411976207985
0.7693197322632517, 1.314375774996536
0.6979989831364243, 1.4592749442251953
0.8619260782073933, 0.5693913871099163
0.6662711586506428, 0.6307597011146968
0.7614942955993689, 1.728865216095385
0.5634198697448408, 0.30604802522594277
0.057382120440523376, 0.23423797954567926
0.9511902305303456, 0.2722497161800641
0.5764341177371373, 1.0527393351163916
0.6354354294897893, 1.4468740767552735
0.5193827920719976, 0.7632932484969521
0.10155120916664295, 1.9175855358683123
0.05546330108751896, 0.18737898782273477
0.7477556445277688, 1.0593546504582139
0.43783341496603045, 0.03916919630867821
0.5077414672430934, 1.0987909654606374
0.32739831867780844, 0.06140089151000616
0.6500131031076102, 1.9624585776870445
0.449762485934034, 0.8509467272704059
0.5595833153875692, 0.8199907133310087
0.8059851142668637, 1.6010044147090419
0.9940813727776663, 1.8899473738934611
0.2480889400846783, 1.9131780111033663
0.400959047570285, 0.8764767005831924
0.536382475249489, 1.5798739602028589
0.9656191745144622, 1.1334303418112375
0.6855449388075856, 0.6020715688800873
0.45429785641627995, 1.677788575190277
0.5115888497577804, 0.20848698118340514
0.552975541144569, 0.2137910756634105
0.6534671222320798, 0.22196325221293822
0.7941110256146413, 1.353223394140077
0.7778170621041479, 0.4784438176051662
0.08319501388705597, 1.05418948853417
0.9282426919605916, 0.6428312625299397
0.84387279291153, 1.9313956942696762
0.8501882428196676, 1.4304219040931272
0.6494160906680329, 1.1905135648268792
0.572691523716234, 0.4129382206906931
0.4401538890621174, 1.8717325058950476
0.6581350486603906, 0.6136801806199939
0.8293960853151893, 1.0314556472291267
0.1398769836790973, 1.6985012547006588
0.8954839909063643, 0.49018582809491873
0.04457748139276052, 0.5787418522461296
0.20359817484523968, 0.23376419617451494
0.3798492258340286, 1.9207769770834904
0.9698322626894328, 0.961209060619767
0.2538817801867199, 0.695406398376218
0.6663981144657068, 0.1296956259923705
0.8228794573286421, 0.5011013275033949
0.4206368768211147, 0.9185102536115011
0.7268260606416085, 1.1028520363903491
0.9474790831780034, 1.1295096060500116
0.5737062354332209, 1.7071012056055395
0.36626393425687354, 1.7727571091987826
0.7187172729951407, 0.6107626853519077
0.16440259882759767, 1.1583125590479535
0.8426751726953697, 1.0422074140645794
0.050190116424513764, 1.1755401964308911
0.19213208029314777, 1.6817893084237752
0.8679686330222462, 1.5449248192790328
0.04234335205379258, 0.14748805156103062
0.1340038176074826, 0.9137862804503782
0.8517870669412603, 1.0465791951090317
0.19863299166450588, 0.6001740096143546
0.816529745334824, 0.45816802776163246
0.8460386285099373, 1.2035398956604648
0.416145825796822, 0.06357301490693135
0.09136095302197544, 0.28108532766838135
0.7999567081046264, 0.12397698731977047
0.58629682334207, 0.7088957445847479
0.4208347827554668, 0.46536857997497605
0.16170016486090721, 1.646689592256035
0.6464734152308131, 1.542282434625007
0.1416920975859749, 0.8982764135257697
0.21733330716557575, 1.7167038856108106
0.9922868291532456, 1.1210536513243092
0.8824052258109787, 1.6184514160984096
0.7845661254714814, 1.7488751114075125
0.9593044641221495, 1.963083815381587
0.9162574767851349, 0.24506439145865255
0.13377989737985363, 1.7045560026508046
0.34213153413150166, 1.6066418325175353
0.4169479832045646, 1.2494502549867124
0.5977013827127705, 0.33462213572250876
0.9693974681852096, 0.6746584741972899
0.841056926361652, 0.3863888486253797
0.33037184395645214, 0.9830357864165447
0.3940693711103972, 1.0747746133357265
0.6038443302897429, 1.788003716019322
0.4435220658771488, 1.313312002233998
0.5915949157858172, 0.8872258673045461
0.7860582673348778, 1.0219539330144658
0.23399302097316854, 1.0738016396523278
0.7602391420484043, 1.0046549620147196
0.6261369459663616, 0.32905848685493533
0.6266012426813001, 0.3348580554609164
0.1621776372483421, 1.659008654563263
0.861719666219566, 0.3458590491082494
0.04907663887812985, 1.69113801125251
0.592967213721755, 0.32593808966561455
0.3807035451981109, 0.1967209469188349
0.29102954280628024, 1.8954220778168813
0.7331414553523048, 0.23917158548596418
0.6973950598444411, 0.20210032414125445
0.6907520032481782, 1.3979374544061693
0.71855536050167, 0.45469349715337803
0.3875383830661604, 1.8242725371392128
0.007038096912158287, 1.6379190011774454
0.7612671534344481, 1.5603383643025892
0.8083352271523115, 0.18068587656288493
0.7066047335363698, 1.2128150276062168
0.02073978875547433, 1.134430992633737
0.9201936924371861, 1.3139660699292128
0.2761022753234843, 0.4241685135939586
0.2540987948245771, 0.011691758670724806
0.49860552075497344, 0.09373161273520858
0.18541039111097912, 0.26767122834834245
0.018724708051670258, 0.20734090683929063
0.9710871164761085, 0.20550554781238928
0.4073194393760464, 1.7579159246014657
0.028996825139645854, 1.9174033208718757
0.9297037880721943, 0.11534307072804828
0.6067672300337338, 1.6917592455020818
0.7380610870713452, 0.2474316870296991
0.755097810792596, 0.6641498563047341
0.069256809253468, 0.3214104433712135
0.8806524449051775, 1.9153081003969823
0.43703345885769984, 1.07931219731324
0.6111501596638397, 0.14650685208102132
0.9287276686412806, 1.9417108094300604
0.15357036533591062, 1.3584831323479383
0.28748958600539465, 0.2605260618425955
0.11551505679056684, 1.129139732011473
0.30639032963092405, 0.8078658797575577
0.8171345952659969, 1.9910097657185657
0.9606394885170448, 0.987469616355084
0.07365812251769488, 1.7492575411032503
0.6984745727058455, 1.098512630645712
0.2086135735877196, 0.4309466830687001
0.18631807729272065, 0.16972577345743511
0.6352738834615083, 0.35783033160338795
0.11119695729691759, 0.6531810131102331
0.01871672599986751, 0.9361437085303321
0.5711767511481745, 0.9195318080884096
0.6066116131436378, 0.9792310092072585
0.5796703843778275, 0.44410589601796513
0.6141857337504258, 0.40594775885772605
0.43013807021402306, 1.6826526334275618
0.7300068220639202, 0.18919598316854325
0.931104638764865, 1.8506523198090785
0.5545316813702023, 0.2582638114676312
0.882832326409699, 1.5045277090433524
0.5768675233234006, 1.1680262101471905
0.7633053160091885, 1.1886241415612457
0.4525573398531285, 0.5464336647130539
0.2591848697592687, 0.058032816023068756
0.32210831586942734, 1.4403941447655908
0.8665240706812988, 0.4736002420848604
0.14673665458721552, 0.5154342993687093
0.16345788590751775, 0.5848383564165553
0.9316523892547276, 1.91585087643942
0.41200951944937536, 0.2195386728058506
0.3155747608789724, 0.41767379798130344
0.445237162169309, 0.8006166182426424
0.004624285375688375, 1.995044937834367
0.20043012879118693, 0.8867044498943688
0.24769211800208568, 1.6853056600651957
0.7046736540529986, 1.7163618233677147
0.790156615970158, 1.1634572652824908
0.0018857952557310709, 1.1044959803478986
0.9433250652643378, 0.025941150991791506
0.08766284370532262, 0.6451879501211377
0.17544673611221984, 0.022825444236329817
0.2669024129727823, 0.4571026157070657
0.8691696359251893, 0.5724566179549535
0.9265392248771986, 0.13252673028244466
0.368014175982727, 1.864070005858754
0.43949670538698904, 0.8617008030610063
0.4548486803896238, 0.6867164200843128
0.7988489307817508, 0.416468809120343
0.8678409450984826, 0.5007803298966615
0.9340150089849123, 0.9992637659216839
0.31368577703886513, 0.5371462392261146
0.5513391772470303, 1.397023100309887
0.7886655017687086, 0.533589779358892
0.02899288332752603, 0.5963474794270429
0.28434972684849413, 0.05677618715454846
0.7945662066376233, 0.7000816733350483
0.7794595971725577, 1.2076296694737603
0.9541885356096037, 1.768606871320288
0.665127995605495, 1.7384033592921
0.4631954270343407, 1.5202510256876303
0.7720344644901224, 0.12668401991608147
0.2578822725035237, 0.8502286671804291
0.8447437813446171, 0.24641442877054787
0.5170879638996023, 0.651603697134512
0.27341429756266455, 1.9373440914614926
0.14190221369936418, 0.45335792304541167
0.9874539263429895, 0.4327403130566243
0.8111653726838514, 0.9829481294265396
0.3884802768477399, 1.586130670288914
0.8599135335280123, 1.8369207357505082
0.7219751632145887, 1.3928402893657814
0.6442863395554189, 1.4547920204610392
0.014531850031532678, 1.656031884734253
0.8312468140964269, 0.42709717185474405
0.3907089070167926, 1.8947036276184215
0.24794469504532735, 0.4041255736999543
0.2010596712895607, 1.8760590213856243
0.35608499544297023, 1.279111965848966
0.9008323325528954, 1.9972324949072522
0.9596919171602443, 1.2442603254938016
0.885379825575586, 0.19057602851960476
0.4637842428895861, 0.2543865609011129
0.12810929857781317, 0.17774922175888452
0.4214795176002897, 1.9385592886174785
0.02778533316916676, 0.14467285373556793
0.6399795580248964, 0.20137439832992965
0.2788652000476095, 0.9499040711713254
0.764160042044217, 1.673294196100521
0.3568124798891119, 1.5984005946604933
0.08310771063435762, 0.3416895588472497
0.8271802540909291, 1.8808015392653297
0.928543110391221, 0.6026789326365549
0.5688763641559326, 1.656669116687044
0.10658654958870584, 0.669513654364561
0.24358368728867585, 0.6468902473567288
0.5980899410490236, 1.177658105620809
0.07959400749588441, 1.5637598290518997
0.8153389757843263, 1.2011414220514869
0.6260769469995903, 1.5020991960107433
0.11951244503361869, 1.3362852444848787
0.36581904124662523, 1.4911126067063505
0.06710405220413596, 0.6596225643990665
0.5668274846971102, 0.011363979182186457
0.47212559190316805, 1.952254940883195
0.6102460500421427, 1.4394511062735735
0.6150323194222973, 0.36037803110347344
0.966634089004931, 0.10418167538425305
0.003962177451412474, 0.6224335982434985
0.17500403229587458, 0.44979462341738063
0.29361814369119443, 0.2552403097840188
0.47997607438482925, 0.014590373273104085
0.8435260864612593, 1.764975387170938
0.7965228237790493, 1.7261197651777436
0.9863323255801107, 0.8536928963187329
0.13446274826923776, 1.7114815175898643
0.10901504065789769, 0.17851333555521132
0.8512725132435162, 1.2692072769203404
0.532935024818884, 1.0233423066340706
0.8330533894223006, 1.971410672807391
0.5050442936481104, 1.6247202950767854
0.1534755717225832, 1.2846052857019534
0.2991355837918336, 0.8251882609089065
0.43308593153217534, 1.4153438579229667
0.23541181249547838, 1.0210919569997747
0.39038059999929997, 0.11022870253294426
0.6778113209829861, 0.7208733067353126
0.6271430120020816, 1.8917185119075874
0.4834941156801319, 1.142039169614746
0.7001829465912148, 0.15553170485947287
0.09623421504910423, 1.9318313249684307
0.5792214856053703, 0.4894579013497289
0.09056723473676875, 1.4250750747671648
0.1328547798471713, 0.7258705620369474
0.5274367699482029, 0.30219655852469707
0.19326439853621824, 1.8326692346925926
0.2110324209655947, 0.708500378379904
0.6129460282498788, 1.2925718618267286
0.8611795661470811, 0.013373596086889483
0.6114450148627059, 0.28491929112031134
0.564751140786068, 1.1086624590202647
0.4266076835905802, 1.3366524100089996
0.02073317616466508, 0.4797865647626849
0.3026641401621437, 0.06143770886442912
0.21981141450596653, 1.2969469390895871
0.18479512556811473, 1.5905244648823373
0.1618370047762634, 0.273355186039707
0.7415303917462068, 1.769179023618726
0.935400089320985, 1.4186329473160493
0.4226927943941119, 0.09422045517077593
0.0006678042971751674, 0.22176859790813497
0.6041541861972525, 0.6411435294218104
0.4604532777496022, 0.14356278997143135
0.45353713981525123, 1.2212838199888136
0.39552272879466954, 1.44935873760073
0.5499852292619107, 0.4957013456740045
0.21512019033320284, 0.5780472422805518
0.19626012299787032, 0.9115197315659518
0.8694366435314101, 1.98775458354249
0.2850093238718626, 0.5808195026861342
0.3957257901304252, 1.1079803466195064
0.3798233718537767, 1.4783036768231814
0.12093926269211852, 1.0258279655259734
0.5922284739632371, 1.7151911155673212
0.3824432626433476, 0.5484607855263992
0.7322324032603367, 0.8562387622784389
0.08553141533013886, 1.3902932578643186
0.7217963907668422, 1.2926098765104375
0.935596042297943, 1.4400921388341572
0.5365763781549329, 0.1055924935997894
0.6091980504357447, 1.7847931707745877
0.4587202718365464, 1.952081601469001
0.8471005926993854, 0.5100939792060741
0.18588265238966528, 0.6580751037060344
0.2524986136777265, 1.2265929293234168
0.9342889427402871, 0.299564071267165
0.3367513704748155, 0.5357236602182667
0.6908688025656232, 0.2951496816919954
0.20235058509340398, 0.6202743512957556
0.8079056047916737, 1.3753906002568042
0.7716512136248151, 0.856495886605174
0.2594095996110861, 0.9566729732222063
0.4454129707461262, 0.5055129491549988
0.326434485799349, 0.06686133514254644
0.11716667753259291, 0.7085358769839254
0.11029502978508476, 1.016118657890845
0.6311267508128448, 0.21237405948994081
0.04117101978158855, 1.5465282790938468
0.45493856026343105, 1.7039893575290173
0.8143890119216614, 0.9102097734571291
0.27009531834295386, 1.2986818306471595
0.3974928898578396, 1.8132523662948001
0.958325222547745, 0.13223738322221368
0.9981812090958998, 0.33373133085211526
0.5795891550482238, 0.7479625246015542
0.8166515711782022, 1.3393628373029036
0.011707505147595554, 1.20742904070463
0.8472213305347983, 0.6853841824431766
0.31356988562340526, 0.9396272097339327
0.9910884753491381, 0.15465795277299343
0.31091350728723577, 1.5752256439112786
0.8225382561272406, 0.29413683859306294
0.7782490950361509, 0.7363001230860071
0.6412577971137645, 0.3487382902141436
0.3554529836786954, 1.719909592754968
0.5017158587171889, 0.8500530627558573
0.4799944014562004, 1.6644718713480824
0.01235391649521933, 0.596129287534507
0.1144097751745915, 0.1885513396803058
0.24705934821896636, 1.0371559388140568
0.8897788921528115, 1.9231704515180623
0.5984181823952748, 0.7929205706056313
0.17324150620845813, 1.0155205713827218
0.6032770453389075, 0.4269894564776666
0.5375485052205479, 0.6028270433113609
0.12311438356187132, 0.8237148722256205
0.552078562314226, 1.6127773075645755
0.6692274873333786, 0.5979776496729858
0.60983327444247, 0.6173027085113785
0.40049141048978054, 1.0577241557103048
0.3542122247413073, 0.24302140912245962
0.6131850945487406, 1.8767032871535319
0.15338893852148716, 0.6607010329644842
0.9105818264603897, 0.44206342139735666
0.0011458003624307267, 1.2229808681527488
0.8617351143308406, 1.9976844940850578
0.7345438293056834, 1.1186125816644383
0.5752710334002359, 1.9831793330755028
0.42782532416961694, 1.660562130451102
0.22004297528981454, 1.6387542397866441
0.7808770340685585, 1.9567025450426585
0.8576493378095523, 1.9047192260380168
0.5789072689993079, 1.9270702306195517
0.744491165768138, 1.631006192000771
0.5488420083266459, 1.1579052091065511
0.26172314860217993, 0.6568424081743955
0.09512975066054474, 0.864204621807589
0.3607758047152907, 1.8715470764092208
0.7162845039588451, 0.34013641936301986
0.2946898035237365, 0.6616959750483988
0.5470380656189208, 1.922177503424936
0.4690553530045437, 0.25921924287489784
0.7780864333088197, 1.0074090894680467
0.18014423107560074, 1.2136861255746636
0.8558780118009679, 1.9800199780247811
0.8351781297906219, 0.13292940911100493
0.19600856571955194, 0.5843799611951783
0.790546286385961, 0.6515557170941977
0.10604883403493504, 0.2910153243923219
0.9333783566176848, 1.6923269466449082
0.4945898959771565, 0.6079362420995356
0.8670568301185148, 1.1474256630072077
0.1237416443522753, 1.87898972119104
0.44515637382122575, 1.5166363942507037
0.7716947045486212, 1.3682942555031703
0.7100000195444326, 1.3457352319588494
0.8923979543801851, 1.9789605510057287
0.2153127681114736, 0.04161113168505404
0.8150642151567632, 1.9890188290472002
0.13369949102973055, 0.04908257189493015
0.7242498132640818, 0.7516046910472218
0.41271407387927694, 1.096360013916325
0.43573236165134654, 0.673431827570355
0.5159635664467326, 1.2000358136041713
0.15807521821400272, 0.8259796531722567
0.7694407833463561, 1.221300525908252
0.11481600456492558, 0.4531967212029764
0.164684077415861, 1.4325077174106609
0.6070717953049499, 1.3925778793776478
0.6577189952465277, 0.20387959238587605
0.8024352822374884, 1.5635946172944484
0.08348095654512122, 0.49859904332804206
0.2792170033535376, 0.39345262254655533
0.4138685165862841, 1.6110829400702864
0.5127600193220927, 1.4714847513462423
0.35608708178137916, 0.15885448553936943
0.6123765901428657, 1.0481070436706448
0.1483393677147895, 0.1810219269528044
0.3213902639239644, 0.8879923489549872
0.07585385677015422, 0.16246891012604792
0.891135791925976, 1.5296036403495425
0.07888124022491272, 0.601011761114618
0.673511199021186, 1.095149949174275
0.5469740249245431, 0.9312374209899315
0.5080688641411509, 1.758714273937504
0.3551500281535831, 1.901283541601776
0.3654689581222462, 0.9718749093206878
0.1313764779304153, 0.534268603569652
0.09816548466163955, 1.7432431663300199
0.9205320102102248, 0.15585395867190543
0.01802741628392701, 0.40668265972161777
0.6471733441096872, 1.155291777759375
0.6277473226220848, 0.994482291082813
0.2257560435945547, 1.6379019644520652
0.7695738387525847, 0.6969635225647504
0.2130714935453707, 0.4474151833395448
0.7011308320395145, 0.11680543491624773
0.20419548848337876, 1.8708832219092058
0.7638691448726427, 0.3885811538156869
0.08082635872507538, 0.6811108152722352
0.8524583612576172, 0.02204074905861164
0.15959647620531447, 1.55991816004048
0.6905771128949622, 0.4727774779202809
0.21250108087503206, 0.8633508209411271
0.8246508274793395, 0.8582012911127281
0.8150343937661672, 0.06853600950574412
0.665659781545239, 1.6446994331497085
0.24466043077531807, 0.23019011246648846
0.04859325803847081, 0.09863970334767114
0.9880605775971387, 1.0295867533554524
0.3249018837550173, 0.40274903481928925
0.604400121445306, 0.6426218239961297
0.3593143989305677, 0.6485859289400999
0.019107707887433212, 1.9112877629333012
0.7279277510305536, 0.6258711713387402
0.974197369571544, 0.8241187981393867
0.21234550149084852, 0.9346046278138715
0.32518841043627567, 0.8759753645781665
0.0185332656387327, 1.845398617538185
0.9208101820603212, 0.5208593067660328
0.5619814211443611, 1.938599796165378
0.8059859232371148, 0.3291917138156757
0.11134677026401663, 0.135999931576688
0.9868800129267336, 0.4596354622263661
0.8117177067195858, 1.8308364444955958
0.18759376264444338, 0.7478522310525444
0.18649172309082906, 1.310724580660406
0.25236597735471156, 1.1746495044750558
0.39012081281778477, 0.9112941808136952
0.8168748696967716, 1.6784361377793091
0.3099644618002614, 0.6660286573660652
0.781983880557089, 0.7819580271345001
0.7791396739230274, 1.4674944454813317
0.4245914803167641, 1.4905678679439138
0.9148371528185314, 1.6906617077637522
0.3634768119576297, 1.9356916854618578
0.22414758804953783, 1.8069784094812078
0.31766072661797407, 1.6142509996310759
0.4272178515807379, 0.66673223035015
0.2337785076421054, 0.1850422941016494
0.8639230833260864, 1.0095918506226764
0.7311392122043227, 1.6573184981947655
0.3394936339253599, 0.7677692122051949
0.8713362370012945, 0.7925839568196766
0.7863173280486813, 0.9276202722482139
0.29689521014019105, 1.9891138919943807
0.8137522538737376, 1.8322393105733756
0.36123134513684574, 1.1893505928239076
0.6070028751028655, 0.26476869738177244
0.5406085655051109, 0.27152627863909373
0.5359640103137292, 0.20355162150432893
0.09063219639466258, 1.5006011718996337
0.26463923442856085, 0.07817177550814969
0.32105663392396566, 0.020378001212000285
0.16327021103573292, 0.011868150170087244
0.4992983247195667, 0.3241086168900287
0.7217896050966356, 1.9027051294308897
0.7000408733188944, 1.0968849404580139
0.9219408725511137, 1.8284556977835902
0.07103783231910366, 0.882897937034302
0.6770429564274546, 1.470896962645657
0.5546795973827976, 0.8495631523526705
0.08513407885900492, 0.7990696164762014
0.5669427381692186, 0.19972577889231014
0.46141702755826985, 1.3906256037193427
0.6458042997785786, 1.9052635712821626
0.8205142969231304, 0.8213074783037719
0.2580491779465016, 1.4145393932791945
0.4893751683020243, 1.7657290602486688
0.3512590742701521, 0.4540466594382555
0.038964507215999755, 0.43696871042270025
0.019474225115764576, 0.1571211642771444
0.8466192794608438, 0.49142961945296837
0.6735872220848426, 0.8123756632439472
0.972961362102447, 0.7471905779444277
0.40963412914638464, 0.5447777289744602
0.8298738360633765, 0.6493185956024858
0.4656534334232978, 0.13351279886187095
0.27516279029578716, 0.7115730075186679
0.1603379039699281, 0.45351159909161254
0.09959109525468168, 0.6840199160639076
0.28684755840939513, 1.3232506295810085
0.2371867274241185, 0.1555701712110793
0.1567391699315056, 0.6829490964201357
0.23023624433678547, 0.8242377781238375
0.9129386515870789, 0.784703973797855
0.10782532195984007, 1.201612343172081
0.3977616399750281, 0.2314716382363462
0.37535699977199466, 1.270870005298767
0.7710007229594734, 1.8886488114064748
0.29937527550414933, 1.8729880901779012
0.8565410590354176, 1.051286588143107
0.9453802324073157, 1.764247685879893
0.16208151602027498, 0.7663995740288274
0.8682936271945302, 1.5130562129598906
0.7675596752761482, 1.8750299270335438
0.9985028876643173, 1.6164955685137465
0.15553555607934066, 0.28064226506904655
